[0.262s] Invoking command in '/home/dom/Cerberus/build/central': CMAKE_PREFIX_PATH=${CMAKE_PREFIX_PATH}:/home/dom/Cerberus/install/camera:/opt/ros/dashing /usr/bin/cmake --build /home/dom/Cerberus/build/central -- -j12 -l12
[0.324s] [35m[1mScanning dependencies of target central_main[0m
[0.363s] [ 50%] [32mBuilding CXX object CMakeFiles/central_main.dir/src/central_main.cpp.o[0m
[0.620s] [01m[K/home/dom/Cerberus/src/central/src/central_main.cpp:6:10:[m[K [01;31m[Kfatal error: [m[Kmessages/msg/img.hpp: No such file or directory
[0.620s]  #include [01;31m[K"messages/msg/img.hpp"[m[K
[0.620s]           [01;31m[K^~~~~~~~~~~~~~~~~~~~~~[m[K
[0.620s] compilation terminated.
[0.623s] CMakeFiles/central_main.dir/build.make:62: recipe for target 'CMakeFiles/central_main.dir/src/central_main.cpp.o' failed
[0.623s] make[2]: *** [CMakeFiles/central_main.dir/src/central_main.cpp.o] Error 1
[0.624s] CMakeFiles/Makefile2:67: recipe for target 'CMakeFiles/central_main.dir/all' failed
[0.624s] make[1]: *** [CMakeFiles/central_main.dir/all] Error 2
[0.624s] Makefile:140: recipe for target 'all' failed
[0.624s] make: *** [all] Error 2
[0.626s] Invoked command in '/home/dom/Cerberus/build/central' returned '2': CMAKE_PREFIX_PATH=${CMAKE_PREFIX_PATH}:/home/dom/Cerberus/install/camera:/opt/ros/dashing /usr/bin/cmake --build /home/dom/Cerberus/build/central -- -j12 -l12
