[0.284s] [  1%] Built target messages__dds_connext_idl
[0.287s] [  3%] Built target messages__cpp
[0.287s] [  4%] Built target messages__dds_opensplice_idl
[0.290s] [  9%] Built target messages__rosidl_generator_c
[0.324s] [ 13%] Built target messages__rosidl_typesupport_cpp
[0.330s] [ 18%] Built target messages__rosidl_typesupport_c
[0.333s] [ 23%] Built target messages__rosidl_typesupport_introspection_c
[0.341s] [ 27%] Built target messages__rosidl_typesupport_introspection_cpp
[0.349s] [ 32%] Built target messages__rosidl_typesupport_fastrtps_cpp
[0.359s] [ 44%] Built target messages__rosidl_typesupport_opensplice_cpp
[0.363s] [ 55%] Built target messages__rosidl_typesupport_connext_cpp
[0.387s] [ 60%] Built target messages__rosidl_typesupport_fastrtps_c
[0.403s] [ 73%] Built target messages__rosidl_typesupport_opensplice_c
[0.404s] [ 86%] Built target messages__rosidl_typesupport_connext_c
[0.427s] [ 86%] Built target messages
[0.447s] [ 87%] Built target messages__py
[0.477s] [ 90%] Built target messages__python
[0.510s] [ 93%] Built target messages__rosidl_typesupport_opensplice_c__pyext
[0.511s] [ 96%] Built target messages__rosidl_typesupport_c__pyext
[0.516s] [100%] Built target messages__rosidl_typesupport_fastrtps_c__pyext
[0.701s] [  1%] Built target messages__cpp
[0.702s] [  6%] Built target messages__rosidl_generator_c
[0.703s] [  7%] Built target messages__dds_connext_idl
[0.707s] [  9%] Built target messages__dds_opensplice_idl
[0.748s] [ 13%] Built target messages__rosidl_typesupport_introspection_c
[0.750s] [ 18%] Built target messages__rosidl_typesupport_cpp
[0.752s] [ 23%] Built target messages__rosidl_typesupport_introspection_cpp
[0.761s] [ 27%] Built target messages__rosidl_typesupport_c
[0.763s] [ 32%] Built target messages__rosidl_typesupport_fastrtps_cpp
[0.767s] [ 43%] Built target messages__rosidl_typesupport_connext_cpp
[0.776s] [ 55%] Built target messages__rosidl_typesupport_opensplice_cpp
[0.798s] [ 60%] Built target messages__rosidl_typesupport_fastrtps_c
[0.814s] [ 72%] Built target messages__rosidl_typesupport_connext_c
[0.816s] [ 86%] Built target messages__rosidl_typesupport_opensplice_c
[0.842s] [ 86%] Built target messages
[0.865s] [ 87%] Built target messages__py
[0.893s] [ 90%] Built target messages__python
[0.924s] [ 96%] Built target messages__rosidl_typesupport_opensplice_c__pyext
[0.924s] [ 96%] Built target messages__rosidl_typesupport_fastrtps_c__pyext
[0.927s] [100%] Built target messages__rosidl_typesupport_c__pyext
[0.951s] [36mInstall the project...[0m
[0.956s] -- Install configuration: ""
[0.957s] -- Up-to-date: /home/dom/Cerberus/install/messages/share/ament_index/resource_index/rosidl_interfaces/messages
[0.957s] -- Up-to-date: /home/dom/Cerberus/install/messages/lib/libmessages__rosidl_typesupport_c.so
[0.957s] -- Up-to-date: /home/dom/Cerberus/install/messages/share/messages/environment/library_path.sh
[0.957s] -- Up-to-date: /home/dom/Cerberus/install/messages/lib/libmessages__rosidl_typesupport_cpp.so
[0.957s] -- Up-to-date: /home/dom/Cerberus/install/messages/include/messages
[0.957s] -- Up-to-date: /home/dom/Cerberus/install/messages/include/messages/msg
[0.957s] -- Up-to-date: /home/dom/Cerberus/install/messages/include/messages/msg/dds_connext
[0.958s] -- Up-to-date: /home/dom/Cerberus/install/messages/include/messages/msg/rosidl_typesupport_connext_c__visibility_control.h
[0.958s] -- Up-to-date: /home/dom/Cerberus/install/messages/include/messages/msg/img__rosidl_typesupport_connext_c.h
[0.958s] -- Up-to-date: /home/dom/Cerberus/install/messages/lib/libmessages__rosidl_typesupport_connext_c.so
[0.958s] -- Up-to-date: /home/dom/Cerberus/install/messages/include/messages
[0.958s] -- Up-to-date: /home/dom/Cerberus/install/messages/include/messages/msg
[0.958s] -- Up-to-date: /home/dom/Cerberus/install/messages/include/messages/msg/img__functions.h
[0.959s] -- Up-to-date: /home/dom/Cerberus/install/messages/include/messages/msg/rosidl_generator_c__visibility_control.h
[0.959s] -- Up-to-date: /home/dom/Cerberus/install/messages/include/messages/msg/img__struct.h
[0.959s] -- Up-to-date: /home/dom/Cerberus/install/messages/include/messages/msg/img__functions.c
[0.959s] -- Up-to-date: /home/dom/Cerberus/install/messages/include/messages/msg/img__type_support.h
[0.960s] -- Up-to-date: /home/dom/Cerberus/install/messages/include/messages/msg/img.h
[0.960s] -- Up-to-date: /home/dom/Cerberus/install/messages/lib/libmessages__rosidl_generator_c.so
[0.960s] -- Up-to-date: /home/dom/Cerberus/install/messages/share/messages/msg/dds_connext
[0.960s] -- Up-to-date: /home/dom/Cerberus/install/messages/share/messages/msg/dds_connext/Img_.idl
[0.960s] -- Up-to-date: /home/dom/Cerberus/install/messages/include/messages
[0.960s] -- Up-to-date: /home/dom/Cerberus/install/messages/include/messages/msg
[0.960s] -- Up-to-date: /home/dom/Cerberus/install/messages/include/messages/msg/dds_connext
[0.961s] -- Up-to-date: /home/dom/Cerberus/install/messages/include/messages/msg/dds_connext/Img_Support.h
[0.961s] -- Up-to-date: /home/dom/Cerberus/install/messages/include/messages/msg/dds_connext/Img_.cxx
[0.961s] -- Up-to-date: /home/dom/Cerberus/install/messages/include/messages/msg/dds_connext/Img_Plugin.cxx
[0.961s] -- Up-to-date: /home/dom/Cerberus/install/messages/include/messages/msg/dds_connext/Img_.h
[0.961s] -- Up-to-date: /home/dom/Cerberus/install/messages/include/messages/msg/dds_connext/Img_Plugin.h
[0.961s] -- Up-to-date: /home/dom/Cerberus/install/messages/include/messages/msg/dds_connext/Img_Support.cxx
[0.961s] -- Up-to-date: /home/dom/Cerberus/install/messages/include/messages/msg/rosidl_typesupport_connext_cpp__visibility_control.h
[0.961s] -- Up-to-date: /home/dom/Cerberus/install/messages/include/messages/msg/img__rosidl_typesupport_connext_cpp.hpp
[0.962s] -- Up-to-date: /home/dom/Cerberus/install/messages/lib/libmessages__rosidl_typesupport_connext_cpp.so
[0.962s] -- Up-to-date: /home/dom/Cerberus/install/messages/include/messages
[0.962s] -- Up-to-date: /home/dom/Cerberus/install/messages/include/messages/msg
[0.962s] -- Up-to-date: /home/dom/Cerberus/install/messages/include/messages/msg/img__traits.hpp
[0.962s] -- Up-to-date: /home/dom/Cerberus/install/messages/include/messages/msg/img.hpp
[0.962s] -- Up-to-date: /home/dom/Cerberus/install/messages/include/messages/msg/img__struct.hpp
[0.962s] -- Up-to-date: /home/dom/Cerberus/install/messages/include/messages
[0.962s] -- Up-to-date: /home/dom/Cerberus/install/messages/include/messages/msg
[0.963s] -- Up-to-date: /home/dom/Cerberus/install/messages/include/messages/msg/rosidl_typesupport_fastrtps_c__visibility_control.h
[0.963s] -- Up-to-date: /home/dom/Cerberus/install/messages/include/messages/msg/img__rosidl_typesupport_fastrtps_c.h
[0.963s] -- Up-to-date: /home/dom/Cerberus/install/messages/lib/libmessages__rosidl_typesupport_fastrtps_c.so
[0.963s] -- Up-to-date: /home/dom/Cerberus/install/messages/include/messages
[0.963s] -- Up-to-date: /home/dom/Cerberus/install/messages/include/messages/msg
[0.963s] -- Up-to-date: /home/dom/Cerberus/install/messages/include/messages/msg/dds_fastrtps
[0.963s] -- Up-to-date: /home/dom/Cerberus/install/messages/include/messages/msg/rosidl_typesupport_fastrtps_cpp__visibility_control.h
[0.964s] -- Up-to-date: /home/dom/Cerberus/install/messages/include/messages/msg/img__rosidl_typesupport_fastrtps_cpp.hpp
[0.964s] -- Up-to-date: /home/dom/Cerberus/install/messages/lib/libmessages__rosidl_typesupport_fastrtps_cpp.so
[0.964s] -- Up-to-date: /home/dom/Cerberus/install/messages/include/messages
[0.964s] -- Up-to-date: /home/dom/Cerberus/install/messages/include/messages/msg
[0.964s] -- Up-to-date: /home/dom/Cerberus/install/messages/include/messages/msg/img__type_support.c
[0.964s] -- Up-to-date: /home/dom/Cerberus/install/messages/include/messages/msg/img__rosidl_typesupport_introspection_c.h
[0.964s] -- Up-to-date: /home/dom/Cerberus/install/messages/include/messages/msg/rosidl_typesupport_introspection_c__visibility_control.h
[0.964s] -- Up-to-date: /home/dom/Cerberus/install/messages/lib/libmessages__rosidl_typesupport_introspection_c.so
[0.964s] -- Up-to-date: /home/dom/Cerberus/install/messages/include/messages
[0.965s] -- Up-to-date: /home/dom/Cerberus/install/messages/include/messages/msg
[0.965s] -- Up-to-date: /home/dom/Cerberus/install/messages/include/messages/msg/rosidl_typesupport_opensplice_c__visibility_control.h
[0.965s] -- Up-to-date: /home/dom/Cerberus/install/messages/include/messages/msg/dds_opensplice_c
[0.965s] -- Up-to-date: /home/dom/Cerberus/install/messages/include/messages/msg/img__rosidl_typesupport_opensplice_c.h
[0.965s] -- Up-to-date: /home/dom/Cerberus/install/messages/lib/libmessages__rosidl_typesupport_opensplice_c.so
[0.965s] -- Up-to-date: /home/dom/Cerberus/install/messages/share/messages/msg/dds_opensplice
[0.965s] -- Up-to-date: /home/dom/Cerberus/install/messages/share/messages/msg/dds_opensplice/Img_.idl
[0.965s] -- Up-to-date: /home/dom/Cerberus/install/messages/include/messages
[0.965s] -- Up-to-date: /home/dom/Cerberus/install/messages/include/messages/msg
[0.966s] -- Up-to-date: /home/dom/Cerberus/install/messages/include/messages/msg/dds_opensplice
[0.966s] -- Up-to-date: /home/dom/Cerberus/install/messages/include/messages/msg/dds_opensplice/Img_Dcps_impl.h
[0.966s] -- Up-to-date: /home/dom/Cerberus/install/messages/include/messages/msg/dds_opensplice/Img_.h
[0.966s] -- Up-to-date: /home/dom/Cerberus/install/messages/include/messages/msg/dds_opensplice/Img_Dcps.h
[0.966s] -- Up-to-date: /home/dom/Cerberus/install/messages/include/messages/msg/dds_opensplice/Img_SplDcps.h
[0.966s] -- Up-to-date: /home/dom/Cerberus/install/messages/include/messages/msg/dds_opensplice/ccpp_Img_.h
[0.966s] -- Up-to-date: /home/dom/Cerberus/install/messages/include/messages/msg/img__rosidl_typesupport_opensplice_cpp.hpp
[0.966s] -- Up-to-date: /home/dom/Cerberus/install/messages/include/messages/msg/rosidl_typesupport_opensplice_cpp__visibility_control.h
[0.966s] -- Up-to-date: /home/dom/Cerberus/install/messages/lib/libmessages__rosidl_typesupport_opensplice_cpp.so
[0.966s] -- Up-to-date: /home/dom/Cerberus/install/messages/include/messages
[0.966s] -- Up-to-date: /home/dom/Cerberus/install/messages/include/messages/msg
[0.966s] -- Up-to-date: /home/dom/Cerberus/install/messages/include/messages/msg/img__type_support.cpp
[0.966s] -- Up-to-date: /home/dom/Cerberus/install/messages/include/messages/msg/img__rosidl_typesupport_introspection_cpp.hpp
[0.966s] -- Up-to-date: /home/dom/Cerberus/install/messages/lib/libmessages__rosidl_typesupport_introspection_cpp.so
[0.966s] -- Up-to-date: /home/dom/Cerberus/install/messages/share/messages/environment/pythonpath.sh
[0.966s] -- Up-to-date: /home/dom/Cerberus/install/messages/lib/python3.6/site-packages/messages/__init__.py
[0.994s] -- Up-to-date: /home/dom/Cerberus/install/messages/lib/python3.6/site-packages/messages/msg
[0.995s] -- Up-to-date: /home/dom/Cerberus/install/messages/lib/python3.6/site-packages/messages/msg/_img_s.c
[0.995s] -- Up-to-date: /home/dom/Cerberus/install/messages/lib/python3.6/site-packages/messages/msg/_img.py
[0.995s] -- Up-to-date: /home/dom/Cerberus/install/messages/lib/python3.6/site-packages/messages/msg/__init__.py
[0.995s] -- Up-to-date: /home/dom/Cerberus/install/messages/lib/python3.6/site-packages/messages/messages_s__rosidl_typesupport_c.cpython-36m-x86_64-linux-gnu.so
[0.995s] -- Up-to-date: /home/dom/Cerberus/install/messages/lib/python3.6/site-packages/messages/messages_s__rosidl_typesupport_fastrtps_c.cpython-36m-x86_64-linux-gnu.so
[0.996s] -- Up-to-date: /home/dom/Cerberus/install/messages/lib/python3.6/site-packages/messages/messages_s__rosidl_typesupport_opensplice_c.cpython-36m-x86_64-linux-gnu.so
[0.997s] -- Up-to-date: /home/dom/Cerberus/install/messages/lib/libmessages__python.so
[0.997s] -- Up-to-date: /home/dom/Cerberus/install/messages/share/messages/msg/Img.idl
[0.997s] -- Up-to-date: /home/dom/Cerberus/install/messages/share/messages/msg/Img.msg
[0.998s] -- Up-to-date: /home/dom/Cerberus/install/messages/share/ament_index/resource_index/package_run_dependencies/messages
[0.998s] -- Up-to-date: /home/dom/Cerberus/install/messages/share/ament_index/resource_index/parent_prefix_path/messages
[0.998s] -- Up-to-date: /home/dom/Cerberus/install/messages/share/messages/environment/ament_prefix_path.sh
[0.998s] -- Up-to-date: /home/dom/Cerberus/install/messages/share/messages/environment/path.sh
[0.998s] -- Up-to-date: /home/dom/Cerberus/install/messages/share/messages/local_setup.bash
[0.999s] -- Up-to-date: /home/dom/Cerberus/install/messages/share/messages/local_setup.sh
[0.999s] -- Up-to-date: /home/dom/Cerberus/install/messages/share/messages/local_setup.zsh
[0.999s] -- Up-to-date: /home/dom/Cerberus/install/messages/share/ament_index/resource_index/packages/messages
[0.999s] -- Up-to-date: /home/dom/Cerberus/install/messages/share/messages/cmake/rosidl_cmake-extras.cmake
[1.000s] -- Up-to-date: /home/dom/Cerberus/install/messages/share/messages/cmake/ament_cmake_export_libraries-extras.cmake
[1.000s] -- Up-to-date: /home/dom/Cerberus/install/messages/share/messages/cmake/ament_cmake_export_include_directories-extras.cmake
[1.000s] -- Up-to-date: /home/dom/Cerberus/install/messages/share/messages/cmake/rosidl_cmake_export_typesupport_libraries-extras.cmake
[1.000s] -- Up-to-date: /home/dom/Cerberus/install/messages/share/messages/cmake/messagesConfig.cmake
[1.000s] -- Up-to-date: /home/dom/Cerberus/install/messages/share/messages/cmake/messagesConfig-version.cmake
[1.000s] -- Up-to-date: /home/dom/Cerberus/install/messages/share/messages/package.xml
