[0.709s] running egg_info
[0.711s] writing /home/dom/Cerberus/build/camera/camera.egg-info/PKG-INFO
[0.711s] writing dependency_links to /home/dom/Cerberus/build/camera/camera.egg-info/dependency_links.txt
[0.711s] writing entry points to /home/dom/Cerberus/build/camera/camera.egg-info/entry_points.txt
[0.712s] writing requirements to /home/dom/Cerberus/build/camera/camera.egg-info/requires.txt
[0.712s] writing top-level names to /home/dom/Cerberus/build/camera/camera.egg-info/top_level.txt
[0.750s] reading manifest file '/home/dom/Cerberus/build/camera/camera.egg-info/SOURCES.txt'
[0.751s] writing manifest file '/home/dom/Cerberus/build/camera/camera.egg-info/SOURCES.txt'
[0.752s] running build
[0.752s] running build_py
[0.752s] running install
[0.753s] running install_lib
[0.754s] running install_data
[0.754s] running install_egg_info
[0.756s] removing '/home/dom/Cerberus/install/camera/lib/python3.6/site-packages/camera-0.0.0-py3.6.egg-info' (and everything under it)
[0.757s] Copying /home/dom/Cerberus/build/camera/camera.egg-info to /home/dom/Cerberus/install/camera/lib/python3.6/site-packages/camera-0.0.0-py3.6.egg-info
[0.758s] running install_scripts
[0.777s] Installing camera_msg script to /home/dom/Cerberus/install/camera/lib/camera
[0.778s] Installing detector script to /home/dom/Cerberus/install/camera/lib/camera
[0.778s] Installing util script to /home/dom/Cerberus/install/camera/lib/camera
[0.778s] writing list of installed files to '/home/dom/Cerberus/build/camera/install.log'
