[0.294s] Invoking command in '/home/dom/Cerberus/src/camera': PYTHONPATH=/home/dom/Cerberus/install/camera/lib/python3.6/site-packages:${PYTHONPATH} /usr/bin/python3 setup.py egg_info --egg-base /home/dom/Cerberus/build/camera build --build-base /home/dom/Cerberus/build/camera/build install --prefix /home/dom/Cerberus/install/camera --record /home/dom/Cerberus/build/camera/install.log --single-version-externally-managed
[0.670s] running egg_info
[0.672s] writing /home/dom/Cerberus/build/camera/camera.egg-info/PKG-INFO
[0.672s] writing dependency_links to /home/dom/Cerberus/build/camera/camera.egg-info/dependency_links.txt
[0.672s] writing entry points to /home/dom/Cerberus/build/camera/camera.egg-info/entry_points.txt
[0.673s] writing requirements to /home/dom/Cerberus/build/camera/camera.egg-info/requires.txt
[0.673s] writing top-level names to /home/dom/Cerberus/build/camera/camera.egg-info/top_level.txt
[0.709s] reading manifest file '/home/dom/Cerberus/build/camera/camera.egg-info/SOURCES.txt'
[0.710s] writing manifest file '/home/dom/Cerberus/build/camera/camera.egg-info/SOURCES.txt'
[0.710s] running build
[0.710s] running build_py
[0.711s] running install
[0.711s] running install_lib
[0.712s] running install_data
[0.713s] running install_egg_info
[0.715s] removing '/home/dom/Cerberus/install/camera/lib/python3.6/site-packages/camera-0.0.0-py3.6.egg-info' (and everything under it)
[0.715s] Copying /home/dom/Cerberus/build/camera/camera.egg-info to /home/dom/Cerberus/install/camera/lib/python3.6/site-packages/camera-0.0.0-py3.6.egg-info
[0.716s] running install_scripts
[0.736s] Installing camera_msg script to /home/dom/Cerberus/install/camera/lib/camera
[0.737s] Installing detector script to /home/dom/Cerberus/install/camera/lib/camera
[0.737s] Installing util script to /home/dom/Cerberus/install/camera/lib/camera
[0.737s] writing list of installed files to '/home/dom/Cerberus/build/camera/install.log'
[0.761s] Invoked command in '/home/dom/Cerberus/src/camera' returned '0': PYTHONPATH=/home/dom/Cerberus/install/camera/lib/python3.6/site-packages:${PYTHONPATH} /usr/bin/python3 setup.py egg_info --egg-base /home/dom/Cerberus/build/camera build --build-base /home/dom/Cerberus/build/camera/build install --prefix /home/dom/Cerberus/install/camera --record /home/dom/Cerberus/build/camera/install.log --single-version-externally-managed
