[2.019s] [01m[K/home/dom/Cerberus/src/central/src/central_main.cpp:21:46:[m[K [01;31m[Kerror: [m[K‘[01m[KImg[m[K’ in namespace ‘[01m[Kstd_msgs::msg[m[K’ does not name a type
[2.019s]      void topic_callback(const std_msgs::msg::[01;31m[KImg[m[K::SharedPtr msg) const
[2.019s]                                               [01;31m[K^~~[m[K
[2.019s] [01m[K/home/dom/Cerberus/src/central/src/central_main.cpp:21:61:[m[K [01;31m[Kerror: [m[Kexpected unqualified-id before ‘[01m[Kmsg[m[K’
[2.019s]      void topic_callback(const std_msgs::msg::Img::SharedPtr [01;31m[Kmsg[m[K) const
[2.019s]                                                              [01;31m[K^~~[m[K
[2.019s] [01m[K/home/dom/Cerberus/src/central/src/central_main.cpp:21:61:[m[K [01;31m[Kerror: [m[Kexpected ‘[01m[K)[m[K’ before ‘[01m[Kmsg[m[K’
[2.019s] [01m[K/home/dom/Cerberus/src/central/src/central_main.cpp:21:51:[m[K [01;31m[Kerror: [m[Kexpected ‘[01m[K;[m[K’ at end of member declaration
[2.020s]      void topic_callback(const std_msgs::msg::Img::[01;31m[KSharedPtr[m[K msg) const
[2.020s]                                                    [01;31m[K^~~~~~~~~[m[K
[2.020s] [01m[K/home/dom/Cerberus/src/central/src/central_main.cpp:21:61:[m[K [01;31m[Kerror: [m[K‘[01m[Kmsg[m[K’ does not name a type
[2.020s]      void topic_callback(const std_msgs::msg::Img::SharedPtr [01;31m[Kmsg[m[K) const
[2.020s]                                                              [01;31m[K^~~[m[K
[2.020s] [01m[K/home/dom/Cerberus/src/central/src/central_main.cpp:25:41:[m[K [01;31m[Kerror: [m[K‘[01m[KImg[m[K’ is not a member of ‘[01m[Kstd_msgs::msg[m[K’
[2.020s]      rclcpp::Subscription<std_msgs::msg::[01;31m[KImg[m[K>::SharedPtr subscription_;
[2.020s]                                          [01;31m[K^~~[m[K
[2.020s] [01m[K/home/dom/Cerberus/src/central/src/central_main.cpp:25:41:[m[K [01;36m[Knote: [m[Ksuggested alternative:
[2.020s] In file included from [01m[K/home/dom/Cerberus/install/messages/include/messages/msg/img.hpp:7:0[m[K,
[2.020s]                  from [01m[K/home/dom/Cerberus/src/central/src/central_main.cpp:6[m[K:
[2.020s] [01m[K/home/dom/Cerberus/install/messages/include/messages/msg/img__struct.hpp:188:44:[m[K [01;36m[Knote: [m[K  ‘[01m[Kmessages::msg::Img[m[K’
[2.020s]    messages::msg::Img_<std::allocator<void>>[01;36m[K;[m[K
[2.020s]                                             [01;36m[K^[m[K
[2.021s] [01m[K/home/dom/Cerberus/src/central/src/central_main.cpp:25:41:[m[K [01;31m[Kerror: [m[K‘[01m[KImg[m[K’ is not a member of ‘[01m[Kstd_msgs::msg[m[K’
[2.021s]      rclcpp::Subscription<std_msgs::msg::[01;31m[KImg[m[K>::SharedPtr subscription_;
[2.021s]                                          [01;31m[K^~~[m[K
[2.021s] [01m[K/home/dom/Cerberus/src/central/src/central_main.cpp:25:41:[m[K [01;36m[Knote: [m[Ksuggested alternative:
[2.021s] In file included from [01m[K/home/dom/Cerberus/install/messages/include/messages/msg/img.hpp:7:0[m[K,
[2.021s]                  from [01m[K/home/dom/Cerberus/src/central/src/central_main.cpp:6[m[K:
[2.021s] [01m[K/home/dom/Cerberus/install/messages/include/messages/msg/img__struct.hpp:188:44:[m[K [01;36m[Knote: [m[K  ‘[01m[Kmessages::msg::Img[m[K’
[2.021s]    messages::msg::Img_<std::allocator<void>>[01;36m[K;[m[K
[2.021s]                                             [01;36m[K^[m[K
[2.021s] [01m[K/home/dom/Cerberus/src/central/src/central_main.cpp:25:44:[m[K [01;31m[Kerror: [m[Ktemplate argument 1 is invalid
[2.021s]      rclcpp::Subscription<std_msgs::msg::Img[01;31m[K>[m[K::SharedPtr subscription_;
[2.022s]                                             [01;31m[K^[m[K
[2.022s] [01m[K/home/dom/Cerberus/src/central/src/central_main.cpp:25:47:[m[K [01;31m[Kerror: [m[Kexpected ‘[01m[K;[m[K’ at end of member declaration
[2.022s]      rclcpp::Subscription<std_msgs::msg::Img>::[01;31m[KSharedPtr[m[K subscription_;
[2.022s]                                                [01;31m[K^~~~~~~~~[m[K
[2.022s] [01m[K/home/dom/Cerberus/src/central/src/central_main.cpp:25:57:[m[K [01;31m[Kerror: [m[K‘[01m[Ksubscription_[m[K’ does not name a type; did you mean ‘[01m[Krcl_subscription_t[m[K’?
[2.022s]      rclcpp::Subscription<std_msgs::msg::Img>::SharedPtr [01;31m[Ksubscription_[m[K;
[2.022s]                                                          [01;31m[K^~~~~~~~~~~~~[m[K
[2.022s]                                                          [32m[Krcl_subscription_t[m[K
[2.022s] [01m[K/home/dom/Cerberus/src/central/src/central_main.cpp:[m[K In constructor ‘[01m[KImageSubscriber::ImageSubscriber()[m[K’:
[2.022s] [01m[K/home/dom/Cerberus/src/central/src/central_main.cpp:16:7:[m[K [01;31m[Kerror: [m[K‘[01m[Ksubscription_[m[K’ was not declared in this scope
[2.022s]        [01;31m[Ksubscription_[m[K = this->create_subscription<std_msgs::msg::Img>(
[2.022s]        [01;31m[K^~~~~~~~~~~~~[m[K
[2.023s] [01m[K/home/dom/Cerberus/src/central/src/central_main.cpp:16:7:[m[K [01;36m[Knote: [m[Ksuggested alternative: ‘[01m[Krcl_subscription_t[m[K’
[2.023s]        [01;36m[Ksubscription_[m[K = this->create_subscription<std_msgs::msg::Img>(
[2.024s]        [01;36m[K^~~~~~~~~~~~~[m[K
[2.024s]        [32m[Krcl_subscription_t[m[K
[2.024s] [01m[K/home/dom/Cerberus/src/central/src/central_main.cpp:16:64:[m[K [01;31m[Kerror: [m[K‘[01m[KImg[m[K’ is not a member of ‘[01m[Kstd_msgs::msg[m[K’
[2.024s]        subscription_ = this->create_subscription<std_msgs::msg::[01;31m[KImg[m[K>(
[2.024s]                                                                 [01;31m[K^~~[m[K
[2.024s] [01m[K/home/dom/Cerberus/src/central/src/central_main.cpp:16:64:[m[K [01;36m[Knote: [m[Ksuggested alternative:
[2.024s] In file included from [01m[K/home/dom/Cerberus/install/messages/include/messages/msg/img.hpp:7:0[m[K,
[2.024s]                  from [01m[K/home/dom/Cerberus/src/central/src/central_main.cpp:6[m[K:
[2.024s] [01m[K/home/dom/Cerberus/install/messages/include/messages/msg/img__struct.hpp:188:44:[m[K [01;36m[Knote: [m[K  ‘[01m[Kmessages::msg::Img[m[K’
[2.024s]    messages::msg::Img_<std::allocator<void>>[01;36m[K;[m[K
[2.024s]                                             [01;36m[K^[m[K
[2.024s] [01m[K/home/dom/Cerberus/src/central/src/central_main.cpp:16:64:[m[K [01;31m[Kerror: [m[K‘[01m[KImg[m[K’ is not a member of ‘[01m[Kstd_msgs::msg[m[K’
[2.024s]        subscription_ = this->create_subscription<std_msgs::msg::[01;31m[KImg[m[K>(
[2.025s]                                                                 [01;31m[K^~~[m[K
[2.025s] [01m[K/home/dom/Cerberus/src/central/src/central_main.cpp:16:64:[m[K [01;36m[Knote: [m[Ksuggested alternative:
[2.025s] In file included from [01m[K/home/dom/Cerberus/install/messages/include/messages/msg/img.hpp:7:0[m[K,
[2.025s]                  from [01m[K/home/dom/Cerberus/src/central/src/central_main.cpp:6[m[K:
[2.025s] [01m[K/home/dom/Cerberus/install/messages/include/messages/msg/img__struct.hpp:188:44:[m[K [01;36m[Knote: [m[K  ‘[01m[Kmessages::msg::Img[m[K’
[2.025s]    messages::msg::Img_<std::allocator<void>>[01;36m[K;[m[K
[2.025s]                                             [01;36m[K^[m[K
[2.032s] [01m[K/home/dom/Cerberus/src/central/src/central_main.cpp:17:78:[m[K [01;31m[Kerror: [m[Kno matching function for call to ‘[01m[KImageSubscriber::create_subscription<<expression error> >(const char [11], int, std::_Bind_helper<false, void (ImageSubscriber::*)(...), ImageSubscriber*, const std::_Placeholder<1>&>::type)[m[K’
[2.033s]        "image_data", 10, std::bind(&ImageSubscriber::topic_callback, this, _1)[01;31m[K)[m[K;
[2.033s]                                                                               [01;31m[K^[m[K
[2.033s] In file included from [01m[K/opt/ros/dashing/include/rclcpp/executors/single_threaded_executor.hpp:28:0[m[K,
[2.033s]                  from [01m[K/opt/ros/dashing/include/rclcpp/executors.hpp:22[m[K,
[2.033s]                  from [01m[K/opt/ros/dashing/include/rclcpp/rclcpp.hpp:144[m[K,
[2.033s]                  from [01m[K/home/dom/Cerberus/src/central/src/central_main.cpp:3[m[K:
[2.033s] [01m[K/opt/ros/dashing/include/rclcpp/node.hpp:242:3:[m[K [01;36m[Knote: [m[Kcandidate: template<class MessageT, class CallbackT, class AllocatorT, class SubscriptionT> std::shared_ptr<SubscriptionT> rclcpp::Node::create_subscription(const string&, const rclcpp::QoS&, CallbackT&&, const rclcpp::SubscriptionOptionsWithAllocator<AllocatorT>&, typename rclcpp::message_memory_strategy::MessageMemoryStrategy<typename rclcpp::subscription_traits::has_message_type<CallbackT>::type, AllocatorT>::SharedPtr)
[2.033s]    [01;36m[Kcreate_subscription[m[K(
[2.033s]    [01;36m[K^~~~~~~~~~~~~~~~~~~[m[K
[2.033s] [01m[K/opt/ros/dashing/include/rclcpp/node.hpp:242:3:[m[K [01;36m[Knote: [m[K  template argument deduction/substitution failed:
[2.034s] [01m[K/home/dom/Cerberus/src/central/src/central_main.cpp:17:78:[m[K [01;31m[Kerror: [m[Ktemplate argument 1 is invalid
[2.034s]        "image_data", 10, std::bind(&ImageSubscriber::topic_callback, this, _1)[01;31m[K)[m[K;
[2.034s]                                                                               [01;31m[K^[m[K
[2.034s] In file included from [01m[K/opt/ros/dashing/include/rclcpp/executors/single_threaded_executor.hpp:28:0[m[K,
[2.034s]                  from [01m[K/opt/ros/dashing/include/rclcpp/executors.hpp:22[m[K,
[2.034s]                  from [01m[K/opt/ros/dashing/include/rclcpp/rclcpp.hpp:144[m[K,
[2.034s]                  from [01m[K/home/dom/Cerberus/src/central/src/central_main.cpp:3[m[K:
[2.034s] [01m[K/opt/ros/dashing/include/rclcpp/node.hpp:279:3:[m[K [01;36m[Knote: [m[Kcandidate: template<class MessageT, class CallbackT, class Alloc, class SubscriptionT> std::shared_ptr<SubscriptionT> rclcpp::Node::create_subscription(const string&, CallbackT&&, const rmw_qos_profile_t&, rclcpp::callback_group::CallbackGroup::SharedPtr, bool, typename rclcpp::message_memory_strategy::MessageMemoryStrategy<typename rclcpp::subscription_traits::has_message_type<CallbackT>::type, AllocatorT>::SharedPtr, std::shared_ptr<PublisherT>)
[2.034s]    [01;36m[Kcreate_subscription[m[K(
[2.034s]    [01;36m[K^~~~~~~~~~~~~~~~~~~[m[K
[2.034s] [01m[K/opt/ros/dashing/include/rclcpp/node.hpp:279:3:[m[K [01;36m[Knote: [m[K  template argument deduction/substitution failed:
[2.034s] [01m[K/home/dom/Cerberus/src/central/src/central_main.cpp:17:78:[m[K [01;31m[Kerror: [m[Ktemplate argument 1 is invalid
[2.034s]        "image_data", 10, std::bind(&ImageSubscriber::topic_callback, this, _1)[01;31m[K)[m[K;
[2.034s]                                                                               [01;31m[K^[m[K
[2.034s] In file included from [01m[K/opt/ros/dashing/include/rclcpp/executors/single_threaded_executor.hpp:28:0[m[K,
[2.034s]                  from [01m[K/opt/ros/dashing/include/rclcpp/executors.hpp:22[m[K,
[2.034s]                  from [01m[K/opt/ros/dashing/include/rclcpp/rclcpp.hpp:144[m[K,
[2.035s]                  from [01m[K/home/dom/Cerberus/src/central/src/central_main.cpp:3[m[K:
[2.035s] [01m[K/opt/ros/dashing/include/rclcpp/node.hpp:316:3:[m[K [01;36m[Knote: [m[Kcandidate: template<class MessageT, class CallbackT, class Alloc, class SubscriptionT> std::shared_ptr<SubscriptionT> rclcpp::Node::create_subscription(const string&, CallbackT&&, size_t, rclcpp::callback_group::CallbackGroup::SharedPtr, bool, typename rclcpp::message_memory_strategy::MessageMemoryStrategy<typename rclcpp::subscription_traits::has_message_type<CallbackT>::type, AllocatorT>::SharedPtr, std::shared_ptr<PublisherT>)
[2.035s]    [01;36m[Kcreate_subscription[m[K(
[2.035s]    [01;36m[K^~~~~~~~~~~~~~~~~~~[m[K
[2.035s] [01m[K/opt/ros/dashing/include/rclcpp/node.hpp:316:3:[m[K [01;36m[Knote: [m[K  template argument deduction/substitution failed:
[2.035s] [01m[K/home/dom/Cerberus/src/central/src/central_main.cpp:17:78:[m[K [01;31m[Kerror: [m[Ktemplate argument 1 is invalid
[2.035s]        "image_data", 10, std::bind(&ImageSubscriber::topic_callback, this, _1)[01;31m[K)[m[K;
[2.035s]                                                                               [01;31m[K^[m[K
[2.168s] make[2]: *** [CMakeFiles/central_main.dir/src/central_main.cpp.o] Error 1
[2.168s] make[1]: *** [CMakeFiles/central_main.dir/all] Error 2
[2.168s] make: *** [all] Error 2
