[0.274s] Invoking command in '/home/dom/Cerberus/src/camera': CONDA_PROMPT_MODIFIER=(base) PYTHONPATH=/home/dom/Cerberus/install/camera/lib/python3.6/site-packages:${PYTHONPATH} /usr/bin/python3 setup.py egg_info --egg-base /home/dom/Cerberus/build/camera build --build-base /home/dom/Cerberus/build/camera/build install --prefix /home/dom/Cerberus/install/camera --record /home/dom/Cerberus/build/camera/install.log --single-version-externally-managed
[0.573s] running egg_info
[0.574s] writing /home/dom/Cerberus/build/camera/camera.egg-info/PKG-INFO
[0.575s] writing dependency_links to /home/dom/Cerberus/build/camera/camera.egg-info/dependency_links.txt
[0.575s] writing entry points to /home/dom/Cerberus/build/camera/camera.egg-info/entry_points.txt
[0.575s] writing requirements to /home/dom/Cerberus/build/camera/camera.egg-info/requires.txt
[0.575s] writing top-level names to /home/dom/Cerberus/build/camera/camera.egg-info/top_level.txt
[0.601s] reading manifest file '/home/dom/Cerberus/build/camera/camera.egg-info/SOURCES.txt'
[0.602s] writing manifest file '/home/dom/Cerberus/build/camera/camera.egg-info/SOURCES.txt'
[0.602s] running build
[0.602s] running build_py
[0.602s] running install
[0.603s] running install_lib
[0.604s] running install_data
[0.604s] running install_egg_info
[0.606s] removing '/home/dom/Cerberus/install/camera/lib/python3.6/site-packages/camera-0.0.0-py3.6.egg-info' (and everything under it)
[0.606s] Copying /home/dom/Cerberus/build/camera/camera.egg-info to /home/dom/Cerberus/install/camera/lib/python3.6/site-packages/camera-0.0.0-py3.6.egg-info
[0.607s] running install_scripts
[0.622s] Installing camera_msg script to /home/dom/Cerberus/install/camera/lib/camera
[0.622s] Installing detector script to /home/dom/Cerberus/install/camera/lib/camera
[0.622s] Installing util script to /home/dom/Cerberus/install/camera/lib/camera
[0.622s] writing list of installed files to '/home/dom/Cerberus/build/camera/install.log'
[0.644s] Invoked command in '/home/dom/Cerberus/src/camera' returned '0': CONDA_PROMPT_MODIFIER=(base) PYTHONPATH=/home/dom/Cerberus/install/camera/lib/python3.6/site-packages:${PYTHONPATH} /usr/bin/python3 setup.py egg_info --egg-base /home/dom/Cerberus/build/camera build --build-base /home/dom/Cerberus/build/camera/build install --prefix /home/dom/Cerberus/install/camera --record /home/dom/Cerberus/build/camera/install.log --single-version-externally-managed
