[0.240s] Invoking command in '/home/dom/Cerberus/build/central': CMAKE_PREFIX_PATH=/opt/ros/dashing CONDA_PROMPT_MODIFIER=(base) /usr/bin/cmake --build /home/dom/Cerberus/build/central -- -j12 -l12
[0.304s] [100%] Built target central_main
[0.330s] Invoked command in '/home/dom/Cerberus/build/central' returned '0': CMAKE_PREFIX_PATH=/opt/ros/dashing CONDA_PROMPT_MODIFIER=(base) /usr/bin/cmake --build /home/dom/Cerberus/build/central -- -j12 -l12
[0.387s] Invoking command in '/home/dom/Cerberus/build/central': CMAKE_PREFIX_PATH=/opt/ros/dashing CONDA_PROMPT_MODIFIER=(base) /usr/bin/cmake --build /home/dom/Cerberus/build/central --target install -- -j12 -l12
[0.450s] [100%] Built target central_main
[0.468s] [36mInstall the project...[0m
[0.475s] -- Install configuration: ""
[0.475s] -- Up-to-date: /home/dom/Cerberus/install/central/lib/central/central_main
[0.476s] -- Up-to-date: /home/dom/Cerberus/install/central/share/ament_index/resource_index/package_run_dependencies/central
[0.476s] -- Up-to-date: /home/dom/Cerberus/install/central/share/ament_index/resource_index/parent_prefix_path/central
[0.476s] -- Up-to-date: /home/dom/Cerberus/install/central/share/central/environment/ament_prefix_path.sh
[0.476s] -- Up-to-date: /home/dom/Cerberus/install/central/share/central/environment/path.sh
[0.477s] -- Up-to-date: /home/dom/Cerberus/install/central/share/central/local_setup.bash
[0.477s] -- Up-to-date: /home/dom/Cerberus/install/central/share/central/local_setup.sh
[0.477s] -- Up-to-date: /home/dom/Cerberus/install/central/share/central/local_setup.zsh
[0.477s] -- Up-to-date: /home/dom/Cerberus/install/central/share/ament_index/resource_index/packages/central
[0.477s] -- Up-to-date: /home/dom/Cerberus/install/central/share/central/cmake/centralConfig.cmake
[0.477s] -- Up-to-date: /home/dom/Cerberus/install/central/share/central/cmake/centralConfig-version.cmake
[0.477s] -- Up-to-date: /home/dom/Cerberus/install/central/share/central/package.xml
[0.480s] Invoked command in '/home/dom/Cerberus/build/central' returned '0': CMAKE_PREFIX_PATH=/opt/ros/dashing CONDA_PROMPT_MODIFIER=(base) /usr/bin/cmake --build /home/dom/Cerberus/build/central --target install -- -j12 -l12
