[0.359s] [  3%] Built target tutorial_interfaces__dds_opensplice_idl
[0.360s] [  3%] Built target tutorial_interfaces__cpp
[0.362s] [  4%] Built target tutorial_interfaces__dds_connext_idl
[0.362s] [  9%] Built target tutorial_interfaces__rosidl_generator_c
[0.408s] [ 13%] Built target tutorial_interfaces__rosidl_typesupport_introspection_cpp
[0.418s] [ 18%] Built target tutorial_interfaces__rosidl_typesupport_c
[0.421s] [ 23%] Built target tutorial_interfaces__rosidl_typesupport_introspection_c
[0.424s] [ 27%] Built target tutorial_interfaces__rosidl_typesupport_cpp
[0.429s] [ 32%] Built target tutorial_interfaces__rosidl_typesupport_fastrtps_cpp
[0.433s] [ 44%] Built target tutorial_interfaces__rosidl_typesupport_opensplice_cpp
[0.446s] [ 55%] Built target tutorial_interfaces__rosidl_typesupport_connext_cpp
[0.472s] [ 60%] Built target tutorial_interfaces__rosidl_typesupport_fastrtps_c
[0.490s] [ 73%] Built target tutorial_interfaces__rosidl_typesupport_opensplice_c
[0.499s] [ 86%] Built target tutorial_interfaces__rosidl_typesupport_connext_c
[0.527s] [ 86%] Built target tutorial_interfaces
[0.551s] [ 87%] Built target tutorial_interfaces__py
[0.579s] [ 90%] Built target tutorial_interfaces__python
[0.615s] [ 93%] Built target tutorial_interfaces__rosidl_typesupport_fastrtps_c__pyext
[0.621s] [ 96%] Built target tutorial_interfaces__rosidl_typesupport_c__pyext
[0.624s] [100%] Built target tutorial_interfaces__rosidl_typesupport_opensplice_c__pyext
