[0.000000] (-) TimerEvent: {}
[0.000275] (camera) JobQueued: {'identifier': 'camera', 'dependencies': OrderedDict()}
[0.000453] (central) JobQueued: {'identifier': 'central', 'dependencies': OrderedDict()}
[0.000530] (messages) JobQueued: {'identifier': 'messages', 'dependencies': OrderedDict()}
[0.000560] (tutorial_interfaces) JobQueued: {'identifier': 'tutorial_interfaces', 'dependencies': OrderedDict()}
[0.000581] (camera) JobStarted: {'identifier': 'camera'}
[0.010074] (central) JobStarted: {'identifier': 'central'}
[0.016156] (messages) JobStarted: {'identifier': 'messages'}
[0.029867] (tutorial_interfaces) JobStarted: {'identifier': 'tutorial_interfaces'}
[0.098904] (-) TimerEvent: {}
[0.199298] (-) TimerEvent: {}
[0.241072] (central) JobProgress: {'identifier': 'central', 'progress': 'cmake'}
[0.241747] (central) JobProgress: {'identifier': 'central', 'progress': 'build'}
[0.242581] (central) Command: {'cmd': ['/usr/bin/cmake', '--build', '/home/dom/Cerberus/build/central', '--', '-j12', '-l12'], 'cwd': '/home/dom/Cerberus/build/central', 'env': OrderedDict([('VIRTUALENVWRAPPER_WORKON_CD', '1'), ('LESSOPEN', '| /usr/bin/lesspipe %s'), ('CONDA_PROMPT_MODIFIER', '(base)'), ('WORKON_HOME', '/home/dom/.virtualenvs'), ('USER', 'dom'), ('LANGUAGE', 'en_GB:en'), ('TEXTDOMAIN', 'im-config'), ('OSPL_INFOFILE', '<stdout>'), ('XDG_SEAT', 'seat0'), ('SSH_AGENT_PID', '2991'), ('XDG_SESSION_TYPE', 'x11'), ('LD_LIBRARY_PATH', '/opt/ros/dashing/opt/yaml_cpp_vendor/lib:/opt/ros/dashing/opt/rviz_ogre_vendor/lib:/usr/lib:/opt/rti.com/rti_connext_dds-5.3.1/lib/x64Linux3gcc5.4.0:/opt/ros/dashing/lib'), ('SHLVL', '1'), ('CONDA_SHLVL', '1'), ('OSPL_URI', 'file:///opt/ros/dashing/share/opensplice_cmake_module/config/ros_ospl.xml'), ('QT4_IM_MODULE', 'xim'), ('HOME', '/home/dom'), ('VIRTUALENVWRAPPER_PYTHON', '/usr/bin/python3'), ('OLDPWD', '/home/dom'), ('DESKTOP_SESSION', 'ubuntu'), ('OSPL_VERBOSITY', '2'), ('NDDSHOME', '/opt/rti.com/rti_connext_dds-5.3.1'), ('GNOME_SHELL_SESSION_MODE', 'ubuntu'), ('GTK_MODULES', 'gail:atk-bridge'), ('ROS_PYTHON_VERSION', '3'), ('DBUS_SESSION_BUS_ADDRESS', 'unix:path=/run/user/1000/bus'), ('OSPL_TMPL_PATH', '/usr/etc/opensplice/idlpp'), ('COLORTERM', 'truecolor'), ('_CE_M', ''), ('IM_CONFIG_PHASE', '2'), ('ROS_DISTRO', 'dashing'), ('LOGNAME', 'dom'), ('GTK_IM_MODULE', 'ibus'), ('DESKTOP_AUTOSTART_ID', '103b12f48314b4615159169251867273500000028960007'), ('_', '/usr/bin/colcon'), ('ROS_VERSION', '2'), ('USERNAME', 'dom'), ('XDG_SESSION_ID', '3'), ('TERM', 'xterm-256color'), ('_CE_CONDA', ''), ('OSPL_ERRORFILE', '<stderr>'), ('GNOME_DESKTOP_SESSION_ID', 'this-is-deprecated'), ('WINDOWPATH', '2'), ('PATH', '/opt/rti.com/rti_connext_dds-5.3.1/lib/x64Linux3gcc5.4.0:/opt/rti.com/rti_connext_dds-5.3.1/bin:/opt/ros/dashing/bin:/home/dom/anaconda3/bin:/home/dom/anaconda3/condabin:/home/dom/.local/bin:/usr/local/sbin:/usr/local/bin:/usr/sbin:/usr/bin:/sbin:/bin:/usr/games:/usr/local/games:/snap/bin'), ('SESSION_MANAGER', 'local/dom-NL5E:@/tmp/.ICE-unix/2896,unix/dom-NL5E:/tmp/.ICE-unix/2896'), ('XDG_MENU_PREFIX', 'gnome-'), ('S_COLORS', 'auto'), ('GNOME_TERMINAL_SCREEN', '/org/gnome/Terminal/screen/4daa66e2_d84f_4c4c_9bd5_f4728c01a2f0'), ('XDG_RUNTIME_DIR', '/run/user/1000'), ('DISPLAY', ':1'), ('LANG', 'en_GB.UTF-8'), ('OSPL_HOME', '/usr'), ('XDG_CURRENT_DESKTOP', 'ubuntu:GNOME'), ('LS_COLORS', 'rs=0:di=01;34:ln=01;36:mh=00:pi=40;33:so=01;35:do=01;35:bd=40;33;01:cd=40;33;01:or=40;31;01:mi=00:su=37;41:sg=30;43:ca=30;41:tw=30;42:ow=34;42:st=37;44:ex=01;32:*.tar=01;31:*.tgz=01;31:*.arc=01;31:*.arj=01;31:*.taz=01;31:*.lha=01;31:*.lz4=01;31:*.lzh=01;31:*.lzma=01;31:*.tlz=01;31:*.txz=01;31:*.tzo=01;31:*.t7z=01;31:*.zip=01;31:*.z=01;31:*.Z=01;31:*.dz=01;31:*.gz=01;31:*.lrz=01;31:*.lz=01;31:*.lzo=01;31:*.xz=01;31:*.zst=01;31:*.tzst=01;31:*.bz2=01;31:*.bz=01;31:*.tbz=01;31:*.tbz2=01;31:*.tz=01;31:*.deb=01;31:*.rpm=01;31:*.jar=01;31:*.war=01;31:*.ear=01;31:*.sar=01;31:*.rar=01;31:*.alz=01;31:*.ace=01;31:*.zoo=01;31:*.cpio=01;31:*.7z=01;31:*.rz=01;31:*.cab=01;31:*.wim=01;31:*.swm=01;31:*.dwm=01;31:*.esd=01;31:*.jpg=01;35:*.jpeg=01;35:*.mjpg=01;35:*.mjpeg=01;35:*.gif=01;35:*.bmp=01;35:*.pbm=01;35:*.pgm=01;35:*.ppm=01;35:*.tga=01;35:*.xbm=01;35:*.xpm=01;35:*.tif=01;35:*.tiff=01;35:*.png=01;35:*.svg=01;35:*.svgz=01;35:*.mng=01;35:*.pcx=01;35:*.mov=01;35:*.mpg=01;35:*.mpeg=01;35:*.m2v=01;35:*.mkv=01;35:*.webm=01;35:*.ogm=01;35:*.mp4=01;35:*.m4v=01;35:*.mp4v=01;35:*.vob=01;35:*.qt=01;35:*.nuv=01;35:*.wmv=01;35:*.asf=01;35:*.rm=01;35:*.rmvb=01;35:*.flc=01;35:*.avi=01;35:*.fli=01;35:*.flv=01;35:*.gl=01;35:*.dl=01;35:*.xcf=01;35:*.xwd=01;35:*.yuv=01;35:*.cgm=01;35:*.emf=01;35:*.ogv=01;35:*.ogx=01;35:*.aac=00;36:*.au=00;36:*.flac=00;36:*.m4a=00;36:*.mid=00;36:*.midi=00;36:*.mka=00;36:*.mp3=00;36:*.mpc=00;36:*.ogg=00;36:*.ra=00;36:*.wav=00;36:*.oga=00;36:*.opus=00;36:*.spx=00;36:*.xspf=00;36:'), ('XDG_SESSION_DESKTOP', 'ubuntu'), ('XMODIFIERS', '@im=ibus'), ('GNOME_TERMINAL_SERVICE', ':1.73'), ('XAUTHORITY', '/run/user/1000/gdm/Xauthority'), ('AMENT_PREFIX_PATH', '/opt/ros/dashing'), ('SSH_AUTH_SOCK', '/run/user/1000/keyring/ssh'), ('CONDA_PYTHON_EXE', '/home/dom/anaconda3/bin/python'), ('ROS_DOMAIN_ID', '1'), ('SHELL', '/bin/bash'), ('QT_ACCESSIBILITY', '1'), ('GDMSESSION', 'ubuntu'), ('LESSCLOSE', '/usr/bin/lesspipe %s %s'), ('VIRTUALENVWRAPPER_PROJECT_FILENAME', '.project'), ('CONDA_DEFAULT_ENV', 'base'), ('VIRTUALENVWRAPPER_HOOK_DIR', '/home/dom/.virtualenvs'), ('TEXTDOMAINDIR', '/usr/share/locale/'), ('GPG_AGENT_INFO', '/run/user/1000/gnupg/S.gpg-agent:0:1'), ('XDG_VTNR', '2'), ('VIRTUALENVWRAPPER_SCRIPT', '/usr/local/bin/virtualenvwrapper.sh'), ('QT_IM_MODULE', 'ibus'), ('PWD', '/home/dom/Cerberus/build/central'), ('CLUTTER_IM_MODULE', 'xim'), ('CONDA_EXE', '/home/dom/anaconda3/bin/conda'), ('XDG_DATA_DIRS', '/usr/share/ubuntu:/usr/local/share/:/usr/share/:/var/lib/snapd/desktop'), ('XDG_CONFIG_DIRS', '/etc/xdg/xdg-ubuntu:/etc/xdg'), ('PYTHONPATH', '/opt/ros/dashing/lib/python3.6/site-packages'), ('CONDA_PREFIX', '/home/dom/anaconda3'), ('COLCON', '1'), ('VTE_VERSION', '5202'), ('CMAKE_PREFIX_PATH', '/opt/ros/dashing')]), 'shell': False}
[0.246241] (messages) JobProgress: {'identifier': 'messages', 'progress': 'cmake'}
[0.247768] (messages) JobProgress: {'identifier': 'messages', 'progress': 'build'}
[0.247871] (messages) Command: {'cmd': ['/usr/bin/cmake', '--build', '/home/dom/Cerberus/build/messages', '--', '-j12', '-l12'], 'cwd': '/home/dom/Cerberus/build/messages', 'env': OrderedDict([('VIRTUALENVWRAPPER_WORKON_CD', '1'), ('LESSOPEN', '| /usr/bin/lesspipe %s'), ('CONDA_PROMPT_MODIFIER', '(base)'), ('WORKON_HOME', '/home/dom/.virtualenvs'), ('USER', 'dom'), ('LANGUAGE', 'en_GB:en'), ('TEXTDOMAIN', 'im-config'), ('OSPL_INFOFILE', '<stdout>'), ('XDG_SEAT', 'seat0'), ('SSH_AGENT_PID', '2991'), ('XDG_SESSION_TYPE', 'x11'), ('LD_LIBRARY_PATH', '/opt/ros/dashing/opt/yaml_cpp_vendor/lib:/opt/ros/dashing/opt/rviz_ogre_vendor/lib:/usr/lib:/opt/rti.com/rti_connext_dds-5.3.1/lib/x64Linux3gcc5.4.0:/opt/ros/dashing/lib'), ('SHLVL', '1'), ('CONDA_SHLVL', '1'), ('OSPL_URI', 'file:///opt/ros/dashing/share/opensplice_cmake_module/config/ros_ospl.xml'), ('QT4_IM_MODULE', 'xim'), ('HOME', '/home/dom'), ('VIRTUALENVWRAPPER_PYTHON', '/usr/bin/python3'), ('OLDPWD', '/home/dom'), ('DESKTOP_SESSION', 'ubuntu'), ('OSPL_VERBOSITY', '2'), ('NDDSHOME', '/opt/rti.com/rti_connext_dds-5.3.1'), ('GNOME_SHELL_SESSION_MODE', 'ubuntu'), ('GTK_MODULES', 'gail:atk-bridge'), ('ROS_PYTHON_VERSION', '3'), ('DBUS_SESSION_BUS_ADDRESS', 'unix:path=/run/user/1000/bus'), ('OSPL_TMPL_PATH', '/usr/etc/opensplice/idlpp'), ('COLORTERM', 'truecolor'), ('_CE_M', ''), ('IM_CONFIG_PHASE', '2'), ('ROS_DISTRO', 'dashing'), ('LOGNAME', 'dom'), ('GTK_IM_MODULE', 'ibus'), ('DESKTOP_AUTOSTART_ID', '103b12f48314b4615159169251867273500000028960007'), ('_', '/usr/bin/colcon'), ('ROS_VERSION', '2'), ('USERNAME', 'dom'), ('XDG_SESSION_ID', '3'), ('TERM', 'xterm-256color'), ('_CE_CONDA', ''), ('OSPL_ERRORFILE', '<stderr>'), ('GNOME_DESKTOP_SESSION_ID', 'this-is-deprecated'), ('WINDOWPATH', '2'), ('PATH', '/opt/rti.com/rti_connext_dds-5.3.1/lib/x64Linux3gcc5.4.0:/opt/rti.com/rti_connext_dds-5.3.1/bin:/opt/ros/dashing/bin:/home/dom/anaconda3/bin:/home/dom/anaconda3/condabin:/home/dom/.local/bin:/usr/local/sbin:/usr/local/bin:/usr/sbin:/usr/bin:/sbin:/bin:/usr/games:/usr/local/games:/snap/bin'), ('SESSION_MANAGER', 'local/dom-NL5E:@/tmp/.ICE-unix/2896,unix/dom-NL5E:/tmp/.ICE-unix/2896'), ('XDG_MENU_PREFIX', 'gnome-'), ('S_COLORS', 'auto'), ('GNOME_TERMINAL_SCREEN', '/org/gnome/Terminal/screen/4daa66e2_d84f_4c4c_9bd5_f4728c01a2f0'), ('XDG_RUNTIME_DIR', '/run/user/1000'), ('DISPLAY', ':1'), ('LANG', 'en_GB.UTF-8'), ('OSPL_HOME', '/usr'), ('XDG_CURRENT_DESKTOP', 'ubuntu:GNOME'), ('LS_COLORS', 'rs=0:di=01;34:ln=01;36:mh=00:pi=40;33:so=01;35:do=01;35:bd=40;33;01:cd=40;33;01:or=40;31;01:mi=00:su=37;41:sg=30;43:ca=30;41:tw=30;42:ow=34;42:st=37;44:ex=01;32:*.tar=01;31:*.tgz=01;31:*.arc=01;31:*.arj=01;31:*.taz=01;31:*.lha=01;31:*.lz4=01;31:*.lzh=01;31:*.lzma=01;31:*.tlz=01;31:*.txz=01;31:*.tzo=01;31:*.t7z=01;31:*.zip=01;31:*.z=01;31:*.Z=01;31:*.dz=01;31:*.gz=01;31:*.lrz=01;31:*.lz=01;31:*.lzo=01;31:*.xz=01;31:*.zst=01;31:*.tzst=01;31:*.bz2=01;31:*.bz=01;31:*.tbz=01;31:*.tbz2=01;31:*.tz=01;31:*.deb=01;31:*.rpm=01;31:*.jar=01;31:*.war=01;31:*.ear=01;31:*.sar=01;31:*.rar=01;31:*.alz=01;31:*.ace=01;31:*.zoo=01;31:*.cpio=01;31:*.7z=01;31:*.rz=01;31:*.cab=01;31:*.wim=01;31:*.swm=01;31:*.dwm=01;31:*.esd=01;31:*.jpg=01;35:*.jpeg=01;35:*.mjpg=01;35:*.mjpeg=01;35:*.gif=01;35:*.bmp=01;35:*.pbm=01;35:*.pgm=01;35:*.ppm=01;35:*.tga=01;35:*.xbm=01;35:*.xpm=01;35:*.tif=01;35:*.tiff=01;35:*.png=01;35:*.svg=01;35:*.svgz=01;35:*.mng=01;35:*.pcx=01;35:*.mov=01;35:*.mpg=01;35:*.mpeg=01;35:*.m2v=01;35:*.mkv=01;35:*.webm=01;35:*.ogm=01;35:*.mp4=01;35:*.m4v=01;35:*.mp4v=01;35:*.vob=01;35:*.qt=01;35:*.nuv=01;35:*.wmv=01;35:*.asf=01;35:*.rm=01;35:*.rmvb=01;35:*.flc=01;35:*.avi=01;35:*.fli=01;35:*.flv=01;35:*.gl=01;35:*.dl=01;35:*.xcf=01;35:*.xwd=01;35:*.yuv=01;35:*.cgm=01;35:*.emf=01;35:*.ogv=01;35:*.ogx=01;35:*.aac=00;36:*.au=00;36:*.flac=00;36:*.m4a=00;36:*.mid=00;36:*.midi=00;36:*.mka=00;36:*.mp3=00;36:*.mpc=00;36:*.ogg=00;36:*.ra=00;36:*.wav=00;36:*.oga=00;36:*.opus=00;36:*.spx=00;36:*.xspf=00;36:'), ('XDG_SESSION_DESKTOP', 'ubuntu'), ('XMODIFIERS', '@im=ibus'), ('GNOME_TERMINAL_SERVICE', ':1.73'), ('XAUTHORITY', '/run/user/1000/gdm/Xauthority'), ('AMENT_PREFIX_PATH', '/opt/ros/dashing'), ('SSH_AUTH_SOCK', '/run/user/1000/keyring/ssh'), ('CONDA_PYTHON_EXE', '/home/dom/anaconda3/bin/python'), ('ROS_DOMAIN_ID', '1'), ('SHELL', '/bin/bash'), ('QT_ACCESSIBILITY', '1'), ('GDMSESSION', 'ubuntu'), ('LESSCLOSE', '/usr/bin/lesspipe %s %s'), ('VIRTUALENVWRAPPER_PROJECT_FILENAME', '.project'), ('CONDA_DEFAULT_ENV', 'base'), ('VIRTUALENVWRAPPER_HOOK_DIR', '/home/dom/.virtualenvs'), ('TEXTDOMAINDIR', '/usr/share/locale/'), ('GPG_AGENT_INFO', '/run/user/1000/gnupg/S.gpg-agent:0:1'), ('XDG_VTNR', '2'), ('VIRTUALENVWRAPPER_SCRIPT', '/usr/local/bin/virtualenvwrapper.sh'), ('QT_IM_MODULE', 'ibus'), ('PWD', '/home/dom/Cerberus/build/messages'), ('CLUTTER_IM_MODULE', 'xim'), ('CONDA_EXE', '/home/dom/anaconda3/bin/conda'), ('XDG_DATA_DIRS', '/usr/share/ubuntu:/usr/local/share/:/usr/share/:/var/lib/snapd/desktop'), ('XDG_CONFIG_DIRS', '/etc/xdg/xdg-ubuntu:/etc/xdg'), ('PYTHONPATH', '/opt/ros/dashing/lib/python3.6/site-packages'), ('CONDA_PREFIX', '/home/dom/anaconda3'), ('COLCON', '1'), ('VTE_VERSION', '5202'), ('CMAKE_PREFIX_PATH', '/opt/ros/dashing')]), 'shell': False}
[0.249933] (tutorial_interfaces) JobProgress: {'identifier': 'tutorial_interfaces', 'progress': 'cmake'}
[0.251615] (tutorial_interfaces) JobProgress: {'identifier': 'tutorial_interfaces', 'progress': 'build'}
[0.251736] (tutorial_interfaces) Command: {'cmd': ['/usr/bin/cmake', '--build', '/home/dom/Cerberus/build/tutorial_interfaces', '--', '-j12', '-l12'], 'cwd': '/home/dom/Cerberus/build/tutorial_interfaces', 'env': OrderedDict([('VIRTUALENVWRAPPER_WORKON_CD', '1'), ('LESSOPEN', '| /usr/bin/lesspipe %s'), ('CONDA_PROMPT_MODIFIER', '(base)'), ('WORKON_HOME', '/home/dom/.virtualenvs'), ('USER', 'dom'), ('LANGUAGE', 'en_GB:en'), ('TEXTDOMAIN', 'im-config'), ('OSPL_INFOFILE', '<stdout>'), ('XDG_SEAT', 'seat0'), ('SSH_AGENT_PID', '2991'), ('XDG_SESSION_TYPE', 'x11'), ('LD_LIBRARY_PATH', '/opt/ros/dashing/opt/yaml_cpp_vendor/lib:/opt/ros/dashing/opt/rviz_ogre_vendor/lib:/usr/lib:/opt/rti.com/rti_connext_dds-5.3.1/lib/x64Linux3gcc5.4.0:/opt/ros/dashing/lib'), ('SHLVL', '1'), ('CONDA_SHLVL', '1'), ('OSPL_URI', 'file:///opt/ros/dashing/share/opensplice_cmake_module/config/ros_ospl.xml'), ('QT4_IM_MODULE', 'xim'), ('HOME', '/home/dom'), ('VIRTUALENVWRAPPER_PYTHON', '/usr/bin/python3'), ('OLDPWD', '/home/dom'), ('DESKTOP_SESSION', 'ubuntu'), ('OSPL_VERBOSITY', '2'), ('NDDSHOME', '/opt/rti.com/rti_connext_dds-5.3.1'), ('GNOME_SHELL_SESSION_MODE', 'ubuntu'), ('GTK_MODULES', 'gail:atk-bridge'), ('ROS_PYTHON_VERSION', '3'), ('DBUS_SESSION_BUS_ADDRESS', 'unix:path=/run/user/1000/bus'), ('OSPL_TMPL_PATH', '/usr/etc/opensplice/idlpp'), ('COLORTERM', 'truecolor'), ('_CE_M', ''), ('IM_CONFIG_PHASE', '2'), ('ROS_DISTRO', 'dashing'), ('LOGNAME', 'dom'), ('GTK_IM_MODULE', 'ibus'), ('DESKTOP_AUTOSTART_ID', '103b12f48314b4615159169251867273500000028960007'), ('_', '/usr/bin/colcon'), ('ROS_VERSION', '2'), ('USERNAME', 'dom'), ('XDG_SESSION_ID', '3'), ('TERM', 'xterm-256color'), ('_CE_CONDA', ''), ('OSPL_ERRORFILE', '<stderr>'), ('GNOME_DESKTOP_SESSION_ID', 'this-is-deprecated'), ('WINDOWPATH', '2'), ('PATH', '/opt/rti.com/rti_connext_dds-5.3.1/lib/x64Linux3gcc5.4.0:/opt/rti.com/rti_connext_dds-5.3.1/bin:/opt/ros/dashing/bin:/home/dom/anaconda3/bin:/home/dom/anaconda3/condabin:/home/dom/.local/bin:/usr/local/sbin:/usr/local/bin:/usr/sbin:/usr/bin:/sbin:/bin:/usr/games:/usr/local/games:/snap/bin'), ('SESSION_MANAGER', 'local/dom-NL5E:@/tmp/.ICE-unix/2896,unix/dom-NL5E:/tmp/.ICE-unix/2896'), ('XDG_MENU_PREFIX', 'gnome-'), ('S_COLORS', 'auto'), ('GNOME_TERMINAL_SCREEN', '/org/gnome/Terminal/screen/4daa66e2_d84f_4c4c_9bd5_f4728c01a2f0'), ('XDG_RUNTIME_DIR', '/run/user/1000'), ('DISPLAY', ':1'), ('LANG', 'en_GB.UTF-8'), ('OSPL_HOME', '/usr'), ('XDG_CURRENT_DESKTOP', 'ubuntu:GNOME'), ('LS_COLORS', 'rs=0:di=01;34:ln=01;36:mh=00:pi=40;33:so=01;35:do=01;35:bd=40;33;01:cd=40;33;01:or=40;31;01:mi=00:su=37;41:sg=30;43:ca=30;41:tw=30;42:ow=34;42:st=37;44:ex=01;32:*.tar=01;31:*.tgz=01;31:*.arc=01;31:*.arj=01;31:*.taz=01;31:*.lha=01;31:*.lz4=01;31:*.lzh=01;31:*.lzma=01;31:*.tlz=01;31:*.txz=01;31:*.tzo=01;31:*.t7z=01;31:*.zip=01;31:*.z=01;31:*.Z=01;31:*.dz=01;31:*.gz=01;31:*.lrz=01;31:*.lz=01;31:*.lzo=01;31:*.xz=01;31:*.zst=01;31:*.tzst=01;31:*.bz2=01;31:*.bz=01;31:*.tbz=01;31:*.tbz2=01;31:*.tz=01;31:*.deb=01;31:*.rpm=01;31:*.jar=01;31:*.war=01;31:*.ear=01;31:*.sar=01;31:*.rar=01;31:*.alz=01;31:*.ace=01;31:*.zoo=01;31:*.cpio=01;31:*.7z=01;31:*.rz=01;31:*.cab=01;31:*.wim=01;31:*.swm=01;31:*.dwm=01;31:*.esd=01;31:*.jpg=01;35:*.jpeg=01;35:*.mjpg=01;35:*.mjpeg=01;35:*.gif=01;35:*.bmp=01;35:*.pbm=01;35:*.pgm=01;35:*.ppm=01;35:*.tga=01;35:*.xbm=01;35:*.xpm=01;35:*.tif=01;35:*.tiff=01;35:*.png=01;35:*.svg=01;35:*.svgz=01;35:*.mng=01;35:*.pcx=01;35:*.mov=01;35:*.mpg=01;35:*.mpeg=01;35:*.m2v=01;35:*.mkv=01;35:*.webm=01;35:*.ogm=01;35:*.mp4=01;35:*.m4v=01;35:*.mp4v=01;35:*.vob=01;35:*.qt=01;35:*.nuv=01;35:*.wmv=01;35:*.asf=01;35:*.rm=01;35:*.rmvb=01;35:*.flc=01;35:*.avi=01;35:*.fli=01;35:*.flv=01;35:*.gl=01;35:*.dl=01;35:*.xcf=01;35:*.xwd=01;35:*.yuv=01;35:*.cgm=01;35:*.emf=01;35:*.ogv=01;35:*.ogx=01;35:*.aac=00;36:*.au=00;36:*.flac=00;36:*.m4a=00;36:*.mid=00;36:*.midi=00;36:*.mka=00;36:*.mp3=00;36:*.mpc=00;36:*.ogg=00;36:*.ra=00;36:*.wav=00;36:*.oga=00;36:*.opus=00;36:*.spx=00;36:*.xspf=00;36:'), ('XDG_SESSION_DESKTOP', 'ubuntu'), ('XMODIFIERS', '@im=ibus'), ('GNOME_TERMINAL_SERVICE', ':1.73'), ('XAUTHORITY', '/run/user/1000/gdm/Xauthority'), ('AMENT_PREFIX_PATH', '/opt/ros/dashing'), ('SSH_AUTH_SOCK', '/run/user/1000/keyring/ssh'), ('CONDA_PYTHON_EXE', '/home/dom/anaconda3/bin/python'), ('ROS_DOMAIN_ID', '1'), ('SHELL', '/bin/bash'), ('QT_ACCESSIBILITY', '1'), ('GDMSESSION', 'ubuntu'), ('LESSCLOSE', '/usr/bin/lesspipe %s %s'), ('VIRTUALENVWRAPPER_PROJECT_FILENAME', '.project'), ('CONDA_DEFAULT_ENV', 'base'), ('VIRTUALENVWRAPPER_HOOK_DIR', '/home/dom/.virtualenvs'), ('TEXTDOMAINDIR', '/usr/share/locale/'), ('GPG_AGENT_INFO', '/run/user/1000/gnupg/S.gpg-agent:0:1'), ('XDG_VTNR', '2'), ('VIRTUALENVWRAPPER_SCRIPT', '/usr/local/bin/virtualenvwrapper.sh'), ('QT_IM_MODULE', 'ibus'), ('PWD', '/home/dom/Cerberus/build/tutorial_interfaces'), ('CLUTTER_IM_MODULE', 'xim'), ('CONDA_EXE', '/home/dom/anaconda3/bin/conda'), ('XDG_DATA_DIRS', '/usr/share/ubuntu:/usr/local/share/:/usr/share/:/var/lib/snapd/desktop'), ('XDG_CONFIG_DIRS', '/etc/xdg/xdg-ubuntu:/etc/xdg'), ('PYTHONPATH', '/opt/ros/dashing/lib/python3.6/site-packages'), ('CONDA_PREFIX', '/home/dom/anaconda3'), ('COLCON', '1'), ('VTE_VERSION', '5202'), ('CMAKE_PREFIX_PATH', '/opt/ros/dashing')]), 'shell': False}
[0.256117] (camera) Command: {'cmd': ['/usr/bin/python3', 'setup.py', 'egg_info', '--egg-base', '/home/dom/Cerberus/build/camera', 'build', '--build-base', '/home/dom/Cerberus/build/camera/build', 'install', '--prefix', '/home/dom/Cerberus/install/camera', '--record', '/home/dom/Cerberus/build/camera/install.log', '--single-version-externally-managed'], 'cwd': '/home/dom/Cerberus/src/camera', 'env': {'VIRTUALENVWRAPPER_WORKON_CD': '1', 'LESSOPEN': '| /usr/bin/lesspipe %s', 'CONDA_PROMPT_MODIFIER': '(base)', 'WORKON_HOME': '/home/dom/.virtualenvs', 'USER': 'dom', 'LANGUAGE': 'en_GB:en', 'TEXTDOMAIN': 'im-config', 'OSPL_INFOFILE': '<stdout>', 'XDG_SEAT': 'seat0', 'SSH_AGENT_PID': '2991', 'XDG_SESSION_TYPE': 'x11', 'LD_LIBRARY_PATH': '/opt/ros/dashing/opt/yaml_cpp_vendor/lib:/opt/ros/dashing/opt/rviz_ogre_vendor/lib:/usr/lib:/opt/rti.com/rti_connext_dds-5.3.1/lib/x64Linux3gcc5.4.0:/opt/ros/dashing/lib', 'SHLVL': '1', 'CONDA_SHLVL': '1', 'OSPL_URI': 'file:///opt/ros/dashing/share/opensplice_cmake_module/config/ros_ospl.xml', 'QT4_IM_MODULE': 'xim', 'HOME': '/home/dom', 'VIRTUALENVWRAPPER_PYTHON': '/usr/bin/python3', 'OLDPWD': '/home/dom', 'DESKTOP_SESSION': 'ubuntu', 'OSPL_VERBOSITY': '2', 'NDDSHOME': '/opt/rti.com/rti_connext_dds-5.3.1', 'GNOME_SHELL_SESSION_MODE': 'ubuntu', 'GTK_MODULES': 'gail:atk-bridge', 'ROS_PYTHON_VERSION': '3', 'DBUS_SESSION_BUS_ADDRESS': 'unix:path=/run/user/1000/bus', 'OSPL_TMPL_PATH': '/usr/etc/opensplice/idlpp', 'COLORTERM': 'truecolor', '_CE_M': '', 'IM_CONFIG_PHASE': '2', 'ROS_DISTRO': 'dashing', 'LOGNAME': 'dom', 'GTK_IM_MODULE': 'ibus', 'DESKTOP_AUTOSTART_ID': '103b12f48314b4615159169251867273500000028960007', '_': '/usr/bin/colcon', 'ROS_VERSION': '2', 'USERNAME': 'dom', 'XDG_SESSION_ID': '3', 'TERM': 'xterm-256color', '_CE_CONDA': '', 'OSPL_ERRORFILE': '<stderr>', 'GNOME_DESKTOP_SESSION_ID': 'this-is-deprecated', 'WINDOWPATH': '2', 'PATH': '/opt/rti.com/rti_connext_dds-5.3.1/lib/x64Linux3gcc5.4.0:/opt/rti.com/rti_connext_dds-5.3.1/bin:/opt/ros/dashing/bin:/home/dom/anaconda3/bin:/home/dom/anaconda3/condabin:/home/dom/.local/bin:/usr/local/sbin:/usr/local/bin:/usr/sbin:/usr/bin:/sbin:/bin:/usr/games:/usr/local/games:/snap/bin', 'SESSION_MANAGER': 'local/dom-NL5E:@/tmp/.ICE-unix/2896,unix/dom-NL5E:/tmp/.ICE-unix/2896', 'XDG_MENU_PREFIX': 'gnome-', 'S_COLORS': 'auto', 'GNOME_TERMINAL_SCREEN': '/org/gnome/Terminal/screen/4daa66e2_d84f_4c4c_9bd5_f4728c01a2f0', 'XDG_RUNTIME_DIR': '/run/user/1000', 'DISPLAY': ':1', 'LANG': 'en_GB.UTF-8', 'OSPL_HOME': '/usr', 'XDG_CURRENT_DESKTOP': 'ubuntu:GNOME', 'LS_COLORS': 'rs=0:di=01;34:ln=01;36:mh=00:pi=40;33:so=01;35:do=01;35:bd=40;33;01:cd=40;33;01:or=40;31;01:mi=00:su=37;41:sg=30;43:ca=30;41:tw=30;42:ow=34;42:st=37;44:ex=01;32:*.tar=01;31:*.tgz=01;31:*.arc=01;31:*.arj=01;31:*.taz=01;31:*.lha=01;31:*.lz4=01;31:*.lzh=01;31:*.lzma=01;31:*.tlz=01;31:*.txz=01;31:*.tzo=01;31:*.t7z=01;31:*.zip=01;31:*.z=01;31:*.Z=01;31:*.dz=01;31:*.gz=01;31:*.lrz=01;31:*.lz=01;31:*.lzo=01;31:*.xz=01;31:*.zst=01;31:*.tzst=01;31:*.bz2=01;31:*.bz=01;31:*.tbz=01;31:*.tbz2=01;31:*.tz=01;31:*.deb=01;31:*.rpm=01;31:*.jar=01;31:*.war=01;31:*.ear=01;31:*.sar=01;31:*.rar=01;31:*.alz=01;31:*.ace=01;31:*.zoo=01;31:*.cpio=01;31:*.7z=01;31:*.rz=01;31:*.cab=01;31:*.wim=01;31:*.swm=01;31:*.dwm=01;31:*.esd=01;31:*.jpg=01;35:*.jpeg=01;35:*.mjpg=01;35:*.mjpeg=01;35:*.gif=01;35:*.bmp=01;35:*.pbm=01;35:*.pgm=01;35:*.ppm=01;35:*.tga=01;35:*.xbm=01;35:*.xpm=01;35:*.tif=01;35:*.tiff=01;35:*.png=01;35:*.svg=01;35:*.svgz=01;35:*.mng=01;35:*.pcx=01;35:*.mov=01;35:*.mpg=01;35:*.mpeg=01;35:*.m2v=01;35:*.mkv=01;35:*.webm=01;35:*.ogm=01;35:*.mp4=01;35:*.m4v=01;35:*.mp4v=01;35:*.vob=01;35:*.qt=01;35:*.nuv=01;35:*.wmv=01;35:*.asf=01;35:*.rm=01;35:*.rmvb=01;35:*.flc=01;35:*.avi=01;35:*.fli=01;35:*.flv=01;35:*.gl=01;35:*.dl=01;35:*.xcf=01;35:*.xwd=01;35:*.yuv=01;35:*.cgm=01;35:*.emf=01;35:*.ogv=01;35:*.ogx=01;35:*.aac=00;36:*.au=00;36:*.flac=00;36:*.m4a=00;36:*.mid=00;36:*.midi=00;36:*.mka=00;36:*.mp3=00;36:*.mpc=00;36:*.ogg=00;36:*.ra=00;36:*.wav=00;36:*.oga=00;36:*.opus=00;36:*.spx=00;36:*.xspf=00;36:', 'XDG_SESSION_DESKTOP': 'ubuntu', 'XMODIFIERS': '@im=ibus', 'GNOME_TERMINAL_SERVICE': ':1.73', 'XAUTHORITY': '/run/user/1000/gdm/Xauthority', 'AMENT_PREFIX_PATH': '/opt/ros/dashing', 'SSH_AUTH_SOCK': '/run/user/1000/keyring/ssh', 'CONDA_PYTHON_EXE': '/home/dom/anaconda3/bin/python', 'ROS_DOMAIN_ID': '1', 'SHELL': '/bin/bash', 'QT_ACCESSIBILITY': '1', 'GDMSESSION': 'ubuntu', 'LESSCLOSE': '/usr/bin/lesspipe %s %s', 'VIRTUALENVWRAPPER_PROJECT_FILENAME': '.project', 'CONDA_DEFAULT_ENV': 'base', 'VIRTUALENVWRAPPER_HOOK_DIR': '/home/dom/.virtualenvs', 'TEXTDOMAINDIR': '/usr/share/locale/', 'GPG_AGENT_INFO': '/run/user/1000/gnupg/S.gpg-agent:0:1', 'XDG_VTNR': '2', 'VIRTUALENVWRAPPER_SCRIPT': '/usr/local/bin/virtualenvwrapper.sh', 'QT_IM_MODULE': 'ibus', 'PWD': '/home/dom/Cerberus/build/camera', 'CLUTTER_IM_MODULE': 'xim', 'CONDA_EXE': '/home/dom/anaconda3/bin/conda', 'XDG_DATA_DIRS': '/usr/share/ubuntu:/usr/local/share/:/usr/share/:/var/lib/snapd/desktop', 'XDG_CONFIG_DIRS': '/etc/xdg/xdg-ubuntu:/etc/xdg', 'PYTHONPATH': '/home/dom/Cerberus/install/camera/lib/python3.6/site-packages:/opt/ros/dashing/lib/python3.6/site-packages', 'CONDA_PREFIX': '/home/dom/anaconda3', 'COLCON': '1', 'VTE_VERSION': '5202'}, 'shell': False}
[0.288711] (central) StdoutLine: {'line': b'\x1b[35m\x1b[1mScanning dependencies of target central_main\x1b[0m\n'}
[0.299411] (-) TimerEvent: {}
[0.302754] (messages) StdoutLine: {'line': b'[  1%] Built target messages__dds_opensplice_idl\n'}
[0.306336] (tutorial_interfaces) StdoutLine: {'line': b'[  1%] Built target tutorial_interfaces__dds_opensplice_idl\n'}
[0.306601] (messages) StdoutLine: {'line': b'[  6%] Built target messages__rosidl_generator_c\n'}
[0.307320] (messages) StdoutLine: {'line': b'[  9%] Built target messages__cpp\n'}
[0.307531] (messages) StdoutLine: {'line': b'[  9%] Built target messages__dds_connext_idl\n'}
[0.311493] (tutorial_interfaces) StdoutLine: {'line': b'[  3%] Built target tutorial_interfaces__dds_connext_idl\n'}
[0.312045] (tutorial_interfaces) StdoutLine: {'line': b'[  7%] Built target tutorial_interfaces__rosidl_generator_c\n'}
[0.314404] (tutorial_interfaces) StdoutLine: {'line': b'[  9%] Built target tutorial_interfaces__cpp\n'}
[0.321455] (central) StdoutLine: {'line': b'[ 50%] \x1b[32mBuilding CXX object CMakeFiles/central_main.dir/src/central_main.cpp.o\x1b[0m\n'}
[0.347139] (messages) StdoutLine: {'line': b'[ 13%] Built target messages__rosidl_typesupport_c\n'}
[0.352702] (messages) StdoutLine: {'line': b'[ 20%] Built target messages__rosidl_typesupport_cpp\n'}
[0.352974] (messages) StdoutLine: {'line': b'[ 23%] Built target messages__rosidl_typesupport_introspection_cpp\n'}
[0.353732] (messages) StdoutLine: {'line': b'[ 27%] Built target messages__rosidl_typesupport_introspection_c\n'}
[0.354661] (messages) StdoutLine: {'line': b'[ 32%] Built target messages__rosidl_typesupport_fastrtps_cpp\n'}
[0.355174] (tutorial_interfaces) StdoutLine: {'line': b'[ 13%] Built target tutorial_interfaces__rosidl_typesupport_c\n'}
[0.365562] (tutorial_interfaces) StdoutLine: {'line': b'[ 18%] Built target tutorial_interfaces__rosidl_typesupport_introspection_c\n'}
[0.366354] (tutorial_interfaces) StdoutLine: {'line': b'[ 23%] Built target tutorial_interfaces__rosidl_typesupport_introspection_cpp\n'}
[0.366550] (tutorial_interfaces) StdoutLine: {'line': b'[ 27%] Built target tutorial_interfaces__rosidl_typesupport_cpp\n'}
[0.369287] (messages) StdoutLine: {'line': b'[ 44%] Built target messages__rosidl_typesupport_opensplice_cpp\n'}
[0.373454] (tutorial_interfaces) StdoutLine: {'line': b'[ 32%] Built target tutorial_interfaces__rosidl_typesupport_fastrtps_cpp\n'}
[0.375028] (messages) StdoutLine: {'line': b'[ 55%] Built target messages__rosidl_typesupport_connext_cpp\n'}
[0.375287] (tutorial_interfaces) StdoutLine: {'line': b'[ 44%] Built target tutorial_interfaces__rosidl_typesupport_opensplice_cpp\n'}
[0.381188] (tutorial_interfaces) StdoutLine: {'line': b'[ 55%] Built target tutorial_interfaces__rosidl_typesupport_connext_cpp\n'}
[0.394945] (messages) StdoutLine: {'line': b'[ 60%] Built target messages__rosidl_typesupport_fastrtps_c\n'}
[0.399527] (-) TimerEvent: {}
[0.403266] (tutorial_interfaces) StdoutLine: {'line': b'[ 60%] Built target tutorial_interfaces__rosidl_typesupport_fastrtps_c\n'}
[0.411403] (messages) StdoutLine: {'line': b'[ 73%] Built target messages__rosidl_typesupport_opensplice_c\n'}
[0.417797] (tutorial_interfaces) StdoutLine: {'line': b'[ 73%] Built target tutorial_interfaces__rosidl_typesupport_opensplice_c\n'}
[0.421656] (messages) StdoutLine: {'line': b'[ 86%] Built target messages__rosidl_typesupport_connext_c\n'}
[0.421921] (tutorial_interfaces) StdoutLine: {'line': b'[ 86%] Built target tutorial_interfaces__rosidl_typesupport_connext_c\n'}
[0.440116] (tutorial_interfaces) StdoutLine: {'line': b'[ 86%] Built target tutorial_interfaces\n'}
[0.440278] (messages) StdoutLine: {'line': b'[ 86%] Built target messages\n'}
[0.458574] (messages) StdoutLine: {'line': b'[ 87%] Built target messages__py\n'}
[0.458765] (tutorial_interfaces) StdoutLine: {'line': b'[ 87%] Built target tutorial_interfaces__py\n'}
[0.480982] (messages) StdoutLine: {'line': b'[ 90%] Built target messages__python\n'}
[0.484610] (tutorial_interfaces) StdoutLine: {'line': b'[ 90%] Built target tutorial_interfaces__python\n'}
[0.499647] (-) TimerEvent: {}
[0.510694] (messages) StdoutLine: {'line': b'[ 93%] Built target messages__rosidl_typesupport_opensplice_c__pyext\n'}
[0.510988] (messages) StdoutLine: {'line': b'[ 96%] Built target messages__rosidl_typesupport_fastrtps_c__pyext\n'}
[0.514338] (messages) StdoutLine: {'line': b'[100%] Built target messages__rosidl_typesupport_c__pyext\n'}
[0.518411] (tutorial_interfaces) StdoutLine: {'line': b'[ 93%] Built target tutorial_interfaces__rosidl_typesupport_fastrtps_c__pyext\n'}
[0.519069] (tutorial_interfaces) StdoutLine: {'line': b'[ 96%] Built target tutorial_interfaces__rosidl_typesupport_c__pyext\n'}
[0.519310] (tutorial_interfaces) StdoutLine: {'line': b'[100%] Built target tutorial_interfaces__rosidl_typesupport_opensplice_c__pyext\n'}
[0.529373] (tutorial_interfaces) CommandEnded: {'returncode': 0}
[0.533088] (messages) CommandEnded: {'returncode': 0}
[0.566699] (camera) StdoutLine: {'line': b'running egg_info\n'}
[0.568270] (camera) StdoutLine: {'line': b'writing /home/dom/Cerberus/build/camera/camera.egg-info/PKG-INFO\n'}
[0.568567] (camera) StdoutLine: {'line': b'writing dependency_links to /home/dom/Cerberus/build/camera/camera.egg-info/dependency_links.txt\n'}
[0.568759] (camera) StdoutLine: {'line': b'writing entry points to /home/dom/Cerberus/build/camera/camera.egg-info/entry_points.txt\n'}
[0.569162] (camera) StdoutLine: {'line': b'writing requirements to /home/dom/Cerberus/build/camera/camera.egg-info/requires.txt\n'}
[0.569410] (camera) StdoutLine: {'line': b'writing top-level names to /home/dom/Cerberus/build/camera/camera.egg-info/top_level.txt\n'}
[0.596195] (tutorial_interfaces) JobProgress: {'identifier': 'tutorial_interfaces', 'progress': 'install'}
[0.598369] (camera) StdoutLine: {'line': b"reading manifest file '/home/dom/Cerberus/build/camera/camera.egg-info/SOURCES.txt'\n"}
[0.599336] (camera) StdoutLine: {'line': b"writing manifest file '/home/dom/Cerberus/build/camera/camera.egg-info/SOURCES.txt'\n"}
[0.599559] (camera) StdoutLine: {'line': b'running build\n'}
[0.599708] (-) TimerEvent: {}
[0.599958] (camera) StdoutLine: {'line': b'running build_py\n'}
[0.600170] (camera) StdoutLine: {'line': b'running install\n'}
[0.600564] (camera) StdoutLine: {'line': b'running install_lib\n'}
[0.601523] (camera) StdoutLine: {'line': b'running install_data\n'}
[0.601978] (camera) StdoutLine: {'line': b'running install_egg_info\n'}
[0.603472] (camera) StdoutLine: {'line': b"removing '/home/dom/Cerberus/install/camera/lib/python3.6/site-packages/camera-0.0.0-py3.6.egg-info' (and everything under it)\n"}
[0.603774] (camera) StdoutLine: {'line': b'Copying /home/dom/Cerberus/build/camera/camera.egg-info to /home/dom/Cerberus/install/camera/lib/python3.6/site-packages/camera-0.0.0-py3.6.egg-info\n'}
[0.604511] (camera) StdoutLine: {'line': b'running install_scripts\n'}
[0.606864] (tutorial_interfaces) Command: {'cmd': ['/usr/bin/cmake', '--build', '/home/dom/Cerberus/build/tutorial_interfaces', '--target', 'install', '--', '-j12', '-l12'], 'cwd': '/home/dom/Cerberus/build/tutorial_interfaces', 'env': OrderedDict([('VIRTUALENVWRAPPER_WORKON_CD', '1'), ('LESSOPEN', '| /usr/bin/lesspipe %s'), ('CONDA_PROMPT_MODIFIER', '(base)'), ('WORKON_HOME', '/home/dom/.virtualenvs'), ('USER', 'dom'), ('LANGUAGE', 'en_GB:en'), ('TEXTDOMAIN', 'im-config'), ('OSPL_INFOFILE', '<stdout>'), ('XDG_SEAT', 'seat0'), ('SSH_AGENT_PID', '2991'), ('XDG_SESSION_TYPE', 'x11'), ('LD_LIBRARY_PATH', '/opt/ros/dashing/opt/yaml_cpp_vendor/lib:/opt/ros/dashing/opt/rviz_ogre_vendor/lib:/usr/lib:/opt/rti.com/rti_connext_dds-5.3.1/lib/x64Linux3gcc5.4.0:/opt/ros/dashing/lib'), ('SHLVL', '1'), ('CONDA_SHLVL', '1'), ('OSPL_URI', 'file:///opt/ros/dashing/share/opensplice_cmake_module/config/ros_ospl.xml'), ('QT4_IM_MODULE', 'xim'), ('HOME', '/home/dom'), ('VIRTUALENVWRAPPER_PYTHON', '/usr/bin/python3'), ('OLDPWD', '/home/dom'), ('DESKTOP_SESSION', 'ubuntu'), ('OSPL_VERBOSITY', '2'), ('NDDSHOME', '/opt/rti.com/rti_connext_dds-5.3.1'), ('GNOME_SHELL_SESSION_MODE', 'ubuntu'), ('GTK_MODULES', 'gail:atk-bridge'), ('ROS_PYTHON_VERSION', '3'), ('DBUS_SESSION_BUS_ADDRESS', 'unix:path=/run/user/1000/bus'), ('OSPL_TMPL_PATH', '/usr/etc/opensplice/idlpp'), ('COLORTERM', 'truecolor'), ('_CE_M', ''), ('IM_CONFIG_PHASE', '2'), ('ROS_DISTRO', 'dashing'), ('LOGNAME', 'dom'), ('GTK_IM_MODULE', 'ibus'), ('DESKTOP_AUTOSTART_ID', '103b12f48314b4615159169251867273500000028960007'), ('_', '/usr/bin/colcon'), ('ROS_VERSION', '2'), ('USERNAME', 'dom'), ('XDG_SESSION_ID', '3'), ('TERM', 'xterm-256color'), ('_CE_CONDA', ''), ('OSPL_ERRORFILE', '<stderr>'), ('GNOME_DESKTOP_SESSION_ID', 'this-is-deprecated'), ('WINDOWPATH', '2'), ('PATH', '/opt/rti.com/rti_connext_dds-5.3.1/lib/x64Linux3gcc5.4.0:/opt/rti.com/rti_connext_dds-5.3.1/bin:/opt/ros/dashing/bin:/home/dom/anaconda3/bin:/home/dom/anaconda3/condabin:/home/dom/.local/bin:/usr/local/sbin:/usr/local/bin:/usr/sbin:/usr/bin:/sbin:/bin:/usr/games:/usr/local/games:/snap/bin'), ('SESSION_MANAGER', 'local/dom-NL5E:@/tmp/.ICE-unix/2896,unix/dom-NL5E:/tmp/.ICE-unix/2896'), ('XDG_MENU_PREFIX', 'gnome-'), ('S_COLORS', 'auto'), ('GNOME_TERMINAL_SCREEN', '/org/gnome/Terminal/screen/4daa66e2_d84f_4c4c_9bd5_f4728c01a2f0'), ('XDG_RUNTIME_DIR', '/run/user/1000'), ('DISPLAY', ':1'), ('LANG', 'en_GB.UTF-8'), ('OSPL_HOME', '/usr'), ('XDG_CURRENT_DESKTOP', 'ubuntu:GNOME'), ('LS_COLORS', 'rs=0:di=01;34:ln=01;36:mh=00:pi=40;33:so=01;35:do=01;35:bd=40;33;01:cd=40;33;01:or=40;31;01:mi=00:su=37;41:sg=30;43:ca=30;41:tw=30;42:ow=34;42:st=37;44:ex=01;32:*.tar=01;31:*.tgz=01;31:*.arc=01;31:*.arj=01;31:*.taz=01;31:*.lha=01;31:*.lz4=01;31:*.lzh=01;31:*.lzma=01;31:*.tlz=01;31:*.txz=01;31:*.tzo=01;31:*.t7z=01;31:*.zip=01;31:*.z=01;31:*.Z=01;31:*.dz=01;31:*.gz=01;31:*.lrz=01;31:*.lz=01;31:*.lzo=01;31:*.xz=01;31:*.zst=01;31:*.tzst=01;31:*.bz2=01;31:*.bz=01;31:*.tbz=01;31:*.tbz2=01;31:*.tz=01;31:*.deb=01;31:*.rpm=01;31:*.jar=01;31:*.war=01;31:*.ear=01;31:*.sar=01;31:*.rar=01;31:*.alz=01;31:*.ace=01;31:*.zoo=01;31:*.cpio=01;31:*.7z=01;31:*.rz=01;31:*.cab=01;31:*.wim=01;31:*.swm=01;31:*.dwm=01;31:*.esd=01;31:*.jpg=01;35:*.jpeg=01;35:*.mjpg=01;35:*.mjpeg=01;35:*.gif=01;35:*.bmp=01;35:*.pbm=01;35:*.pgm=01;35:*.ppm=01;35:*.tga=01;35:*.xbm=01;35:*.xpm=01;35:*.tif=01;35:*.tiff=01;35:*.png=01;35:*.svg=01;35:*.svgz=01;35:*.mng=01;35:*.pcx=01;35:*.mov=01;35:*.mpg=01;35:*.mpeg=01;35:*.m2v=01;35:*.mkv=01;35:*.webm=01;35:*.ogm=01;35:*.mp4=01;35:*.m4v=01;35:*.mp4v=01;35:*.vob=01;35:*.qt=01;35:*.nuv=01;35:*.wmv=01;35:*.asf=01;35:*.rm=01;35:*.rmvb=01;35:*.flc=01;35:*.avi=01;35:*.fli=01;35:*.flv=01;35:*.gl=01;35:*.dl=01;35:*.xcf=01;35:*.xwd=01;35:*.yuv=01;35:*.cgm=01;35:*.emf=01;35:*.ogv=01;35:*.ogx=01;35:*.aac=00;36:*.au=00;36:*.flac=00;36:*.m4a=00;36:*.mid=00;36:*.midi=00;36:*.mka=00;36:*.mp3=00;36:*.mpc=00;36:*.ogg=00;36:*.ra=00;36:*.wav=00;36:*.oga=00;36:*.opus=00;36:*.spx=00;36:*.xspf=00;36:'), ('XDG_SESSION_DESKTOP', 'ubuntu'), ('XMODIFIERS', '@im=ibus'), ('GNOME_TERMINAL_SERVICE', ':1.73'), ('XAUTHORITY', '/run/user/1000/gdm/Xauthority'), ('AMENT_PREFIX_PATH', '/opt/ros/dashing'), ('SSH_AUTH_SOCK', '/run/user/1000/keyring/ssh'), ('CONDA_PYTHON_EXE', '/home/dom/anaconda3/bin/python'), ('ROS_DOMAIN_ID', '1'), ('SHELL', '/bin/bash'), ('QT_ACCESSIBILITY', '1'), ('GDMSESSION', 'ubuntu'), ('LESSCLOSE', '/usr/bin/lesspipe %s %s'), ('VIRTUALENVWRAPPER_PROJECT_FILENAME', '.project'), ('CONDA_DEFAULT_ENV', 'base'), ('VIRTUALENVWRAPPER_HOOK_DIR', '/home/dom/.virtualenvs'), ('TEXTDOMAINDIR', '/usr/share/locale/'), ('GPG_AGENT_INFO', '/run/user/1000/gnupg/S.gpg-agent:0:1'), ('XDG_VTNR', '2'), ('VIRTUALENVWRAPPER_SCRIPT', '/usr/local/bin/virtualenvwrapper.sh'), ('QT_IM_MODULE', 'ibus'), ('PWD', '/home/dom/Cerberus/build/tutorial_interfaces'), ('CLUTTER_IM_MODULE', 'xim'), ('CONDA_EXE', '/home/dom/anaconda3/bin/conda'), ('XDG_DATA_DIRS', '/usr/share/ubuntu:/usr/local/share/:/usr/share/:/var/lib/snapd/desktop'), ('XDG_CONFIG_DIRS', '/etc/xdg/xdg-ubuntu:/etc/xdg'), ('PYTHONPATH', '/opt/ros/dashing/lib/python3.6/site-packages'), ('CONDA_PREFIX', '/home/dom/anaconda3'), ('COLCON', '1'), ('VTE_VERSION', '5202'), ('CMAKE_PREFIX_PATH', '/opt/ros/dashing')]), 'shell': False}
[0.609873] (messages) JobProgress: {'identifier': 'messages', 'progress': 'install'}
[0.610400] (messages) Command: {'cmd': ['/usr/bin/cmake', '--build', '/home/dom/Cerberus/build/messages', '--target', 'install', '--', '-j12', '-l12'], 'cwd': '/home/dom/Cerberus/build/messages', 'env': OrderedDict([('VIRTUALENVWRAPPER_WORKON_CD', '1'), ('LESSOPEN', '| /usr/bin/lesspipe %s'), ('CONDA_PROMPT_MODIFIER', '(base)'), ('WORKON_HOME', '/home/dom/.virtualenvs'), ('USER', 'dom'), ('LANGUAGE', 'en_GB:en'), ('TEXTDOMAIN', 'im-config'), ('OSPL_INFOFILE', '<stdout>'), ('XDG_SEAT', 'seat0'), ('SSH_AGENT_PID', '2991'), ('XDG_SESSION_TYPE', 'x11'), ('LD_LIBRARY_PATH', '/opt/ros/dashing/opt/yaml_cpp_vendor/lib:/opt/ros/dashing/opt/rviz_ogre_vendor/lib:/usr/lib:/opt/rti.com/rti_connext_dds-5.3.1/lib/x64Linux3gcc5.4.0:/opt/ros/dashing/lib'), ('SHLVL', '1'), ('CONDA_SHLVL', '1'), ('OSPL_URI', 'file:///opt/ros/dashing/share/opensplice_cmake_module/config/ros_ospl.xml'), ('QT4_IM_MODULE', 'xim'), ('HOME', '/home/dom'), ('VIRTUALENVWRAPPER_PYTHON', '/usr/bin/python3'), ('OLDPWD', '/home/dom'), ('DESKTOP_SESSION', 'ubuntu'), ('OSPL_VERBOSITY', '2'), ('NDDSHOME', '/opt/rti.com/rti_connext_dds-5.3.1'), ('GNOME_SHELL_SESSION_MODE', 'ubuntu'), ('GTK_MODULES', 'gail:atk-bridge'), ('ROS_PYTHON_VERSION', '3'), ('DBUS_SESSION_BUS_ADDRESS', 'unix:path=/run/user/1000/bus'), ('OSPL_TMPL_PATH', '/usr/etc/opensplice/idlpp'), ('COLORTERM', 'truecolor'), ('_CE_M', ''), ('IM_CONFIG_PHASE', '2'), ('ROS_DISTRO', 'dashing'), ('LOGNAME', 'dom'), ('GTK_IM_MODULE', 'ibus'), ('DESKTOP_AUTOSTART_ID', '103b12f48314b4615159169251867273500000028960007'), ('_', '/usr/bin/colcon'), ('ROS_VERSION', '2'), ('USERNAME', 'dom'), ('XDG_SESSION_ID', '3'), ('TERM', 'xterm-256color'), ('_CE_CONDA', ''), ('OSPL_ERRORFILE', '<stderr>'), ('GNOME_DESKTOP_SESSION_ID', 'this-is-deprecated'), ('WINDOWPATH', '2'), ('PATH', '/opt/rti.com/rti_connext_dds-5.3.1/lib/x64Linux3gcc5.4.0:/opt/rti.com/rti_connext_dds-5.3.1/bin:/opt/ros/dashing/bin:/home/dom/anaconda3/bin:/home/dom/anaconda3/condabin:/home/dom/.local/bin:/usr/local/sbin:/usr/local/bin:/usr/sbin:/usr/bin:/sbin:/bin:/usr/games:/usr/local/games:/snap/bin'), ('SESSION_MANAGER', 'local/dom-NL5E:@/tmp/.ICE-unix/2896,unix/dom-NL5E:/tmp/.ICE-unix/2896'), ('XDG_MENU_PREFIX', 'gnome-'), ('S_COLORS', 'auto'), ('GNOME_TERMINAL_SCREEN', '/org/gnome/Terminal/screen/4daa66e2_d84f_4c4c_9bd5_f4728c01a2f0'), ('XDG_RUNTIME_DIR', '/run/user/1000'), ('DISPLAY', ':1'), ('LANG', 'en_GB.UTF-8'), ('OSPL_HOME', '/usr'), ('XDG_CURRENT_DESKTOP', 'ubuntu:GNOME'), ('LS_COLORS', 'rs=0:di=01;34:ln=01;36:mh=00:pi=40;33:so=01;35:do=01;35:bd=40;33;01:cd=40;33;01:or=40;31;01:mi=00:su=37;41:sg=30;43:ca=30;41:tw=30;42:ow=34;42:st=37;44:ex=01;32:*.tar=01;31:*.tgz=01;31:*.arc=01;31:*.arj=01;31:*.taz=01;31:*.lha=01;31:*.lz4=01;31:*.lzh=01;31:*.lzma=01;31:*.tlz=01;31:*.txz=01;31:*.tzo=01;31:*.t7z=01;31:*.zip=01;31:*.z=01;31:*.Z=01;31:*.dz=01;31:*.gz=01;31:*.lrz=01;31:*.lz=01;31:*.lzo=01;31:*.xz=01;31:*.zst=01;31:*.tzst=01;31:*.bz2=01;31:*.bz=01;31:*.tbz=01;31:*.tbz2=01;31:*.tz=01;31:*.deb=01;31:*.rpm=01;31:*.jar=01;31:*.war=01;31:*.ear=01;31:*.sar=01;31:*.rar=01;31:*.alz=01;31:*.ace=01;31:*.zoo=01;31:*.cpio=01;31:*.7z=01;31:*.rz=01;31:*.cab=01;31:*.wim=01;31:*.swm=01;31:*.dwm=01;31:*.esd=01;31:*.jpg=01;35:*.jpeg=01;35:*.mjpg=01;35:*.mjpeg=01;35:*.gif=01;35:*.bmp=01;35:*.pbm=01;35:*.pgm=01;35:*.ppm=01;35:*.tga=01;35:*.xbm=01;35:*.xpm=01;35:*.tif=01;35:*.tiff=01;35:*.png=01;35:*.svg=01;35:*.svgz=01;35:*.mng=01;35:*.pcx=01;35:*.mov=01;35:*.mpg=01;35:*.mpeg=01;35:*.m2v=01;35:*.mkv=01;35:*.webm=01;35:*.ogm=01;35:*.mp4=01;35:*.m4v=01;35:*.mp4v=01;35:*.vob=01;35:*.qt=01;35:*.nuv=01;35:*.wmv=01;35:*.asf=01;35:*.rm=01;35:*.rmvb=01;35:*.flc=01;35:*.avi=01;35:*.fli=01;35:*.flv=01;35:*.gl=01;35:*.dl=01;35:*.xcf=01;35:*.xwd=01;35:*.yuv=01;35:*.cgm=01;35:*.emf=01;35:*.ogv=01;35:*.ogx=01;35:*.aac=00;36:*.au=00;36:*.flac=00;36:*.m4a=00;36:*.mid=00;36:*.midi=00;36:*.mka=00;36:*.mp3=00;36:*.mpc=00;36:*.ogg=00;36:*.ra=00;36:*.wav=00;36:*.oga=00;36:*.opus=00;36:*.spx=00;36:*.xspf=00;36:'), ('XDG_SESSION_DESKTOP', 'ubuntu'), ('XMODIFIERS', '@im=ibus'), ('GNOME_TERMINAL_SERVICE', ':1.73'), ('XAUTHORITY', '/run/user/1000/gdm/Xauthority'), ('AMENT_PREFIX_PATH', '/opt/ros/dashing'), ('SSH_AUTH_SOCK', '/run/user/1000/keyring/ssh'), ('CONDA_PYTHON_EXE', '/home/dom/anaconda3/bin/python'), ('ROS_DOMAIN_ID', '1'), ('SHELL', '/bin/bash'), ('QT_ACCESSIBILITY', '1'), ('GDMSESSION', 'ubuntu'), ('LESSCLOSE', '/usr/bin/lesspipe %s %s'), ('VIRTUALENVWRAPPER_PROJECT_FILENAME', '.project'), ('CONDA_DEFAULT_ENV', 'base'), ('VIRTUALENVWRAPPER_HOOK_DIR', '/home/dom/.virtualenvs'), ('TEXTDOMAINDIR', '/usr/share/locale/'), ('GPG_AGENT_INFO', '/run/user/1000/gnupg/S.gpg-agent:0:1'), ('XDG_VTNR', '2'), ('VIRTUALENVWRAPPER_SCRIPT', '/usr/local/bin/virtualenvwrapper.sh'), ('QT_IM_MODULE', 'ibus'), ('PWD', '/home/dom/Cerberus/build/messages'), ('CLUTTER_IM_MODULE', 'xim'), ('CONDA_EXE', '/home/dom/anaconda3/bin/conda'), ('XDG_DATA_DIRS', '/usr/share/ubuntu:/usr/local/share/:/usr/share/:/var/lib/snapd/desktop'), ('XDG_CONFIG_DIRS', '/etc/xdg/xdg-ubuntu:/etc/xdg'), ('PYTHONPATH', '/opt/ros/dashing/lib/python3.6/site-packages'), ('CONDA_PREFIX', '/home/dom/anaconda3'), ('COLCON', '1'), ('VTE_VERSION', '5202'), ('CMAKE_PREFIX_PATH', '/opt/ros/dashing')]), 'shell': False}
[0.621115] (camera) StdoutLine: {'line': b'Installing camera_msg script to /home/dom/Cerberus/install/camera/lib/camera\n'}
[0.621375] (camera) StdoutLine: {'line': b'Installing detector script to /home/dom/Cerberus/install/camera/lib/camera\n'}
[0.621474] (camera) StdoutLine: {'line': b'Installing util script to /home/dom/Cerberus/install/camera/lib/camera\n'}
[0.621807] (camera) StdoutLine: {'line': b"writing list of installed files to '/home/dom/Cerberus/build/camera/install.log'\n"}
[0.641774] (camera) CommandEnded: {'returncode': 0}
[0.660293] (camera) JobEnded: {'identifier': 'camera', 'rc': 0}
[0.666058] (tutorial_interfaces) StdoutLine: {'line': b'[  1%] Built target tutorial_interfaces__dds_connext_idl\n'}
[0.668702] (tutorial_interfaces) StdoutLine: {'line': b'[  3%] Built target tutorial_interfaces__dds_opensplice_idl\n'}
[0.669840] (tutorial_interfaces) StdoutLine: {'line': b'[  4%] Built target tutorial_interfaces__cpp\n'}
[0.671891] (messages) StdoutLine: {'line': b'[  1%] Built target messages__dds_connext_idl\n'}
[0.674981] (messages) StdoutLine: {'line': b'[  3%] Built target messages__cpp\n'}
[0.676508] (tutorial_interfaces) StdoutLine: {'line': b'[  9%] Built target tutorial_interfaces__rosidl_generator_c\n'}
[0.676787] (messages) StdoutLine: {'line': b'[  4%] Built target messages__dds_opensplice_idl\n'}
[0.678913] (messages) StdoutLine: {'line': b'[  9%] Built target messages__rosidl_generator_c\n'}
[0.699851] (-) TimerEvent: {}
[0.714846] (tutorial_interfaces) StdoutLine: {'line': b'[ 13%] Built target tutorial_interfaces__rosidl_typesupport_cpp\n'}
[0.715325] (tutorial_interfaces) StdoutLine: {'line': b'[ 18%] Built target tutorial_interfaces__rosidl_typesupport_fastrtps_cpp\n'}
[0.719394] (tutorial_interfaces) StdoutLine: {'line': b'[ 27%] Built target tutorial_interfaces__rosidl_typesupport_introspection_c\n'}
[0.719726] (tutorial_interfaces) StdoutLine: {'line': b'[ 27%] Built target tutorial_interfaces__rosidl_typesupport_introspection_cpp\n'}
[0.723362] (messages) StdoutLine: {'line': b'[ 18%] Built target messages__rosidl_typesupport_cpp\n'}
[0.723758] (messages) StdoutLine: {'line': b'[ 18%] Built target messages__rosidl_typesupport_introspection_cpp\n'}
[0.729000] (tutorial_interfaces) StdoutLine: {'line': b'[ 32%] Built target tutorial_interfaces__rosidl_typesupport_c\n'}
[0.730457] (tutorial_interfaces) StdoutLine: {'line': b'[ 44%] Built target tutorial_interfaces__rosidl_typesupport_opensplice_cpp\n'}
[0.731177] (messages) StdoutLine: {'line': b'[ 23%] Built target messages__rosidl_typesupport_introspection_c\n'}
[0.733964] (tutorial_interfaces) StdoutLine: {'line': b'[ 55%] Built target tutorial_interfaces__rosidl_typesupport_connext_cpp\n'}
[0.734711] (messages) StdoutLine: {'line': b'[ 27%] Built target messages__rosidl_typesupport_fastrtps_cpp\n'}
[0.736485] (messages) StdoutLine: {'line': b'[ 35%] Built target messages__rosidl_typesupport_c\n'}
[0.736711] (messages) StdoutLine: {'line': b'[ 44%] Built target messages__rosidl_typesupport_opensplice_cpp\n'}
[0.743491] (messages) StdoutLine: {'line': b'[ 55%] Built target messages__rosidl_typesupport_connext_cpp\n'}
[0.746049] (tutorial_interfaces) StdoutLine: {'line': b'[ 60%] Built target tutorial_interfaces__rosidl_typesupport_fastrtps_c\n'}
[0.769420] (messages) StdoutLine: {'line': b'[ 60%] Built target messages__rosidl_typesupport_fastrtps_c\n'}
[0.771502] (tutorial_interfaces) StdoutLine: {'line': b'[ 73%] Built target tutorial_interfaces__rosidl_typesupport_opensplice_c\n'}
[0.773140] (tutorial_interfaces) StdoutLine: {'line': b'[ 86%] Built target tutorial_interfaces__rosidl_typesupport_connext_c\n'}
[0.775699] (messages) StdoutLine: {'line': b'[ 73%] Built target messages__rosidl_typesupport_opensplice_c\n'}
[0.783790] (messages) StdoutLine: {'line': b'[ 86%] Built target messages__rosidl_typesupport_connext_c\n'}
[0.792248] (tutorial_interfaces) StdoutLine: {'line': b'[ 86%] Built target tutorial_interfaces\n'}
[0.799956] (-) TimerEvent: {}
[0.806601] (messages) StdoutLine: {'line': b'[ 86%] Built target messages\n'}
[0.811335] (tutorial_interfaces) StdoutLine: {'line': b'[ 87%] Built target tutorial_interfaces__py\n'}
[0.829195] (messages) StdoutLine: {'line': b'[ 87%] Built target messages__py\n'}
[0.833138] (tutorial_interfaces) StdoutLine: {'line': b'[ 90%] Built target tutorial_interfaces__python\n'}
[0.859374] (messages) StdoutLine: {'line': b'[ 90%] Built target messages__python\n'}
[0.860008] (tutorial_interfaces) StdoutLine: {'line': b'[ 93%] Built target tutorial_interfaces__rosidl_typesupport_opensplice_c__pyext\n'}
[0.863254] (tutorial_interfaces) StdoutLine: {'line': b'[ 96%] Built target tutorial_interfaces__rosidl_typesupport_fastrtps_c__pyext\n'}
[0.863484] (tutorial_interfaces) StdoutLine: {'line': b'[100%] Built target tutorial_interfaces__rosidl_typesupport_c__pyext\n'}
[0.883596] (tutorial_interfaces) StdoutLine: {'line': b'\x1b[36mInstall the project...\x1b[0m\n'}
[0.887284] (messages) StdoutLine: {'line': b'[ 93%] Built target messages__rosidl_typesupport_opensplice_c__pyext\n'}
[0.890056] (messages) StdoutLine: {'line': b'[ 96%] Built target messages__rosidl_typesupport_fastrtps_c__pyext\n'}
[0.890807] (messages) StdoutLine: {'line': b'[100%] Built target messages__rosidl_typesupport_c__pyext\n'}
[0.891461] (tutorial_interfaces) StdoutLine: {'line': b'-- Install configuration: ""\n'}
[0.891680] (tutorial_interfaces) StdoutLine: {'line': b'-- Up-to-date: /home/dom/Cerberus/install/tutorial_interfaces/share/ament_index/resource_index/rosidl_interfaces/tutorial_interfaces\n'}
[0.891851] (tutorial_interfaces) StdoutLine: {'line': b'-- Up-to-date: /home/dom/Cerberus/install/tutorial_interfaces/lib/libtutorial_interfaces__rosidl_typesupport_c.so\n'}
[0.892017] (tutorial_interfaces) StdoutLine: {'line': b'-- Up-to-date: /home/dom/Cerberus/install/tutorial_interfaces/share/tutorial_interfaces/environment/library_path.sh\n'}
[0.892177] (tutorial_interfaces) StdoutLine: {'line': b'-- Up-to-date: /home/dom/Cerberus/install/tutorial_interfaces/lib/libtutorial_interfaces__rosidl_typesupport_cpp.so\n'}
[0.892418] (tutorial_interfaces) StdoutLine: {'line': b'-- Up-to-date: /home/dom/Cerberus/install/tutorial_interfaces/include/tutorial_interfaces\n'}
[0.892499] (tutorial_interfaces) StdoutLine: {'line': b'-- Up-to-date: /home/dom/Cerberus/install/tutorial_interfaces/include/tutorial_interfaces/msg\n'}
[0.892588] (tutorial_interfaces) StdoutLine: {'line': b'-- Up-to-date: /home/dom/Cerberus/install/tutorial_interfaces/include/tutorial_interfaces/msg/dds_connext\n'}
[0.892651] (tutorial_interfaces) StdoutLine: {'line': b'-- Up-to-date: /home/dom/Cerberus/install/tutorial_interfaces/include/tutorial_interfaces/msg/rosidl_typesupport_connext_c__visibility_control.h\n'}
[0.892713] (tutorial_interfaces) StdoutLine: {'line': b'-- Up-to-date: /home/dom/Cerberus/install/tutorial_interfaces/include/tutorial_interfaces/msg/num__rosidl_typesupport_connext_c.h\n'}
[0.892845] (tutorial_interfaces) StdoutLine: {'line': b'-- Up-to-date: /home/dom/Cerberus/install/tutorial_interfaces/lib/libtutorial_interfaces__rosidl_typesupport_connext_c.so\n'}
[0.892966] (tutorial_interfaces) StdoutLine: {'line': b'-- Up-to-date: /home/dom/Cerberus/install/tutorial_interfaces/include/tutorial_interfaces\n'}
[0.893028] (tutorial_interfaces) StdoutLine: {'line': b'-- Up-to-date: /home/dom/Cerberus/install/tutorial_interfaces/include/tutorial_interfaces/msg\n'}
[0.893120] (tutorial_interfaces) StdoutLine: {'line': b'-- Up-to-date: /home/dom/Cerberus/install/tutorial_interfaces/include/tutorial_interfaces/msg/num__functions.h\n'}
[0.893180] (tutorial_interfaces) StdoutLine: {'line': b'-- Up-to-date: /home/dom/Cerberus/install/tutorial_interfaces/include/tutorial_interfaces/msg/rosidl_generator_c__visibility_control.h\n'}
[0.893283] (tutorial_interfaces) StdoutLine: {'line': b'-- Up-to-date: /home/dom/Cerberus/install/tutorial_interfaces/include/tutorial_interfaces/msg/num__functions.c\n'}
[0.893420] (tutorial_interfaces) StdoutLine: {'line': b'-- Up-to-date: /home/dom/Cerberus/install/tutorial_interfaces/include/tutorial_interfaces/msg/num.h\n'}
[0.893517] (tutorial_interfaces) StdoutLine: {'line': b'-- Up-to-date: /home/dom/Cerberus/install/tutorial_interfaces/include/tutorial_interfaces/msg/num__type_support.h\n'}
[0.893663] (tutorial_interfaces) StdoutLine: {'line': b'-- Up-to-date: /home/dom/Cerberus/install/tutorial_interfaces/include/tutorial_interfaces/msg/num__struct.h\n'}
[0.893726] (tutorial_interfaces) StdoutLine: {'line': b'-- Up-to-date: /home/dom/Cerberus/install/tutorial_interfaces/lib/libtutorial_interfaces__rosidl_generator_c.so\n'}
[0.893840] (tutorial_interfaces) StdoutLine: {'line': b'-- Up-to-date: /home/dom/Cerberus/install/tutorial_interfaces/share/tutorial_interfaces/msg/dds_connext\n'}
[0.893900] (tutorial_interfaces) StdoutLine: {'line': b'-- Up-to-date: /home/dom/Cerberus/install/tutorial_interfaces/share/tutorial_interfaces/msg/dds_connext/Num_.idl\n'}
[0.893959] (tutorial_interfaces) StdoutLine: {'line': b'-- Up-to-date: /home/dom/Cerberus/install/tutorial_interfaces/include/tutorial_interfaces\n'}
[0.894084] (tutorial_interfaces) StdoutLine: {'line': b'-- Up-to-date: /home/dom/Cerberus/install/tutorial_interfaces/include/tutorial_interfaces/msg\n'}
[0.894236] (tutorial_interfaces) StdoutLine: {'line': b'-- Up-to-date: /home/dom/Cerberus/install/tutorial_interfaces/include/tutorial_interfaces/msg/dds_connext\n'}
[0.894333] (tutorial_interfaces) StdoutLine: {'line': b'-- Up-to-date: /home/dom/Cerberus/install/tutorial_interfaces/include/tutorial_interfaces/msg/dds_connext/Num_Support.cxx\n'}
[0.894398] (tutorial_interfaces) StdoutLine: {'line': b'-- Up-to-date: /home/dom/Cerberus/install/tutorial_interfaces/include/tutorial_interfaces/msg/dds_connext/Num_Support.h\n'}
[0.894463] (tutorial_interfaces) StdoutLine: {'line': b'-- Up-to-date: /home/dom/Cerberus/install/tutorial_interfaces/include/tutorial_interfaces/msg/dds_connext/Num_Plugin.cxx\n'}
[0.894547] (tutorial_interfaces) StdoutLine: {'line': b'-- Up-to-date: /home/dom/Cerberus/install/tutorial_interfaces/include/tutorial_interfaces/msg/dds_connext/Num_.cxx\n'}
[0.894624] (tutorial_interfaces) StdoutLine: {'line': b'-- Up-to-date: /home/dom/Cerberus/install/tutorial_interfaces/include/tutorial_interfaces/msg/dds_connext/Num_Plugin.h\n'}
[0.894682] (tutorial_interfaces) StdoutLine: {'line': b'-- Up-to-date: /home/dom/Cerberus/install/tutorial_interfaces/include/tutorial_interfaces/msg/dds_connext/Num_.h\n'}
[0.894739] (tutorial_interfaces) StdoutLine: {'line': b'-- Up-to-date: /home/dom/Cerberus/install/tutorial_interfaces/include/tutorial_interfaces/msg/rosidl_typesupport_connext_cpp__visibility_control.h\n'}
[0.894828] (tutorial_interfaces) StdoutLine: {'line': b'-- Up-to-date: /home/dom/Cerberus/install/tutorial_interfaces/include/tutorial_interfaces/msg/num__rosidl_typesupport_connext_cpp.hpp\n'}
[0.894919] (tutorial_interfaces) StdoutLine: {'line': b'-- Up-to-date: /home/dom/Cerberus/install/tutorial_interfaces/lib/libtutorial_interfaces__rosidl_typesupport_connext_cpp.so\n'}
[0.894990] (tutorial_interfaces) StdoutLine: {'line': b'-- Up-to-date: /home/dom/Cerberus/install/tutorial_interfaces/include/tutorial_interfaces\n'}
[0.895093] (tutorial_interfaces) StdoutLine: {'line': b'-- Up-to-date: /home/dom/Cerberus/install/tutorial_interfaces/include/tutorial_interfaces/msg\n'}
[0.895190] (tutorial_interfaces) StdoutLine: {'line': b'-- Up-to-date: /home/dom/Cerberus/install/tutorial_interfaces/include/tutorial_interfaces/msg/num__traits.hpp\n'}
[0.895286] (tutorial_interfaces) StdoutLine: {'line': b'-- Up-to-date: /home/dom/Cerberus/install/tutorial_interfaces/include/tutorial_interfaces/msg/num__struct.hpp\n'}
[0.895373] (tutorial_interfaces) StdoutLine: {'line': b'-- Up-to-date: /home/dom/Cerberus/install/tutorial_interfaces/include/tutorial_interfaces/msg/num.hpp\n'}
[0.895468] (tutorial_interfaces) StdoutLine: {'line': b'-- Up-to-date: /home/dom/Cerberus/install/tutorial_interfaces/include/tutorial_interfaces\n'}
[0.895527] (tutorial_interfaces) StdoutLine: {'line': b'-- Up-to-date: /home/dom/Cerberus/install/tutorial_interfaces/include/tutorial_interfaces/msg\n'}
[0.895585] (tutorial_interfaces) StdoutLine: {'line': b'-- Up-to-date: /home/dom/Cerberus/install/tutorial_interfaces/include/tutorial_interfaces/msg/rosidl_typesupport_fastrtps_c__visibility_control.h\n'}
[0.895658] (tutorial_interfaces) StdoutLine: {'line': b'-- Up-to-date: /home/dom/Cerberus/install/tutorial_interfaces/include/tutorial_interfaces/msg/num__rosidl_typesupport_fastrtps_c.h\n'}
[0.895718] (tutorial_interfaces) StdoutLine: {'line': b'-- Up-to-date: /home/dom/Cerberus/install/tutorial_interfaces/lib/libtutorial_interfaces__rosidl_typesupport_fastrtps_c.so\n'}
[0.895782] (tutorial_interfaces) StdoutLine: {'line': b'-- Up-to-date: /home/dom/Cerberus/install/tutorial_interfaces/include/tutorial_interfaces\n'}
[0.895865] (tutorial_interfaces) StdoutLine: {'line': b'-- Up-to-date: /home/dom/Cerberus/install/tutorial_interfaces/include/tutorial_interfaces/msg\n'}
[0.895955] (tutorial_interfaces) StdoutLine: {'line': b'-- Up-to-date: /home/dom/Cerberus/install/tutorial_interfaces/include/tutorial_interfaces/msg/dds_fastrtps\n'}
[0.896017] (tutorial_interfaces) StdoutLine: {'line': b'-- Up-to-date: /home/dom/Cerberus/install/tutorial_interfaces/include/tutorial_interfaces/msg/num__rosidl_typesupport_fastrtps_cpp.hpp\n'}
[0.896074] (tutorial_interfaces) StdoutLine: {'line': b'-- Up-to-date: /home/dom/Cerberus/install/tutorial_interfaces/include/tutorial_interfaces/msg/rosidl_typesupport_fastrtps_cpp__visibility_control.h\n'}
[0.896145] (tutorial_interfaces) StdoutLine: {'line': b'-- Up-to-date: /home/dom/Cerberus/install/tutorial_interfaces/lib/libtutorial_interfaces__rosidl_typesupport_fastrtps_cpp.so\n'}
[0.896205] (tutorial_interfaces) StdoutLine: {'line': b'-- Up-to-date: /home/dom/Cerberus/install/tutorial_interfaces/include/tutorial_interfaces\n'}
[0.896263] (tutorial_interfaces) StdoutLine: {'line': b'-- Up-to-date: /home/dom/Cerberus/install/tutorial_interfaces/include/tutorial_interfaces/msg\n'}
[0.896320] (tutorial_interfaces) StdoutLine: {'line': b'-- Up-to-date: /home/dom/Cerberus/install/tutorial_interfaces/include/tutorial_interfaces/msg/rosidl_typesupport_introspection_c__visibility_control.h\n'}
[0.896397] (tutorial_interfaces) StdoutLine: {'line': b'-- Up-to-date: /home/dom/Cerberus/install/tutorial_interfaces/include/tutorial_interfaces/msg/num__type_support.c\n'}
[0.896507] (tutorial_interfaces) StdoutLine: {'line': b'-- Up-to-date: /home/dom/Cerberus/install/tutorial_interfaces/include/tutorial_interfaces/msg/num__rosidl_typesupport_introspection_c.h\n'}
[0.896616] (tutorial_interfaces) StdoutLine: {'line': b'-- Up-to-date: /home/dom/Cerberus/install/tutorial_interfaces/lib/libtutorial_interfaces__rosidl_typesupport_introspection_c.so\n'}
[0.896697] (tutorial_interfaces) StdoutLine: {'line': b'-- Up-to-date: /home/dom/Cerberus/install/tutorial_interfaces/include/tutorial_interfaces\n'}
[0.896757] (tutorial_interfaces) StdoutLine: {'line': b'-- Up-to-date: /home/dom/Cerberus/install/tutorial_interfaces/include/tutorial_interfaces/msg\n'}
[0.896817] (tutorial_interfaces) StdoutLine: {'line': b'-- Up-to-date: /home/dom/Cerberus/install/tutorial_interfaces/include/tutorial_interfaces/msg/num__rosidl_typesupport_opensplice_c.h\n'}
[0.896890] (tutorial_interfaces) StdoutLine: {'line': b'-- Up-to-date: /home/dom/Cerberus/install/tutorial_interfaces/include/tutorial_interfaces/msg/rosidl_typesupport_opensplice_c__visibility_control.h\n'}
[0.896951] (tutorial_interfaces) StdoutLine: {'line': b'-- Up-to-date: /home/dom/Cerberus/install/tutorial_interfaces/include/tutorial_interfaces/msg/dds_opensplice_c\n'}
[0.897011] (tutorial_interfaces) StdoutLine: {'line': b'-- Up-to-date: /home/dom/Cerberus/install/tutorial_interfaces/lib/libtutorial_interfaces__rosidl_typesupport_opensplice_c.so\n'}
[0.897072] (tutorial_interfaces) StdoutLine: {'line': b'-- Up-to-date: /home/dom/Cerberus/install/tutorial_interfaces/share/tutorial_interfaces/msg/dds_opensplice\n'}
[0.897175] (tutorial_interfaces) StdoutLine: {'line': b'-- Up-to-date: /home/dom/Cerberus/install/tutorial_interfaces/share/tutorial_interfaces/msg/dds_opensplice/Num_.idl\n'}
[0.897235] (tutorial_interfaces) StdoutLine: {'line': b'-- Up-to-date: /home/dom/Cerberus/install/tutorial_interfaces/include/tutorial_interfaces\n'}
[0.897295] (tutorial_interfaces) StdoutLine: {'line': b'-- Up-to-date: /home/dom/Cerberus/install/tutorial_interfaces/include/tutorial_interfaces/msg\n'}
[0.897354] (tutorial_interfaces) StdoutLine: {'line': b'-- Up-to-date: /home/dom/Cerberus/install/tutorial_interfaces/include/tutorial_interfaces/msg/dds_opensplice\n'}
[0.897448] (tutorial_interfaces) StdoutLine: {'line': b'-- Up-to-date: /home/dom/Cerberus/install/tutorial_interfaces/include/tutorial_interfaces/msg/dds_opensplice/ccpp_Num_.h\n'}
[0.897508] (tutorial_interfaces) StdoutLine: {'line': b'-- Up-to-date: /home/dom/Cerberus/install/tutorial_interfaces/include/tutorial_interfaces/msg/dds_opensplice/Num_Dcps_impl.h\n'}
[0.897566] (tutorial_interfaces) StdoutLine: {'line': b'-- Up-to-date: /home/dom/Cerberus/install/tutorial_interfaces/include/tutorial_interfaces/msg/dds_opensplice/Num_SplDcps.h\n'}
[0.897651] (tutorial_interfaces) StdoutLine: {'line': b'-- Up-to-date: /home/dom/Cerberus/install/tutorial_interfaces/include/tutorial_interfaces/msg/dds_opensplice/Num_Dcps.h\n'}
[0.897712] (tutorial_interfaces) StdoutLine: {'line': b'-- Up-to-date: /home/dom/Cerberus/install/tutorial_interfaces/include/tutorial_interfaces/msg/dds_opensplice/Num_.h\n'}
[0.897770] (tutorial_interfaces) StdoutLine: {'line': b'-- Up-to-date: /home/dom/Cerberus/install/tutorial_interfaces/include/tutorial_interfaces/msg/num__rosidl_typesupport_opensplice_cpp.hpp\n'}
[0.897828] (tutorial_interfaces) StdoutLine: {'line': b'-- Up-to-date: /home/dom/Cerberus/install/tutorial_interfaces/include/tutorial_interfaces/msg/rosidl_typesupport_opensplice_cpp__visibility_control.h\n'}
[0.897908] (tutorial_interfaces) StdoutLine: {'line': b'-- Up-to-date: /home/dom/Cerberus/install/tutorial_interfaces/lib/libtutorial_interfaces__rosidl_typesupport_opensplice_cpp.so\n'}
[0.897979] (tutorial_interfaces) StdoutLine: {'line': b'-- Up-to-date: /home/dom/Cerberus/install/tutorial_interfaces/include/tutorial_interfaces\n'}
[0.898041] (tutorial_interfaces) StdoutLine: {'line': b'-- Up-to-date: /home/dom/Cerberus/install/tutorial_interfaces/include/tutorial_interfaces/msg\n'}
[0.898098] (tutorial_interfaces) StdoutLine: {'line': b'-- Up-to-date: /home/dom/Cerberus/install/tutorial_interfaces/include/tutorial_interfaces/msg/num__type_support.cpp\n'}
[0.898214] (tutorial_interfaces) StdoutLine: {'line': b'-- Up-to-date: /home/dom/Cerberus/install/tutorial_interfaces/include/tutorial_interfaces/msg/num__rosidl_typesupport_introspection_cpp.hpp\n'}
[0.898333] (tutorial_interfaces) StdoutLine: {'line': b'-- Up-to-date: /home/dom/Cerberus/install/tutorial_interfaces/lib/libtutorial_interfaces__rosidl_typesupport_introspection_cpp.so\n'}
[0.898392] (tutorial_interfaces) StdoutLine: {'line': b'-- Up-to-date: /home/dom/Cerberus/install/tutorial_interfaces/share/tutorial_interfaces/environment/pythonpath.sh\n'}
[0.898450] (tutorial_interfaces) StdoutLine: {'line': b'-- Up-to-date: /home/dom/Cerberus/install/tutorial_interfaces/lib/python3.6/site-packages/tutorial_interfaces/__init__.py\n'}
[0.900016] (-) TimerEvent: {}
[0.909877] (messages) StdoutLine: {'line': b'\x1b[36mInstall the project...\x1b[0m\n'}
[0.918279] (messages) StdoutLine: {'line': b'-- Install configuration: ""\n'}
[0.918502] (messages) StdoutLine: {'line': b'-- Up-to-date: /home/dom/Cerberus/install/messages/share/ament_index/resource_index/rosidl_interfaces/messages\n'}
[0.918710] (messages) StdoutLine: {'line': b'-- Up-to-date: /home/dom/Cerberus/install/messages/lib/libmessages__rosidl_typesupport_c.so\n'}
[0.918877] (messages) StdoutLine: {'line': b'-- Up-to-date: /home/dom/Cerberus/install/messages/share/messages/environment/library_path.sh\n'}
[0.919128] (messages) StdoutLine: {'line': b'-- Up-to-date: /home/dom/Cerberus/install/messages/lib/libmessages__rosidl_typesupport_cpp.so\n'}
[0.919429] (messages) StdoutLine: {'line': b'-- Up-to-date: /home/dom/Cerberus/install/messages/include/messages\n'}
[0.919592] (messages) StdoutLine: {'line': b'-- Up-to-date: /home/dom/Cerberus/install/messages/include/messages/msg\n'}
[0.919716] (messages) StdoutLine: {'line': b'-- Up-to-date: /home/dom/Cerberus/install/messages/include/messages/msg/dds_connext\n'}
[0.919842] (messages) StdoutLine: {'line': b'-- Up-to-date: /home/dom/Cerberus/install/messages/include/messages/msg/rosidl_typesupport_connext_c__visibility_control.h\n'}
[0.920000] (messages) StdoutLine: {'line': b'-- Up-to-date: /home/dom/Cerberus/install/messages/include/messages/msg/img__rosidl_typesupport_connext_c.h\n'}
[0.920211] (messages) StdoutLine: {'line': b'-- Up-to-date: /home/dom/Cerberus/install/messages/lib/libmessages__rosidl_typesupport_connext_c.so\n'}
[0.920352] (messages) StdoutLine: {'line': b'-- Up-to-date: /home/dom/Cerberus/install/messages/include/messages\n'}
[0.920481] (messages) StdoutLine: {'line': b'-- Up-to-date: /home/dom/Cerberus/install/messages/include/messages/msg\n'}
[0.920620] (messages) StdoutLine: {'line': b'-- Up-to-date: /home/dom/Cerberus/install/messages/include/messages/msg/img__functions.h\n'}
[0.920743] (messages) StdoutLine: {'line': b'-- Up-to-date: /home/dom/Cerberus/install/messages/include/messages/msg/rosidl_generator_c__visibility_control.h\n'}
[0.920880] (messages) StdoutLine: {'line': b'-- Up-to-date: /home/dom/Cerberus/install/messages/include/messages/msg/img__struct.h\n'}
[0.921052] (messages) StdoutLine: {'line': b'-- Up-to-date: /home/dom/Cerberus/install/messages/include/messages/msg/img__functions.c\n'}
[0.921227] (messages) StdoutLine: {'line': b'-- Up-to-date: /home/dom/Cerberus/install/messages/include/messages/msg/img__type_support.h\n'}
[0.921348] (messages) StdoutLine: {'line': b'-- Up-to-date: /home/dom/Cerberus/install/messages/include/messages/msg/img.h\n'}
[0.921469] (messages) StdoutLine: {'line': b'-- Up-to-date: /home/dom/Cerberus/install/messages/lib/libmessages__rosidl_generator_c.so\n'}
[0.921593] (messages) StdoutLine: {'line': b'-- Up-to-date: /home/dom/Cerberus/install/messages/share/messages/msg/dds_connext\n'}
[0.921719] (messages) StdoutLine: {'line': b'-- Up-to-date: /home/dom/Cerberus/install/messages/share/messages/msg/dds_connext/Img_.idl\n'}
[0.921852] (messages) StdoutLine: {'line': b'-- Up-to-date: /home/dom/Cerberus/install/messages/include/messages\n'}
[0.922010] (messages) StdoutLine: {'line': b'-- Up-to-date: /home/dom/Cerberus/install/messages/include/messages/msg\n'}
[0.922203] (messages) StdoutLine: {'line': b'-- Up-to-date: /home/dom/Cerberus/install/messages/include/messages/msg/dds_connext\n'}
[0.922381] (messages) StdoutLine: {'line': b'-- Up-to-date: /home/dom/Cerberus/install/messages/include/messages/msg/dds_connext/Img_Support.h\n'}
[0.922526] (messages) StdoutLine: {'line': b'-- Up-to-date: /home/dom/Cerberus/install/messages/include/messages/msg/dds_connext/Img_.cxx\n'}
[0.922656] (messages) StdoutLine: {'line': b'-- Up-to-date: /home/dom/Cerberus/install/messages/include/messages/msg/dds_connext/Img_Plugin.cxx\n'}
[0.922767] (messages) StdoutLine: {'line': b'-- Up-to-date: /home/dom/Cerberus/install/messages/include/messages/msg/dds_connext/Img_.h\n'}
[0.922940] (messages) StdoutLine: {'line': b'-- Up-to-date: /home/dom/Cerberus/install/messages/include/messages/msg/dds_connext/Img_Plugin.h\n'}
[0.923063] (messages) StdoutLine: {'line': b'-- Up-to-date: /home/dom/Cerberus/install/messages/include/messages/msg/dds_connext/Img_Support.cxx\n'}
[0.923179] (messages) StdoutLine: {'line': b'-- Up-to-date: /home/dom/Cerberus/install/messages/include/messages/msg/rosidl_typesupport_connext_cpp__visibility_control.h\n'}
[0.923314] (messages) StdoutLine: {'line': b'-- Up-to-date: /home/dom/Cerberus/install/messages/include/messages/msg/img__rosidl_typesupport_connext_cpp.hpp\n'}
[0.923451] (messages) StdoutLine: {'line': b'-- Up-to-date: /home/dom/Cerberus/install/messages/lib/libmessages__rosidl_typesupport_connext_cpp.so\n'}
[0.923633] (messages) StdoutLine: {'line': b'-- Up-to-date: /home/dom/Cerberus/install/messages/include/messages\n'}
[0.923764] (messages) StdoutLine: {'line': b'-- Up-to-date: /home/dom/Cerberus/install/messages/include/messages/msg\n'}
[0.923889] (messages) StdoutLine: {'line': b'-- Up-to-date: /home/dom/Cerberus/install/messages/include/messages/msg/img__traits.hpp\n'}
[0.924016] (messages) StdoutLine: {'line': b'-- Up-to-date: /home/dom/Cerberus/install/messages/include/messages/msg/img.hpp\n'}
[0.924135] (messages) StdoutLine: {'line': b'-- Up-to-date: /home/dom/Cerberus/install/messages/include/messages/msg/img__struct.hpp\n'}
[0.924276] (messages) StdoutLine: {'line': b'-- Up-to-date: /home/dom/Cerberus/install/messages/include/messages\n'}
[0.924423] (messages) StdoutLine: {'line': b'-- Up-to-date: /home/dom/Cerberus/install/messages/include/messages/msg\n'}
[0.924556] (messages) StdoutLine: {'line': b'-- Up-to-date: /home/dom/Cerberus/install/messages/include/messages/msg/rosidl_typesupport_fastrtps_c__visibility_control.h\n'}
[0.924688] (messages) StdoutLine: {'line': b'-- Up-to-date: /home/dom/Cerberus/install/messages/include/messages/msg/img__rosidl_typesupport_fastrtps_c.h\n'}
[0.924817] (messages) StdoutLine: {'line': b'-- Up-to-date: /home/dom/Cerberus/install/messages/lib/libmessages__rosidl_typesupport_fastrtps_c.so\n'}
[0.924927] (messages) StdoutLine: {'line': b'-- Up-to-date: /home/dom/Cerberus/install/messages/include/messages\n'}
[0.925175] (messages) StdoutLine: {'line': b'-- Up-to-date: /home/dom/Cerberus/install/messages/include/messages/msg\n'}
[0.925463] (messages) StdoutLine: {'line': b'-- Up-to-date: /home/dom/Cerberus/install/messages/include/messages/msg/dds_fastrtps\n'}
[0.925608] (messages) StdoutLine: {'line': b'-- Up-to-date: /home/dom/Cerberus/install/messages/include/messages/msg/rosidl_typesupport_fastrtps_cpp__visibility_control.h\n'}
[0.925737] (messages) StdoutLine: {'line': b'-- Up-to-date: /home/dom/Cerberus/install/messages/include/messages/msg/img__rosidl_typesupport_fastrtps_cpp.hpp\n'}
[0.925867] (messages) StdoutLine: {'line': b'-- Up-to-date: /home/dom/Cerberus/install/messages/lib/libmessages__rosidl_typesupport_fastrtps_cpp.so\n'}
[0.925993] (messages) StdoutLine: {'line': b'-- Up-to-date: /home/dom/Cerberus/install/messages/include/messages\n'}
[0.926111] (messages) StdoutLine: {'line': b'-- Up-to-date: /home/dom/Cerberus/install/messages/include/messages/msg\n'}
[0.926346] (messages) StdoutLine: {'line': b'-- Up-to-date: /home/dom/Cerberus/install/messages/include/messages/msg/img__type_support.c\n'}
[0.926529] (messages) StdoutLine: {'line': b'-- Up-to-date: /home/dom/Cerberus/install/messages/include/messages/msg/img__rosidl_typesupport_introspection_c.h\n'}
[0.926693] (messages) StdoutLine: {'line': b'-- Up-to-date: /home/dom/Cerberus/install/messages/include/messages/msg/rosidl_typesupport_introspection_c__visibility_control.h\n'}
[0.926820] (messages) StdoutLine: {'line': b'-- Up-to-date: /home/dom/Cerberus/install/messages/lib/libmessages__rosidl_typesupport_introspection_c.so\n'}
[0.926986] (messages) StdoutLine: {'line': b'-- Up-to-date: /home/dom/Cerberus/install/messages/include/messages\n'}
[0.927169] (messages) StdoutLine: {'line': b'-- Up-to-date: /home/dom/Cerberus/install/messages/include/messages/msg\n'}
[0.927270] (messages) StdoutLine: {'line': b'-- Up-to-date: /home/dom/Cerberus/install/messages/include/messages/msg/rosidl_typesupport_opensplice_c__visibility_control.h\n'}
[0.927395] (messages) StdoutLine: {'line': b'-- Up-to-date: /home/dom/Cerberus/install/messages/include/messages/msg/dds_opensplice_c\n'}
[0.927461] (messages) StdoutLine: {'line': b'-- Up-to-date: /home/dom/Cerberus/install/messages/include/messages/msg/img__rosidl_typesupport_opensplice_c.h\n'}
[0.927521] (messages) StdoutLine: {'line': b'-- Up-to-date: /home/dom/Cerberus/install/messages/lib/libmessages__rosidl_typesupport_opensplice_c.so\n'}
[0.927581] (messages) StdoutLine: {'line': b'-- Up-to-date: /home/dom/Cerberus/install/messages/share/messages/msg/dds_opensplice\n'}
[0.927640] (messages) StdoutLine: {'line': b'-- Up-to-date: /home/dom/Cerberus/install/messages/share/messages/msg/dds_opensplice/Img_.idl\n'}
[0.927707] (messages) StdoutLine: {'line': b'-- Up-to-date: /home/dom/Cerberus/install/messages/include/messages\n'}
[0.927768] (messages) StdoutLine: {'line': b'-- Up-to-date: /home/dom/Cerberus/install/messages/include/messages/msg\n'}
[0.927826] (messages) StdoutLine: {'line': b'-- Up-to-date: /home/dom/Cerberus/install/messages/include/messages/msg/dds_opensplice\n'}
[0.927884] (messages) StdoutLine: {'line': b'-- Up-to-date: /home/dom/Cerberus/install/messages/include/messages/msg/dds_opensplice/Img_Dcps_impl.h\n'}
[0.927942] (messages) StdoutLine: {'line': b'-- Up-to-date: /home/dom/Cerberus/install/messages/include/messages/msg/dds_opensplice/Img_.h\n'}
[0.927999] (messages) StdoutLine: {'line': b'-- Up-to-date: /home/dom/Cerberus/install/messages/include/messages/msg/dds_opensplice/Img_Dcps.h\n'}
[0.928056] (messages) StdoutLine: {'line': b'-- Up-to-date: /home/dom/Cerberus/install/messages/include/messages/msg/dds_opensplice/Img_SplDcps.h\n'}
[0.928118] (messages) StdoutLine: {'line': b'-- Up-to-date: /home/dom/Cerberus/install/messages/include/messages/msg/dds_opensplice/ccpp_Img_.h\n'}
[0.928175] (messages) StdoutLine: {'line': b'-- Up-to-date: /home/dom/Cerberus/install/messages/include/messages/msg/img__rosidl_typesupport_opensplice_cpp.hpp\n'}
[0.928233] (messages) StdoutLine: {'line': b'-- Up-to-date: /home/dom/Cerberus/install/messages/include/messages/msg/rosidl_typesupport_opensplice_cpp__visibility_control.h\n'}
[0.928291] (messages) StdoutLine: {'line': b'-- Up-to-date: /home/dom/Cerberus/install/messages/lib/libmessages__rosidl_typesupport_opensplice_cpp.so\n'}
[0.928349] (messages) StdoutLine: {'line': b'-- Up-to-date: /home/dom/Cerberus/install/messages/include/messages\n'}
[0.928406] (messages) StdoutLine: {'line': b'-- Up-to-date: /home/dom/Cerberus/install/messages/include/messages/msg\n'}
[0.928463] (messages) StdoutLine: {'line': b'-- Up-to-date: /home/dom/Cerberus/install/messages/include/messages/msg/img__type_support.cpp\n'}
[0.928520] (messages) StdoutLine: {'line': b'-- Up-to-date: /home/dom/Cerberus/install/messages/include/messages/msg/img__rosidl_typesupport_introspection_cpp.hpp\n'}
[0.928577] (messages) StdoutLine: {'line': b'-- Up-to-date: /home/dom/Cerberus/install/messages/lib/libmessages__rosidl_typesupport_introspection_cpp.so\n'}
[0.928635] (messages) StdoutLine: {'line': b'-- Up-to-date: /home/dom/Cerberus/install/messages/share/messages/environment/pythonpath.sh\n'}
[0.928693] (messages) StdoutLine: {'line': b'-- Up-to-date: /home/dom/Cerberus/install/messages/lib/python3.6/site-packages/messages/__init__.py\n'}
[0.930045] (tutorial_interfaces) StdoutLine: {'line': b'-- Up-to-date: /home/dom/Cerberus/install/tutorial_interfaces/lib/python3.6/site-packages/tutorial_interfaces/msg\n'}
[0.930155] (tutorial_interfaces) StdoutLine: {'line': b'-- Up-to-date: /home/dom/Cerberus/install/tutorial_interfaces/lib/python3.6/site-packages/tutorial_interfaces/msg/_num.py\n'}
[0.930277] (tutorial_interfaces) StdoutLine: {'line': b'-- Up-to-date: /home/dom/Cerberus/install/tutorial_interfaces/lib/python3.6/site-packages/tutorial_interfaces/msg/_num_s.c\n'}
[0.930372] (tutorial_interfaces) StdoutLine: {'line': b'-- Up-to-date: /home/dom/Cerberus/install/tutorial_interfaces/lib/python3.6/site-packages/tutorial_interfaces/msg/__init__.py\n'}
[0.930616] (tutorial_interfaces) StdoutLine: {'line': b'-- Up-to-date: /home/dom/Cerberus/install/tutorial_interfaces/lib/python3.6/site-packages/tutorial_interfaces/tutorial_interfaces_s__rosidl_typesupport_c.cpython-36m-x86_64-linux-gnu.so\n'}
[0.931255] (tutorial_interfaces) StdoutLine: {'line': b'-- Up-to-date: /home/dom/Cerberus/install/tutorial_interfaces/lib/python3.6/site-packages/tutorial_interfaces/tutorial_interfaces_s__rosidl_typesupport_fastrtps_c.cpython-36m-x86_64-linux-gnu.so\n'}
[0.931924] (tutorial_interfaces) StdoutLine: {'line': b'-- Up-to-date: /home/dom/Cerberus/install/tutorial_interfaces/lib/python3.6/site-packages/tutorial_interfaces/tutorial_interfaces_s__rosidl_typesupport_opensplice_c.cpython-36m-x86_64-linux-gnu.so\n'}
[0.932410] (tutorial_interfaces) StdoutLine: {'line': b'-- Up-to-date: /home/dom/Cerberus/install/tutorial_interfaces/lib/libtutorial_interfaces__python.so\n'}
[0.932601] (tutorial_interfaces) StdoutLine: {'line': b'-- Up-to-date: /home/dom/Cerberus/install/tutorial_interfaces/share/tutorial_interfaces/msg/Num.idl\n'}
[0.932842] (tutorial_interfaces) StdoutLine: {'line': b'-- Up-to-date: /home/dom/Cerberus/install/tutorial_interfaces/share/tutorial_interfaces/msg/Num.msg\n'}
[0.932979] (tutorial_interfaces) StdoutLine: {'line': b'-- Up-to-date: /home/dom/Cerberus/install/tutorial_interfaces/share/ament_index/resource_index/package_run_dependencies/tutorial_interfaces\n'}
[0.933104] (tutorial_interfaces) StdoutLine: {'line': b'-- Up-to-date: /home/dom/Cerberus/install/tutorial_interfaces/share/ament_index/resource_index/parent_prefix_path/tutorial_interfaces\n'}
[0.933198] (tutorial_interfaces) StdoutLine: {'line': b'-- Up-to-date: /home/dom/Cerberus/install/tutorial_interfaces/share/tutorial_interfaces/environment/ament_prefix_path.sh\n'}
[0.933291] (tutorial_interfaces) StdoutLine: {'line': b'-- Up-to-date: /home/dom/Cerberus/install/tutorial_interfaces/share/tutorial_interfaces/environment/path.sh\n'}
[0.933384] (tutorial_interfaces) StdoutLine: {'line': b'-- Up-to-date: /home/dom/Cerberus/install/tutorial_interfaces/share/tutorial_interfaces/local_setup.bash\n'}
[0.933483] (tutorial_interfaces) StdoutLine: {'line': b'-- Up-to-date: /home/dom/Cerberus/install/tutorial_interfaces/share/tutorial_interfaces/local_setup.sh\n'}
[0.933546] (tutorial_interfaces) StdoutLine: {'line': b'-- Up-to-date: /home/dom/Cerberus/install/tutorial_interfaces/share/tutorial_interfaces/local_setup.zsh\n'}
[0.933608] (tutorial_interfaces) StdoutLine: {'line': b'-- Up-to-date: /home/dom/Cerberus/install/tutorial_interfaces/share/ament_index/resource_index/packages/tutorial_interfaces\n'}
[0.933671] (tutorial_interfaces) StdoutLine: {'line': b'-- Up-to-date: /home/dom/Cerberus/install/tutorial_interfaces/share/tutorial_interfaces/cmake/rosidl_cmake-extras.cmake\n'}
[0.933733] (tutorial_interfaces) StdoutLine: {'line': b'-- Up-to-date: /home/dom/Cerberus/install/tutorial_interfaces/share/tutorial_interfaces/cmake/ament_cmake_export_libraries-extras.cmake\n'}
[0.933799] (tutorial_interfaces) StdoutLine: {'line': b'-- Up-to-date: /home/dom/Cerberus/install/tutorial_interfaces/share/tutorial_interfaces/cmake/ament_cmake_export_include_directories-extras.cmake\n'}
[0.933861] (tutorial_interfaces) StdoutLine: {'line': b'-- Up-to-date: /home/dom/Cerberus/install/tutorial_interfaces/share/tutorial_interfaces/cmake/rosidl_cmake_export_typesupport_libraries-extras.cmake\n'}
[0.933923] (tutorial_interfaces) StdoutLine: {'line': b'-- Up-to-date: /home/dom/Cerberus/install/tutorial_interfaces/share/tutorial_interfaces/cmake/tutorial_interfacesConfig.cmake\n'}
[0.933985] (tutorial_interfaces) StdoutLine: {'line': b'-- Up-to-date: /home/dom/Cerberus/install/tutorial_interfaces/share/tutorial_interfaces/cmake/tutorial_interfacesConfig-version.cmake\n'}
[0.934053] (tutorial_interfaces) StdoutLine: {'line': b'-- Up-to-date: /home/dom/Cerberus/install/tutorial_interfaces/share/tutorial_interfaces/package.xml\n'}
[0.936342] (tutorial_interfaces) CommandEnded: {'returncode': 0}
[0.945707] (tutorial_interfaces) JobEnded: {'identifier': 'tutorial_interfaces', 'rc': 0}
[0.958268] (messages) StdoutLine: {'line': b'-- Up-to-date: /home/dom/Cerberus/install/messages/lib/python3.6/site-packages/messages/msg\n'}
[0.958517] (messages) StdoutLine: {'line': b'-- Up-to-date: /home/dom/Cerberus/install/messages/lib/python3.6/site-packages/messages/msg/_img_s.c\n'}
[0.958640] (messages) StdoutLine: {'line': b'-- Up-to-date: /home/dom/Cerberus/install/messages/lib/python3.6/site-packages/messages/msg/_img.py\n'}
[0.958774] (messages) StdoutLine: {'line': b'-- Up-to-date: /home/dom/Cerberus/install/messages/lib/python3.6/site-packages/messages/msg/__init__.py\n'}
[0.958898] (messages) StdoutLine: {'line': b'-- Up-to-date: /home/dom/Cerberus/install/messages/lib/python3.6/site-packages/messages/messages_s__rosidl_typesupport_c.cpython-36m-x86_64-linux-gnu.so\n'}
[0.959307] (messages) StdoutLine: {'line': b'-- Up-to-date: /home/dom/Cerberus/install/messages/lib/python3.6/site-packages/messages/messages_s__rosidl_typesupport_fastrtps_c.cpython-36m-x86_64-linux-gnu.so\n'}
[0.959860] (messages) StdoutLine: {'line': b'-- Up-to-date: /home/dom/Cerberus/install/messages/lib/python3.6/site-packages/messages/messages_s__rosidl_typesupport_opensplice_c.cpython-36m-x86_64-linux-gnu.so\n'}
[0.960325] (messages) StdoutLine: {'line': b'-- Up-to-date: /home/dom/Cerberus/install/messages/lib/libmessages__python.so\n'}
[0.960532] (messages) StdoutLine: {'line': b'-- Up-to-date: /home/dom/Cerberus/install/messages/share/messages/msg/Img.idl\n'}
[0.960737] (messages) StdoutLine: {'line': b'-- Up-to-date: /home/dom/Cerberus/install/messages/share/messages/msg/Img.msg\n'}
[0.960982] (messages) StdoutLine: {'line': b'-- Up-to-date: /home/dom/Cerberus/install/messages/share/ament_index/resource_index/package_run_dependencies/messages\n'}
[0.961175] (messages) StdoutLine: {'line': b'-- Up-to-date: /home/dom/Cerberus/install/messages/share/ament_index/resource_index/parent_prefix_path/messages\n'}
[0.961325] (messages) StdoutLine: {'line': b'-- Up-to-date: /home/dom/Cerberus/install/messages/share/messages/environment/ament_prefix_path.sh\n'}
[0.961465] (messages) StdoutLine: {'line': b'-- Up-to-date: /home/dom/Cerberus/install/messages/share/messages/environment/path.sh\n'}
[0.961610] (messages) StdoutLine: {'line': b'-- Up-to-date: /home/dom/Cerberus/install/messages/share/messages/local_setup.bash\n'}
[0.961725] (messages) StdoutLine: {'line': b'-- Up-to-date: /home/dom/Cerberus/install/messages/share/messages/local_setup.sh\n'}
[0.961837] (messages) StdoutLine: {'line': b'-- Up-to-date: /home/dom/Cerberus/install/messages/share/messages/local_setup.zsh\n'}
[0.961945] (messages) StdoutLine: {'line': b'-- Up-to-date: /home/dom/Cerberus/install/messages/share/ament_index/resource_index/packages/messages\n'}
[0.962049] (messages) StdoutLine: {'line': b'-- Up-to-date: /home/dom/Cerberus/install/messages/share/messages/cmake/rosidl_cmake-extras.cmake\n'}
[0.962154] (messages) StdoutLine: {'line': b'-- Up-to-date: /home/dom/Cerberus/install/messages/share/messages/cmake/ament_cmake_export_libraries-extras.cmake\n'}
[0.962309] (messages) StdoutLine: {'line': b'-- Up-to-date: /home/dom/Cerberus/install/messages/share/messages/cmake/ament_cmake_export_include_directories-extras.cmake\n'}
[0.962411] (messages) StdoutLine: {'line': b'-- Up-to-date: /home/dom/Cerberus/install/messages/share/messages/cmake/rosidl_cmake_export_typesupport_libraries-extras.cmake\n'}
[0.962509] (messages) StdoutLine: {'line': b'-- Up-to-date: /home/dom/Cerberus/install/messages/share/messages/cmake/messagesConfig.cmake\n'}
[0.962598] (messages) StdoutLine: {'line': b'-- Up-to-date: /home/dom/Cerberus/install/messages/share/messages/cmake/messagesConfig-version.cmake\n'}
[0.962685] (messages) StdoutLine: {'line': b'-- Up-to-date: /home/dom/Cerberus/install/messages/share/messages/package.xml\n'}
[0.965403] (messages) CommandEnded: {'returncode': 0}
[0.973777] (messages) JobEnded: {'identifier': 'messages', 'rc': 0}
[1.000146] (-) TimerEvent: {}
[1.100417] (-) TimerEvent: {}
[1.200692] (-) TimerEvent: {}
[1.226543] (central) StderrLine: {'line': b'\x1b[01m\x1b[K/home/dom/Cerberus/src/central/src/central_main.cpp:19:10:\x1b[m\x1b[K \x1b[01;31m\x1b[Kerror: \x1b[m\x1b[Kno matching function for call to \xe2\x80\x98\x1b[01m\x1b[KGenerate::Generate()\x1b[m\x1b[K\xe2\x80\x99\n'}
[1.226714] (central) StderrLine: {'line': b' Generate \x1b[01;31m\x1b[Kgenerater\x1b[m\x1b[K;\n'}
[1.226781] (central) StderrLine: {'line': b'          \x1b[01;31m\x1b[K^~~~~~~~~\x1b[m\x1b[K\n'}
[1.226840] (central) StderrLine: {'line': b'In file included from \x1b[01m\x1b[K/home/dom/Cerberus/src/central/src/central_main.cpp:8:0\x1b[m\x1b[K:\n'}
[1.226911] (central) StderrLine: {'line': b'\x1b[01m\x1b[K/home/dom/Cerberus/src/central/src/generate_cmds.h:11:9:\x1b[m\x1b[K \x1b[01;36m\x1b[Knote: \x1b[m\x1b[Kcandidate: Generate::Generate(int)\n'}
[1.226965] (central) StderrLine: {'line': b'         \x1b[01;36m\x1b[KGenerate\x1b[m\x1b[K(int five);\n'}
[1.227019] (central) StderrLine: {'line': b'         \x1b[01;36m\x1b[K^~~~~~~~\x1b[m\x1b[K\n'}
[1.227072] (central) StderrLine: {'line': b'\x1b[01m\x1b[K/home/dom/Cerberus/src/central/src/generate_cmds.h:11:9:\x1b[m\x1b[K \x1b[01;36m\x1b[Knote: \x1b[m\x1b[K  candidate expects 1 argument, 0 provided\n'}
[1.227125] (central) StderrLine: {'line': b'\x1b[01m\x1b[K/home/dom/Cerberus/src/central/src/generate_cmds.h:6:7:\x1b[m\x1b[K \x1b[01;36m\x1b[Knote: \x1b[m\x1b[Kcandidate: constexpr Generate::Generate(const Generate&)\n'}
[1.227179] (central) StderrLine: {'line': b' class \x1b[01;36m\x1b[KGenerate\x1b[m\x1b[K{\n'}
[1.227230] (central) StderrLine: {'line': b'       \x1b[01;36m\x1b[K^~~~~~~~\x1b[m\x1b[K\n'}
[1.227282] (central) StderrLine: {'line': b'\x1b[01m\x1b[K/home/dom/Cerberus/src/central/src/generate_cmds.h:6:7:\x1b[m\x1b[K \x1b[01;36m\x1b[Knote: \x1b[m\x1b[K  candidate expects 1 argument, 0 provided\n'}
[1.227338] (central) StderrLine: {'line': b'\x1b[01m\x1b[K/home/dom/Cerberus/src/central/src/generate_cmds.h:6:7:\x1b[m\x1b[K \x1b[01;36m\x1b[Knote: \x1b[m\x1b[Kcandidate: constexpr Generate::Generate(Generate&&)\n'}
[1.227391] (central) StderrLine: {'line': b'\x1b[01m\x1b[K/home/dom/Cerberus/src/central/src/generate_cmds.h:6:7:\x1b[m\x1b[K \x1b[01;36m\x1b[Knote: \x1b[m\x1b[K  candidate expects 1 argument, 0 provided\n'}
[1.300816] (-) TimerEvent: {}
[1.401101] (-) TimerEvent: {}
[1.501393] (-) TimerEvent: {}
[1.601683] (-) TimerEvent: {}
[1.694424] (central) StdoutLine: {'line': b"CMakeFiles/central_main.dir/build.make:62: recipe for target 'CMakeFiles/central_main.dir/src/central_main.cpp.o' failed\n"}
[1.695028] (central) StderrLine: {'line': b'make[2]: *** [CMakeFiles/central_main.dir/src/central_main.cpp.o] Error 1\n'}
[1.695116] (central) StderrLine: {'line': b'make[1]: *** [CMakeFiles/central_main.dir/all] Error 2\n'}
[1.695176] (central) StderrLine: {'line': b'make: *** [all] Error 2\n'}
[1.695232] (central) StdoutLine: {'line': b"CMakeFiles/Makefile2:67: recipe for target 'CMakeFiles/central_main.dir/all' failed\n"}
[1.695289] (central) StdoutLine: {'line': b"Makefile:140: recipe for target 'all' failed\n"}
[1.696406] (central) CommandEnded: {'returncode': 2}
[1.696761] (central) JobEnded: {'identifier': 'central', 'rc': 2}
[1.701938] (-) TimerEvent: {}
[1.708058] (-) EventReactorShutdown: {}
