[0.286s] [  1%] Built target messages__cpp
[0.292s] [  6%] Built target messages__dds_connext_idl
[0.292s] [  7%] Built target messages__rosidl_generator_c
[0.295s] [  9%] Built target messages__dds_opensplice_idl
[0.319s] [ 13%] Built target messages__rosidl_typesupport_introspection_cpp
[0.320s] [ 18%] Built target messages__rosidl_typesupport_cpp
[0.328s] [ 23%] Built target messages__rosidl_typesupport_fastrtps_cpp
[0.331s] [ 27%] Built target messages__rosidl_typesupport_introspection_c
[0.332s] [ 32%] Built target messages__rosidl_typesupport_c
[0.342s] [ 44%] Built target messages__rosidl_typesupport_opensplice_cpp
[0.352s] [ 55%] Built target messages__rosidl_typesupport_connext_cpp
[0.363s] [ 60%] Built target messages__rosidl_typesupport_fastrtps_c
[0.387s] [ 73%] Built target messages__rosidl_typesupport_opensplice_c
[0.400s] [ 86%] Built target messages__rosidl_typesupport_connext_c
[0.419s] [ 86%] Built target messages
[0.437s] [ 87%] Built target messages__py
[0.460s] [ 90%] Built target messages__python
[0.486s] [ 93%] Built target messages__rosidl_typesupport_fastrtps_c__pyext
[0.487s] [ 96%] Built target messages__rosidl_typesupport_c__pyext
[0.494s] [100%] Built target messages__rosidl_typesupport_opensplice_c__pyext
[0.646s] [  1%] Built target messages__cpp
[0.651s] [  3%] Built target messages__dds_opensplice_idl
[0.652s] [  4%] Built target messages__dds_connext_idl
[0.655s] [  9%] Built target messages__rosidl_generator_c
[0.693s] [ 13%] Built target messages__rosidl_typesupport_introspection_cpp
[0.693s] [ 18%] Built target messages__rosidl_typesupport_fastrtps_cpp
[0.696s] [ 23%] Built target messages__rosidl_typesupport_cpp
[0.709s] [ 35%] Built target messages__rosidl_typesupport_c
[0.710s] [ 40%] Built target messages__rosidl_typesupport_opensplice_cpp
[0.713s] [ 44%] Built target messages__rosidl_typesupport_introspection_c
[0.714s] [ 55%] Built target messages__rosidl_typesupport_connext_cpp
[0.729s] [ 60%] Built target messages__rosidl_typesupport_fastrtps_c
[0.753s] [ 72%] Built target messages__rosidl_typesupport_connext_c
[0.763s] [ 86%] Built target messages__rosidl_typesupport_opensplice_c
[0.781s] [ 86%] Built target messages
[0.803s] [ 87%] Built target messages__py
[0.825s] [ 90%] Built target messages__python
[0.851s] [ 93%] Built target messages__rosidl_typesupport_fastrtps_c__pyext
[0.857s] [100%] Built target messages__rosidl_typesupport_opensplice_c__pyext
[0.857s] [100%] Built target messages__rosidl_typesupport_c__pyext
[0.875s] [36mInstall the project...[0m
[0.883s] -- Install configuration: ""
[0.883s] -- Up-to-date: /home/dom/Cerberus/install/messages/share/ament_index/resource_index/rosidl_interfaces/messages
[0.883s] -- Up-to-date: /home/dom/Cerberus/install/messages/lib/libmessages__rosidl_typesupport_c.so
[0.884s] -- Up-to-date: /home/dom/Cerberus/install/messages/share/messages/environment/library_path.sh
[0.884s] -- Up-to-date: /home/dom/Cerberus/install/messages/lib/libmessages__rosidl_typesupport_cpp.so
[0.884s] -- Up-to-date: /home/dom/Cerberus/install/messages/include/messages
[0.884s] -- Up-to-date: /home/dom/Cerberus/install/messages/include/messages/msg
[0.884s] -- Up-to-date: /home/dom/Cerberus/install/messages/include/messages/msg/dds_connext
[0.884s] -- Up-to-date: /home/dom/Cerberus/install/messages/include/messages/msg/rosidl_typesupport_connext_c__visibility_control.h
[0.884s] -- Up-to-date: /home/dom/Cerberus/install/messages/include/messages/msg/img__rosidl_typesupport_connext_c.h
[0.884s] -- Up-to-date: /home/dom/Cerberus/install/messages/lib/libmessages__rosidl_typesupport_connext_c.so
[0.885s] -- Up-to-date: /home/dom/Cerberus/install/messages/include/messages
[0.885s] -- Up-to-date: /home/dom/Cerberus/install/messages/include/messages/msg
[0.885s] -- Up-to-date: /home/dom/Cerberus/install/messages/include/messages/msg/img__functions.h
[0.885s] -- Up-to-date: /home/dom/Cerberus/install/messages/include/messages/msg/rosidl_generator_c__visibility_control.h
[0.885s] -- Up-to-date: /home/dom/Cerberus/install/messages/include/messages/msg/img__struct.h
[0.885s] -- Up-to-date: /home/dom/Cerberus/install/messages/include/messages/msg/img__functions.c
[0.885s] -- Up-to-date: /home/dom/Cerberus/install/messages/include/messages/msg/img__type_support.h
[0.885s] -- Up-to-date: /home/dom/Cerberus/install/messages/include/messages/msg/img.h
[0.885s] -- Up-to-date: /home/dom/Cerberus/install/messages/lib/libmessages__rosidl_generator_c.so
[0.885s] -- Up-to-date: /home/dom/Cerberus/install/messages/share/messages/msg/dds_connext
[0.885s] -- Up-to-date: /home/dom/Cerberus/install/messages/share/messages/msg/dds_connext/Img_.idl
[0.886s] -- Up-to-date: /home/dom/Cerberus/install/messages/include/messages
[0.886s] -- Up-to-date: /home/dom/Cerberus/install/messages/include/messages/msg
[0.886s] -- Up-to-date: /home/dom/Cerberus/install/messages/include/messages/msg/dds_connext
[0.886s] -- Up-to-date: /home/dom/Cerberus/install/messages/include/messages/msg/dds_connext/Img_Support.h
[0.886s] -- Up-to-date: /home/dom/Cerberus/install/messages/include/messages/msg/dds_connext/Img_.cxx
[0.886s] -- Up-to-date: /home/dom/Cerberus/install/messages/include/messages/msg/dds_connext/Img_Plugin.cxx
[0.886s] -- Up-to-date: /home/dom/Cerberus/install/messages/include/messages/msg/dds_connext/Img_.h
[0.886s] -- Up-to-date: /home/dom/Cerberus/install/messages/include/messages/msg/dds_connext/Img_Plugin.h
[0.886s] -- Up-to-date: /home/dom/Cerberus/install/messages/include/messages/msg/dds_connext/Img_Support.cxx
[0.886s] -- Up-to-date: /home/dom/Cerberus/install/messages/include/messages/msg/rosidl_typesupport_connext_cpp__visibility_control.h
[0.887s] -- Up-to-date: /home/dom/Cerberus/install/messages/include/messages/msg/img__rosidl_typesupport_connext_cpp.hpp
[0.887s] -- Up-to-date: /home/dom/Cerberus/install/messages/lib/libmessages__rosidl_typesupport_connext_cpp.so
[0.887s] -- Up-to-date: /home/dom/Cerberus/install/messages/include/messages
[0.887s] -- Up-to-date: /home/dom/Cerberus/install/messages/include/messages/msg
[0.887s] -- Up-to-date: /home/dom/Cerberus/install/messages/include/messages/msg/img__traits.hpp
[0.887s] -- Up-to-date: /home/dom/Cerberus/install/messages/include/messages/msg/img.hpp
[0.887s] -- Up-to-date: /home/dom/Cerberus/install/messages/include/messages/msg/img__struct.hpp
[0.887s] -- Up-to-date: /home/dom/Cerberus/install/messages/include/messages
[0.887s] -- Up-to-date: /home/dom/Cerberus/install/messages/include/messages/msg
[0.887s] -- Up-to-date: /home/dom/Cerberus/install/messages/include/messages/msg/rosidl_typesupport_fastrtps_c__visibility_control.h
[0.887s] -- Up-to-date: /home/dom/Cerberus/install/messages/include/messages/msg/img__rosidl_typesupport_fastrtps_c.h
[0.887s] -- Up-to-date: /home/dom/Cerberus/install/messages/lib/libmessages__rosidl_typesupport_fastrtps_c.so
[0.887s] -- Up-to-date: /home/dom/Cerberus/install/messages/include/messages
[0.888s] -- Up-to-date: /home/dom/Cerberus/install/messages/include/messages/msg
[0.888s] -- Up-to-date: /home/dom/Cerberus/install/messages/include/messages/msg/dds_fastrtps
[0.888s] -- Up-to-date: /home/dom/Cerberus/install/messages/include/messages/msg/rosidl_typesupport_fastrtps_cpp__visibility_control.h
[0.888s] -- Up-to-date: /home/dom/Cerberus/install/messages/include/messages/msg/img__rosidl_typesupport_fastrtps_cpp.hpp
[0.888s] -- Up-to-date: /home/dom/Cerberus/install/messages/lib/libmessages__rosidl_typesupport_fastrtps_cpp.so
[0.888s] -- Up-to-date: /home/dom/Cerberus/install/messages/include/messages
[0.888s] -- Up-to-date: /home/dom/Cerberus/install/messages/include/messages/msg
[0.888s] -- Up-to-date: /home/dom/Cerberus/install/messages/include/messages/msg/img__type_support.c
[0.888s] -- Up-to-date: /home/dom/Cerberus/install/messages/include/messages/msg/img__rosidl_typesupport_introspection_c.h
[0.888s] -- Up-to-date: /home/dom/Cerberus/install/messages/include/messages/msg/rosidl_typesupport_introspection_c__visibility_control.h
[0.888s] -- Up-to-date: /home/dom/Cerberus/install/messages/lib/libmessages__rosidl_typesupport_introspection_c.so
[0.889s] -- Up-to-date: /home/dom/Cerberus/install/messages/include/messages
[0.889s] -- Up-to-date: /home/dom/Cerberus/install/messages/include/messages/msg
[0.889s] -- Up-to-date: /home/dom/Cerberus/install/messages/include/messages/msg/rosidl_typesupport_opensplice_c__visibility_control.h
[0.889s] -- Up-to-date: /home/dom/Cerberus/install/messages/include/messages/msg/dds_opensplice_c
[0.889s] -- Up-to-date: /home/dom/Cerberus/install/messages/include/messages/msg/img__rosidl_typesupport_opensplice_c.h
[0.889s] -- Up-to-date: /home/dom/Cerberus/install/messages/lib/libmessages__rosidl_typesupport_opensplice_c.so
[0.889s] -- Up-to-date: /home/dom/Cerberus/install/messages/share/messages/msg/dds_opensplice
[0.889s] -- Up-to-date: /home/dom/Cerberus/install/messages/share/messages/msg/dds_opensplice/Img_.idl
[0.889s] -- Up-to-date: /home/dom/Cerberus/install/messages/include/messages
[0.889s] -- Up-to-date: /home/dom/Cerberus/install/messages/include/messages/msg
[0.889s] -- Up-to-date: /home/dom/Cerberus/install/messages/include/messages/msg/dds_opensplice
[0.889s] -- Up-to-date: /home/dom/Cerberus/install/messages/include/messages/msg/dds_opensplice/Img_Dcps_impl.h
[0.890s] -- Up-to-date: /home/dom/Cerberus/install/messages/include/messages/msg/dds_opensplice/Img_.h
[0.890s] -- Up-to-date: /home/dom/Cerberus/install/messages/include/messages/msg/dds_opensplice/Img_Dcps.h
[0.890s] -- Up-to-date: /home/dom/Cerberus/install/messages/include/messages/msg/dds_opensplice/Img_SplDcps.h
[0.890s] -- Up-to-date: /home/dom/Cerberus/install/messages/include/messages/msg/dds_opensplice/ccpp_Img_.h
[0.890s] -- Up-to-date: /home/dom/Cerberus/install/messages/include/messages/msg/img__rosidl_typesupport_opensplice_cpp.hpp
[0.890s] -- Up-to-date: /home/dom/Cerberus/install/messages/include/messages/msg/rosidl_typesupport_opensplice_cpp__visibility_control.h
[0.890s] -- Up-to-date: /home/dom/Cerberus/install/messages/lib/libmessages__rosidl_typesupport_opensplice_cpp.so
[0.891s] -- Up-to-date: /home/dom/Cerberus/install/messages/include/messages
[0.891s] -- Up-to-date: /home/dom/Cerberus/install/messages/include/messages/msg
[0.891s] -- Up-to-date: /home/dom/Cerberus/install/messages/include/messages/msg/img__type_support.cpp
[0.891s] -- Up-to-date: /home/dom/Cerberus/install/messages/include/messages/msg/img__rosidl_typesupport_introspection_cpp.hpp
[0.891s] -- Up-to-date: /home/dom/Cerberus/install/messages/lib/libmessages__rosidl_typesupport_introspection_cpp.so
[0.891s] -- Up-to-date: /home/dom/Cerberus/install/messages/share/messages/environment/pythonpath.sh
[0.891s] -- Up-to-date: /home/dom/Cerberus/install/messages/lib/python3.6/site-packages/messages/__init__.py
[0.924s] -- Up-to-date: /home/dom/Cerberus/install/messages/lib/python3.6/site-packages/messages/msg
[0.924s] -- Up-to-date: /home/dom/Cerberus/install/messages/lib/python3.6/site-packages/messages/msg/_img_s.c
[0.924s] -- Up-to-date: /home/dom/Cerberus/install/messages/lib/python3.6/site-packages/messages/msg/_img.py
[0.924s] -- Up-to-date: /home/dom/Cerberus/install/messages/lib/python3.6/site-packages/messages/msg/__init__.py
[0.924s] -- Up-to-date: /home/dom/Cerberus/install/messages/lib/python3.6/site-packages/messages/messages_s__rosidl_typesupport_c.cpython-36m-x86_64-linux-gnu.so
[0.925s] -- Up-to-date: /home/dom/Cerberus/install/messages/lib/python3.6/site-packages/messages/messages_s__rosidl_typesupport_fastrtps_c.cpython-36m-x86_64-linux-gnu.so
[0.925s] -- Up-to-date: /home/dom/Cerberus/install/messages/lib/python3.6/site-packages/messages/messages_s__rosidl_typesupport_opensplice_c.cpython-36m-x86_64-linux-gnu.so
[0.926s] -- Up-to-date: /home/dom/Cerberus/install/messages/lib/libmessages__python.so
[0.926s] -- Up-to-date: /home/dom/Cerberus/install/messages/share/messages/msg/Img.idl
[0.926s] -- Up-to-date: /home/dom/Cerberus/install/messages/share/messages/msg/Img.msg
[0.926s] -- Up-to-date: /home/dom/Cerberus/install/messages/share/ament_index/resource_index/package_run_dependencies/messages
[0.926s] -- Up-to-date: /home/dom/Cerberus/install/messages/share/ament_index/resource_index/parent_prefix_path/messages
[0.926s] -- Up-to-date: /home/dom/Cerberus/install/messages/share/messages/environment/ament_prefix_path.sh
[0.926s] -- Up-to-date: /home/dom/Cerberus/install/messages/share/messages/environment/path.sh
[0.927s] -- Up-to-date: /home/dom/Cerberus/install/messages/share/messages/local_setup.bash
[0.927s] -- Up-to-date: /home/dom/Cerberus/install/messages/share/messages/local_setup.sh
[0.927s] -- Up-to-date: /home/dom/Cerberus/install/messages/share/messages/local_setup.zsh
[0.927s] -- Up-to-date: /home/dom/Cerberus/install/messages/share/ament_index/resource_index/packages/messages
[0.927s] -- Up-to-date: /home/dom/Cerberus/install/messages/share/messages/cmake/rosidl_cmake-extras.cmake
[0.927s] -- Up-to-date: /home/dom/Cerberus/install/messages/share/messages/cmake/ament_cmake_export_libraries-extras.cmake
[0.927s] -- Up-to-date: /home/dom/Cerberus/install/messages/share/messages/cmake/ament_cmake_export_include_directories-extras.cmake
[0.927s] -- Up-to-date: /home/dom/Cerberus/install/messages/share/messages/cmake/rosidl_cmake_export_typesupport_libraries-extras.cmake
[0.927s] -- Up-to-date: /home/dom/Cerberus/install/messages/share/messages/cmake/messagesConfig.cmake
[0.927s] -- Up-to-date: /home/dom/Cerberus/install/messages/share/messages/cmake/messagesConfig-version.cmake
[0.928s] -- Up-to-date: /home/dom/Cerberus/install/messages/share/messages/package.xml
