[0.531s] running egg_info
[0.532s] writing /home/dom/Cerberus/build/camera/camera.egg-info/PKG-INFO
[0.533s] writing dependency_links to /home/dom/Cerberus/build/camera/camera.egg-info/dependency_links.txt
[0.533s] writing entry points to /home/dom/Cerberus/build/camera/camera.egg-info/entry_points.txt
[0.533s] writing requirements to /home/dom/Cerberus/build/camera/camera.egg-info/requires.txt
[0.533s] writing top-level names to /home/dom/Cerberus/build/camera/camera.egg-info/top_level.txt
[0.558s] reading manifest file '/home/dom/Cerberus/build/camera/camera.egg-info/SOURCES.txt'
[0.559s] writing manifest file '/home/dom/Cerberus/build/camera/camera.egg-info/SOURCES.txt'
[0.559s] running build
[0.559s] running build_py
[0.559s] copying camera/detector.py -> /home/dom/Cerberus/build/camera/build/lib/camera
[0.559s] running install
[0.560s] running install_lib
[0.560s] copying /home/dom/Cerberus/build/camera/build/lib/camera/detector.py -> /home/dom/Cerberus/install/camera/lib/python3.6/site-packages/camera
[0.561s] byte-compiling /home/dom/Cerberus/install/camera/lib/python3.6/site-packages/camera/detector.py to detector.cpython-36.pyc
[0.562s] running install_data
[0.562s] running install_egg_info
[0.563s] removing '/home/dom/Cerberus/install/camera/lib/python3.6/site-packages/camera-0.0.0-py3.6.egg-info' (and everything under it)
[0.564s] Copying /home/dom/Cerberus/build/camera/camera.egg-info to /home/dom/Cerberus/install/camera/lib/python3.6/site-packages/camera-0.0.0-py3.6.egg-info
[0.564s] running install_scripts
[0.577s] Installing detector script to /home/dom/Cerberus/install/camera/lib/camera
[0.577s] Installing util script to /home/dom/Cerberus/install/camera/lib/camera
[0.578s] writing list of installed files to '/home/dom/Cerberus/build/camera/install.log'
