[0.255s] Invoking command in '/home/dom/Cerberus/build/tutorial_interfaces': CMAKE_PREFIX_PATH=${CMAKE_PREFIX_PATH}:/home/dom/Cerberus/install/camera:/opt/ros/dashing /usr/bin/cmake --build /home/dom/Cerberus/build/tutorial_interfaces -- -j12 -l12
[0.621s] Invoked command in '/home/dom/Cerberus/build/tutorial_interfaces' returned '0': CMAKE_PREFIX_PATH=${CMAKE_PREFIX_PATH}:/home/dom/Cerberus/install/camera:/opt/ros/dashing /usr/bin/cmake --build /home/dom/Cerberus/build/tutorial_interfaces -- -j12 -l12
[0.715s] Invoking command in '/home/dom/Cerberus/build/tutorial_interfaces': CMAKE_PREFIX_PATH=${CMAKE_PREFIX_PATH}:/home/dom/Cerberus/install/camera:/opt/ros/dashing /usr/bin/cmake --build /home/dom/Cerberus/build/tutorial_interfaces --target install -- -j12 -l12
[1.435s] Invoked command in '/home/dom/Cerberus/build/tutorial_interfaces' returned '0': CMAKE_PREFIX_PATH=${CMAKE_PREFIX_PATH}:/home/dom/Cerberus/install/camera:/opt/ros/dashing /usr/bin/cmake --build /home/dom/Cerberus/build/tutorial_interfaces --target install -- -j12 -l12
