[0.345s] [  3%] Built target messages__dds_opensplice_idl
[0.345s] [  3%] Built target messages__cpp
[0.345s] [  4%] Built target messages__dds_connext_idl
[0.351s] [  9%] Built target messages__rosidl_generator_c
[0.390s] [ 13%] Built target messages__rosidl_typesupport_cpp
[0.395s] [ 18%] Built target messages__rosidl_typesupport_c
[0.405s] [ 23%] Built target messages__rosidl_typesupport_introspection_cpp
[0.412s] [ 32%] Built target messages__rosidl_typesupport_introspection_c
[0.412s] [ 32%] Built target messages__rosidl_typesupport_fastrtps_cpp
[0.418s] [ 43%] Built target messages__rosidl_typesupport_connext_cpp
[0.424s] [ 55%] Built target messages__rosidl_typesupport_opensplice_cpp
[0.458s] [ 60%] Built target messages__rosidl_typesupport_fastrtps_c
[0.470s] [ 73%] Built target messages__rosidl_typesupport_opensplice_c
[0.475s] [ 86%] Built target messages__rosidl_typesupport_connext_c
[0.502s] [ 86%] Built target messages
[0.528s] [ 87%] Built target messages__py
[0.557s] [ 90%] Built target messages__python
[0.596s] [ 93%] Built target messages__rosidl_typesupport_c__pyext
[0.598s] [ 96%] Built target messages__rosidl_typesupport_opensplice_c__pyext
[0.604s] [100%] Built target messages__rosidl_typesupport_fastrtps_c__pyext
[0.805s] [  4%] Built target messages__rosidl_generator_c
[0.806s] [  6%] Built target messages__cpp
[0.807s] [  7%] Built target messages__dds_connext_idl
[0.814s] [  9%] Built target messages__dds_opensplice_idl
[0.854s] [ 13%] Built target messages__rosidl_typesupport_c
[0.861s] [ 18%] Built target messages__rosidl_typesupport_cpp
[0.861s] [ 23%] Built target messages__rosidl_typesupport_introspection_c
[0.870s] [ 32%] Built target messages__rosidl_typesupport_fastrtps_cpp
[0.870s] [ 32%] Built target messages__rosidl_typesupport_introspection_cpp
[0.885s] [ 43%] Built target messages__rosidl_typesupport_connext_cpp
[0.894s] [ 55%] Built target messages__rosidl_typesupport_opensplice_cpp
[0.915s] [ 60%] Built target messages__rosidl_typesupport_fastrtps_c
[0.942s] [ 72%] Built target messages__rosidl_typesupport_connext_c
[0.949s] [ 86%] Built target messages__rosidl_typesupport_opensplice_c
[0.973s] [ 86%] Built target messages
[0.995s] [ 87%] Built target messages__py
[1.023s] [ 90%] Built target messages__python
[1.058s] [ 93%] Built target messages__rosidl_typesupport_opensplice_c__pyext
[1.060s] [ 96%] Built target messages__rosidl_typesupport_c__pyext
[1.066s] [100%] Built target messages__rosidl_typesupport_fastrtps_c__pyext
[1.093s] [36mInstall the project...[0m
[1.103s] -- Install configuration: ""
[1.104s] -- Up-to-date: /home/dom/Cerberus/install/messages/share/ament_index/resource_index/rosidl_interfaces/messages
[1.104s] -- Up-to-date: /home/dom/Cerberus/install/messages/lib/libmessages__rosidl_typesupport_c.so
[1.104s] -- Up-to-date: /home/dom/Cerberus/install/messages/share/messages/environment/library_path.sh
[1.104s] -- Up-to-date: /home/dom/Cerberus/install/messages/lib/libmessages__rosidl_typesupport_cpp.so
[1.104s] -- Up-to-date: /home/dom/Cerberus/install/messages/include/messages
[1.104s] -- Up-to-date: /home/dom/Cerberus/install/messages/include/messages/msg
[1.105s] -- Up-to-date: /home/dom/Cerberus/install/messages/include/messages/msg/dds_connext
[1.105s] -- Up-to-date: /home/dom/Cerberus/install/messages/include/messages/msg/rosidl_typesupport_connext_c__visibility_control.h
[1.105s] -- Up-to-date: /home/dom/Cerberus/install/messages/include/messages/msg/img__rosidl_typesupport_connext_c.h
[1.105s] -- Up-to-date: /home/dom/Cerberus/install/messages/lib/libmessages__rosidl_typesupport_connext_c.so
[1.105s] -- Up-to-date: /home/dom/Cerberus/install/messages/include/messages
[1.105s] -- Up-to-date: /home/dom/Cerberus/install/messages/include/messages/msg
[1.106s] -- Up-to-date: /home/dom/Cerberus/install/messages/include/messages/msg/img__functions.h
[1.106s] -- Up-to-date: /home/dom/Cerberus/install/messages/include/messages/msg/rosidl_generator_c__visibility_control.h
[1.106s] -- Up-to-date: /home/dom/Cerberus/install/messages/include/messages/msg/img__struct.h
[1.106s] -- Up-to-date: /home/dom/Cerberus/install/messages/include/messages/msg/img__functions.c
[1.106s] -- Up-to-date: /home/dom/Cerberus/install/messages/include/messages/msg/img__type_support.h
[1.106s] -- Up-to-date: /home/dom/Cerberus/install/messages/include/messages/msg/img.h
[1.106s] -- Up-to-date: /home/dom/Cerberus/install/messages/lib/libmessages__rosidl_generator_c.so
[1.106s] -- Up-to-date: /home/dom/Cerberus/install/messages/share/messages/msg/dds_connext
[1.106s] -- Up-to-date: /home/dom/Cerberus/install/messages/share/messages/msg/dds_connext/Img_.idl
[1.106s] -- Up-to-date: /home/dom/Cerberus/install/messages/include/messages
[1.107s] -- Up-to-date: /home/dom/Cerberus/install/messages/include/messages/msg
[1.107s] -- Up-to-date: /home/dom/Cerberus/install/messages/include/messages/msg/dds_connext
[1.107s] -- Up-to-date: /home/dom/Cerberus/install/messages/include/messages/msg/dds_connext/Img_Support.h
[1.107s] -- Up-to-date: /home/dom/Cerberus/install/messages/include/messages/msg/dds_connext/Img_.cxx
[1.107s] -- Up-to-date: /home/dom/Cerberus/install/messages/include/messages/msg/dds_connext/Img_Plugin.cxx
[1.107s] -- Up-to-date: /home/dom/Cerberus/install/messages/include/messages/msg/dds_connext/Img_.h
[1.107s] -- Up-to-date: /home/dom/Cerberus/install/messages/include/messages/msg/dds_connext/Img_Plugin.h
[1.107s] -- Up-to-date: /home/dom/Cerberus/install/messages/include/messages/msg/dds_connext/Img_Support.cxx
[1.107s] -- Up-to-date: /home/dom/Cerberus/install/messages/include/messages/msg/rosidl_typesupport_connext_cpp__visibility_control.h
[1.107s] -- Up-to-date: /home/dom/Cerberus/install/messages/include/messages/msg/img__rosidl_typesupport_connext_cpp.hpp
[1.108s] -- Up-to-date: /home/dom/Cerberus/install/messages/lib/libmessages__rosidl_typesupport_connext_cpp.so
[1.108s] -- Up-to-date: /home/dom/Cerberus/install/messages/include/messages
[1.108s] -- Up-to-date: /home/dom/Cerberus/install/messages/include/messages/msg
[1.108s] -- Up-to-date: /home/dom/Cerberus/install/messages/include/messages/msg/img__traits.hpp
[1.108s] -- Up-to-date: /home/dom/Cerberus/install/messages/include/messages/msg/img.hpp
[1.108s] -- Up-to-date: /home/dom/Cerberus/install/messages/include/messages/msg/img__struct.hpp
[1.108s] -- Up-to-date: /home/dom/Cerberus/install/messages/include/messages
[1.108s] -- Up-to-date: /home/dom/Cerberus/install/messages/include/messages/msg
[1.108s] -- Up-to-date: /home/dom/Cerberus/install/messages/include/messages/msg/rosidl_typesupport_fastrtps_c__visibility_control.h
[1.108s] -- Up-to-date: /home/dom/Cerberus/install/messages/include/messages/msg/img__rosidl_typesupport_fastrtps_c.h
[1.108s] -- Up-to-date: /home/dom/Cerberus/install/messages/lib/libmessages__rosidl_typesupport_fastrtps_c.so
[1.109s] -- Up-to-date: /home/dom/Cerberus/install/messages/include/messages
[1.109s] -- Up-to-date: /home/dom/Cerberus/install/messages/include/messages/msg
[1.109s] -- Up-to-date: /home/dom/Cerberus/install/messages/include/messages/msg/dds_fastrtps
[1.109s] -- Up-to-date: /home/dom/Cerberus/install/messages/include/messages/msg/rosidl_typesupport_fastrtps_cpp__visibility_control.h
[1.109s] -- Up-to-date: /home/dom/Cerberus/install/messages/include/messages/msg/img__rosidl_typesupport_fastrtps_cpp.hpp
[1.109s] -- Up-to-date: /home/dom/Cerberus/install/messages/lib/libmessages__rosidl_typesupport_fastrtps_cpp.so
[1.109s] -- Up-to-date: /home/dom/Cerberus/install/messages/include/messages
[1.109s] -- Up-to-date: /home/dom/Cerberus/install/messages/include/messages/msg
[1.109s] -- Up-to-date: /home/dom/Cerberus/install/messages/include/messages/msg/img__type_support.c
[1.109s] -- Up-to-date: /home/dom/Cerberus/install/messages/include/messages/msg/img__rosidl_typesupport_introspection_c.h
[1.110s] -- Up-to-date: /home/dom/Cerberus/install/messages/include/messages/msg/rosidl_typesupport_introspection_c__visibility_control.h
[1.110s] -- Up-to-date: /home/dom/Cerberus/install/messages/lib/libmessages__rosidl_typesupport_introspection_c.so
[1.110s] -- Up-to-date: /home/dom/Cerberus/install/messages/include/messages
[1.110s] -- Up-to-date: /home/dom/Cerberus/install/messages/include/messages/msg
[1.110s] -- Up-to-date: /home/dom/Cerberus/install/messages/include/messages/msg/rosidl_typesupport_opensplice_c__visibility_control.h
[1.110s] -- Up-to-date: /home/dom/Cerberus/install/messages/include/messages/msg/dds_opensplice_c
[1.110s] -- Up-to-date: /home/dom/Cerberus/install/messages/include/messages/msg/img__rosidl_typesupport_opensplice_c.h
[1.110s] -- Up-to-date: /home/dom/Cerberus/install/messages/lib/libmessages__rosidl_typesupport_opensplice_c.so
[1.110s] -- Up-to-date: /home/dom/Cerberus/install/messages/share/messages/msg/dds_opensplice
[1.111s] -- Up-to-date: /home/dom/Cerberus/install/messages/share/messages/msg/dds_opensplice/Img_.idl
[1.111s] -- Up-to-date: /home/dom/Cerberus/install/messages/include/messages
[1.111s] -- Up-to-date: /home/dom/Cerberus/install/messages/include/messages/msg
[1.111s] -- Up-to-date: /home/dom/Cerberus/install/messages/include/messages/msg/dds_opensplice
[1.111s] -- Up-to-date: /home/dom/Cerberus/install/messages/include/messages/msg/dds_opensplice/Img_Dcps_impl.h
[1.111s] -- Up-to-date: /home/dom/Cerberus/install/messages/include/messages/msg/dds_opensplice/Img_.h
[1.111s] -- Up-to-date: /home/dom/Cerberus/install/messages/include/messages/msg/dds_opensplice/Img_Dcps.h
[1.111s] -- Up-to-date: /home/dom/Cerberus/install/messages/include/messages/msg/dds_opensplice/Img_SplDcps.h
[1.112s] -- Up-to-date: /home/dom/Cerberus/install/messages/include/messages/msg/dds_opensplice/ccpp_Img_.h
[1.112s] -- Up-to-date: /home/dom/Cerberus/install/messages/include/messages/msg/img__rosidl_typesupport_opensplice_cpp.hpp
[1.112s] -- Up-to-date: /home/dom/Cerberus/install/messages/include/messages/msg/rosidl_typesupport_opensplice_cpp__visibility_control.h
[1.112s] -- Up-to-date: /home/dom/Cerberus/install/messages/lib/libmessages__rosidl_typesupport_opensplice_cpp.so
[1.112s] -- Up-to-date: /home/dom/Cerberus/install/messages/include/messages
[1.112s] -- Up-to-date: /home/dom/Cerberus/install/messages/include/messages/msg
[1.112s] -- Up-to-date: /home/dom/Cerberus/install/messages/include/messages/msg/img__type_support.cpp
[1.112s] -- Up-to-date: /home/dom/Cerberus/install/messages/include/messages/msg/img__rosidl_typesupport_introspection_cpp.hpp
[1.113s] -- Up-to-date: /home/dom/Cerberus/install/messages/lib/libmessages__rosidl_typesupport_introspection_cpp.so
[1.113s] -- Up-to-date: /home/dom/Cerberus/install/messages/share/messages/environment/pythonpath.sh
[1.113s] -- Up-to-date: /home/dom/Cerberus/install/messages/lib/python3.6/site-packages/messages/__init__.py
[1.155s] -- Up-to-date: /home/dom/Cerberus/install/messages/lib/python3.6/site-packages/messages/msg
[1.156s] -- Up-to-date: /home/dom/Cerberus/install/messages/lib/python3.6/site-packages/messages/msg/_img_s.c
[1.156s] -- Up-to-date: /home/dom/Cerberus/install/messages/lib/python3.6/site-packages/messages/msg/_img.py
[1.156s] -- Up-to-date: /home/dom/Cerberus/install/messages/lib/python3.6/site-packages/messages/msg/__init__.py
[1.156s] -- Up-to-date: /home/dom/Cerberus/install/messages/lib/python3.6/site-packages/messages/messages_s__rosidl_typesupport_c.cpython-36m-x86_64-linux-gnu.so
[1.157s] -- Up-to-date: /home/dom/Cerberus/install/messages/lib/python3.6/site-packages/messages/messages_s__rosidl_typesupport_fastrtps_c.cpython-36m-x86_64-linux-gnu.so
[1.157s] -- Up-to-date: /home/dom/Cerberus/install/messages/lib/python3.6/site-packages/messages/messages_s__rosidl_typesupport_opensplice_c.cpython-36m-x86_64-linux-gnu.so
[1.158s] -- Up-to-date: /home/dom/Cerberus/install/messages/lib/libmessages__python.so
[1.158s] -- Up-to-date: /home/dom/Cerberus/install/messages/share/messages/msg/Img.idl
[1.159s] -- Up-to-date: /home/dom/Cerberus/install/messages/share/messages/msg/Img.msg
[1.159s] -- Up-to-date: /home/dom/Cerberus/install/messages/share/ament_index/resource_index/package_run_dependencies/messages
[1.159s] -- Up-to-date: /home/dom/Cerberus/install/messages/share/ament_index/resource_index/parent_prefix_path/messages
[1.159s] -- Up-to-date: /home/dom/Cerberus/install/messages/share/messages/environment/ament_prefix_path.sh
[1.159s] -- Up-to-date: /home/dom/Cerberus/install/messages/share/messages/environment/path.sh
[1.160s] -- Up-to-date: /home/dom/Cerberus/install/messages/share/messages/local_setup.bash
[1.160s] -- Up-to-date: /home/dom/Cerberus/install/messages/share/messages/local_setup.sh
[1.160s] -- Up-to-date: /home/dom/Cerberus/install/messages/share/messages/local_setup.zsh
[1.160s] -- Up-to-date: /home/dom/Cerberus/install/messages/share/ament_index/resource_index/packages/messages
[1.160s] -- Up-to-date: /home/dom/Cerberus/install/messages/share/messages/cmake/rosidl_cmake-extras.cmake
[1.160s] -- Up-to-date: /home/dom/Cerberus/install/messages/share/messages/cmake/ament_cmake_export_libraries-extras.cmake
[1.160s] -- Up-to-date: /home/dom/Cerberus/install/messages/share/messages/cmake/ament_cmake_export_include_directories-extras.cmake
[1.160s] -- Up-to-date: /home/dom/Cerberus/install/messages/share/messages/cmake/rosidl_cmake_export_typesupport_libraries-extras.cmake
[1.160s] -- Up-to-date: /home/dom/Cerberus/install/messages/share/messages/cmake/messagesConfig.cmake
[1.160s] -- Up-to-date: /home/dom/Cerberus/install/messages/share/messages/cmake/messagesConfig-version.cmake
[1.160s] -- Up-to-date: /home/dom/Cerberus/install/messages/share/messages/package.xml
