[0.242s] Invoking command in '/home/dom/Cerberus/build/messages': CMAKE_PREFIX_PATH=${CMAKE_PREFIX_PATH}:/home/dom/Cerberus/install/camera:/opt/ros/dashing CONDA_PROMPT_MODIFIER=(base) /usr/bin/cmake --build /home/dom/Cerberus/build/messages -- -j12 -l12
[0.292s] [  1%] Built target messages__dds_opensplice_idl
[0.298s] [  6%] Built target messages__rosidl_generator_c
[0.300s] [  9%] Built target messages__dds_connext_idl
[0.300s] [  9%] Built target messages__cpp
[0.338s] [ 13%] Built target messages__rosidl_typesupport_introspection_c
[0.339s] [ 18%] Built target messages__rosidl_typesupport_introspection_cpp
[0.343s] [ 23%] Built target messages__rosidl_typesupport_c
[0.347s] [ 27%] Built target messages__rosidl_typesupport_cpp
[0.355s] [ 32%] Built target messages__rosidl_typesupport_fastrtps_cpp
[0.366s] [ 44%] Built target messages__rosidl_typesupport_opensplice_cpp
[0.387s] [ 55%] Built target messages__rosidl_typesupport_connext_cpp
[0.389s] [ 60%] Built target messages__rosidl_typesupport_fastrtps_c
[0.410s] [ 73%] Built target messages__rosidl_typesupport_opensplice_c
[0.431s] [ 86%] Built target messages__rosidl_typesupport_connext_c
[0.450s] [ 86%] Built target messages
[0.468s] [ 87%] Built target messages__py
[0.499s] [ 90%] Built target messages__python
[0.530s] [ 93%] Built target messages__rosidl_typesupport_c__pyext
[0.537s] [ 96%] Built target messages__rosidl_typesupport_fastrtps_c__pyext
[0.538s] [100%] Built target messages__rosidl_typesupport_opensplice_c__pyext
[0.550s] Invoked command in '/home/dom/Cerberus/build/messages' returned '0': CMAKE_PREFIX_PATH=${CMAKE_PREFIX_PATH}:/home/dom/Cerberus/install/camera:/opt/ros/dashing CONDA_PROMPT_MODIFIER=(base) /usr/bin/cmake --build /home/dom/Cerberus/build/messages -- -j12 -l12
[0.631s] Invoking command in '/home/dom/Cerberus/build/messages': CMAKE_PREFIX_PATH=${CMAKE_PREFIX_PATH}:/home/dom/Cerberus/install/camera:/opt/ros/dashing CONDA_PROMPT_MODIFIER=(base) /usr/bin/cmake --build /home/dom/Cerberus/build/messages --target install -- -j12 -l12
[0.689s] [  4%] Built target messages__rosidl_generator_c
[0.690s] [  6%] Built target messages__dds_opensplice_idl
[0.690s] [  7%] Built target messages__dds_connext_idl
[0.692s] [  9%] Built target messages__cpp
[0.731s] [ 13%] Built target messages__rosidl_typesupport_introspection_c
[0.735s] [ 18%] Built target messages__rosidl_typesupport_c
[0.742s] [ 23%] Built target messages__rosidl_typesupport_introspection_cpp
[0.743s] [ 27%] Built target messages__rosidl_typesupport_fastrtps_cpp
[0.745s] [ 32%] Built target messages__rosidl_typesupport_cpp
[0.760s] [ 44%] Built target messages__rosidl_typesupport_opensplice_cpp
[0.760s] [ 55%] Built target messages__rosidl_typesupport_connext_cpp
[0.775s] [ 60%] Built target messages__rosidl_typesupport_fastrtps_c
[0.797s] [ 73%] Built target messages__rosidl_typesupport_opensplice_c
[0.802s] [ 86%] Built target messages__rosidl_typesupport_connext_c
[0.820s] [ 86%] Built target messages
[0.843s] [ 87%] Built target messages__py
[0.866s] [ 90%] Built target messages__python
[0.895s] [ 93%] Built target messages__rosidl_typesupport_c__pyext
[0.896s] [ 96%] Built target messages__rosidl_typesupport_fastrtps_c__pyext
[0.896s] [100%] Built target messages__rosidl_typesupport_opensplice_c__pyext
[0.914s] [36mInstall the project...[0m
[0.922s] -- Install configuration: ""
[0.922s] -- Up-to-date: /home/dom/Cerberus/install/messages/share/ament_index/resource_index/rosidl_interfaces/messages
[0.922s] -- Up-to-date: /home/dom/Cerberus/install/messages/lib/libmessages__rosidl_typesupport_c.so
[0.922s] -- Up-to-date: /home/dom/Cerberus/install/messages/share/messages/environment/library_path.sh
[0.922s] -- Up-to-date: /home/dom/Cerberus/install/messages/lib/libmessages__rosidl_typesupport_cpp.so
[0.923s] -- Up-to-date: /home/dom/Cerberus/install/messages/include/messages
[0.923s] -- Up-to-date: /home/dom/Cerberus/install/messages/include/messages/msg
[0.923s] -- Up-to-date: /home/dom/Cerberus/install/messages/include/messages/msg/dds_connext
[0.923s] -- Up-to-date: /home/dom/Cerberus/install/messages/include/messages/msg/rosidl_typesupport_connext_c__visibility_control.h
[0.923s] -- Up-to-date: /home/dom/Cerberus/install/messages/include/messages/msg/img__rosidl_typesupport_connext_c.h
[0.923s] -- Up-to-date: /home/dom/Cerberus/install/messages/lib/libmessages__rosidl_typesupport_connext_c.so
[0.923s] -- Up-to-date: /home/dom/Cerberus/install/messages/include/messages
[0.923s] -- Up-to-date: /home/dom/Cerberus/install/messages/include/messages/msg
[0.923s] -- Up-to-date: /home/dom/Cerberus/install/messages/include/messages/msg/img__functions.h
[0.923s] -- Up-to-date: /home/dom/Cerberus/install/messages/include/messages/msg/rosidl_generator_c__visibility_control.h
[0.923s] -- Up-to-date: /home/dom/Cerberus/install/messages/include/messages/msg/img__struct.h
[0.923s] -- Up-to-date: /home/dom/Cerberus/install/messages/include/messages/msg/img__functions.c
[0.924s] -- Up-to-date: /home/dom/Cerberus/install/messages/include/messages/msg/img__type_support.h
[0.924s] -- Up-to-date: /home/dom/Cerberus/install/messages/include/messages/msg/img.h
[0.924s] -- Up-to-date: /home/dom/Cerberus/install/messages/lib/libmessages__rosidl_generator_c.so
[0.924s] -- Up-to-date: /home/dom/Cerberus/install/messages/share/messages/msg/dds_connext
[0.924s] -- Up-to-date: /home/dom/Cerberus/install/messages/share/messages/msg/dds_connext/Img_.idl
[0.924s] -- Up-to-date: /home/dom/Cerberus/install/messages/include/messages
[0.924s] -- Up-to-date: /home/dom/Cerberus/install/messages/include/messages/msg
[0.924s] -- Up-to-date: /home/dom/Cerberus/install/messages/include/messages/msg/dds_connext
[0.924s] -- Up-to-date: /home/dom/Cerberus/install/messages/include/messages/msg/dds_connext/Img_Support.h
[0.924s] -- Up-to-date: /home/dom/Cerberus/install/messages/include/messages/msg/dds_connext/Img_.cxx
[0.925s] -- Up-to-date: /home/dom/Cerberus/install/messages/include/messages/msg/dds_connext/Img_Plugin.cxx
[0.925s] -- Up-to-date: /home/dom/Cerberus/install/messages/include/messages/msg/dds_connext/Img_.h
[0.925s] -- Up-to-date: /home/dom/Cerberus/install/messages/include/messages/msg/dds_connext/Img_Plugin.h
[0.925s] -- Up-to-date: /home/dom/Cerberus/install/messages/include/messages/msg/dds_connext/Img_Support.cxx
[0.925s] -- Up-to-date: /home/dom/Cerberus/install/messages/include/messages/msg/rosidl_typesupport_connext_cpp__visibility_control.h
[0.925s] -- Up-to-date: /home/dom/Cerberus/install/messages/include/messages/msg/img__rosidl_typesupport_connext_cpp.hpp
[0.925s] -- Up-to-date: /home/dom/Cerberus/install/messages/lib/libmessages__rosidl_typesupport_connext_cpp.so
[0.925s] -- Up-to-date: /home/dom/Cerberus/install/messages/include/messages
[0.925s] -- Up-to-date: /home/dom/Cerberus/install/messages/include/messages/msg
[0.925s] -- Up-to-date: /home/dom/Cerberus/install/messages/include/messages/msg/img__traits.hpp
[0.925s] -- Up-to-date: /home/dom/Cerberus/install/messages/include/messages/msg/img.hpp
[0.925s] -- Up-to-date: /home/dom/Cerberus/install/messages/include/messages/msg/img__struct.hpp
[0.925s] -- Up-to-date: /home/dom/Cerberus/install/messages/include/messages
[0.926s] -- Up-to-date: /home/dom/Cerberus/install/messages/include/messages/msg
[0.926s] -- Up-to-date: /home/dom/Cerberus/install/messages/include/messages/msg/rosidl_typesupport_fastrtps_c__visibility_control.h
[0.926s] -- Up-to-date: /home/dom/Cerberus/install/messages/include/messages/msg/img__rosidl_typesupport_fastrtps_c.h
[0.926s] -- Up-to-date: /home/dom/Cerberus/install/messages/lib/libmessages__rosidl_typesupport_fastrtps_c.so
[0.926s] -- Up-to-date: /home/dom/Cerberus/install/messages/include/messages
[0.926s] -- Up-to-date: /home/dom/Cerberus/install/messages/include/messages/msg
[0.926s] -- Up-to-date: /home/dom/Cerberus/install/messages/include/messages/msg/dds_fastrtps
[0.926s] -- Up-to-date: /home/dom/Cerberus/install/messages/include/messages/msg/rosidl_typesupport_fastrtps_cpp__visibility_control.h
[0.926s] -- Up-to-date: /home/dom/Cerberus/install/messages/include/messages/msg/img__rosidl_typesupport_fastrtps_cpp.hpp
[0.926s] -- Up-to-date: /home/dom/Cerberus/install/messages/lib/libmessages__rosidl_typesupport_fastrtps_cpp.so
[0.926s] -- Up-to-date: /home/dom/Cerberus/install/messages/include/messages
[0.926s] -- Up-to-date: /home/dom/Cerberus/install/messages/include/messages/msg
[0.926s] -- Up-to-date: /home/dom/Cerberus/install/messages/include/messages/msg/img__type_support.c
[0.926s] -- Up-to-date: /home/dom/Cerberus/install/messages/include/messages/msg/img__rosidl_typesupport_introspection_c.h
[0.926s] -- Up-to-date: /home/dom/Cerberus/install/messages/include/messages/msg/rosidl_typesupport_introspection_c__visibility_control.h
[0.927s] -- Up-to-date: /home/dom/Cerberus/install/messages/lib/libmessages__rosidl_typesupport_introspection_c.so
[0.927s] -- Up-to-date: /home/dom/Cerberus/install/messages/include/messages
[0.927s] -- Up-to-date: /home/dom/Cerberus/install/messages/include/messages/msg
[0.927s] -- Up-to-date: /home/dom/Cerberus/install/messages/include/messages/msg/rosidl_typesupport_opensplice_c__visibility_control.h
[0.927s] -- Up-to-date: /home/dom/Cerberus/install/messages/include/messages/msg/dds_opensplice_c
[0.927s] -- Up-to-date: /home/dom/Cerberus/install/messages/include/messages/msg/img__rosidl_typesupport_opensplice_c.h
[0.927s] -- Up-to-date: /home/dom/Cerberus/install/messages/lib/libmessages__rosidl_typesupport_opensplice_c.so
[0.927s] -- Up-to-date: /home/dom/Cerberus/install/messages/share/messages/msg/dds_opensplice
[0.927s] -- Up-to-date: /home/dom/Cerberus/install/messages/share/messages/msg/dds_opensplice/Img_.idl
[0.927s] -- Up-to-date: /home/dom/Cerberus/install/messages/include/messages
[0.927s] -- Up-to-date: /home/dom/Cerberus/install/messages/include/messages/msg
[0.927s] -- Up-to-date: /home/dom/Cerberus/install/messages/include/messages/msg/dds_opensplice
[0.927s] -- Up-to-date: /home/dom/Cerberus/install/messages/include/messages/msg/dds_opensplice/Img_Dcps_impl.h
[0.927s] -- Up-to-date: /home/dom/Cerberus/install/messages/include/messages/msg/dds_opensplice/Img_.h
[0.928s] -- Up-to-date: /home/dom/Cerberus/install/messages/include/messages/msg/dds_opensplice/Img_Dcps.h
[0.928s] -- Up-to-date: /home/dom/Cerberus/install/messages/include/messages/msg/dds_opensplice/Img_SplDcps.h
[0.928s] -- Up-to-date: /home/dom/Cerberus/install/messages/include/messages/msg/dds_opensplice/ccpp_Img_.h
[0.928s] -- Up-to-date: /home/dom/Cerberus/install/messages/include/messages/msg/img__rosidl_typesupport_opensplice_cpp.hpp
[0.928s] -- Up-to-date: /home/dom/Cerberus/install/messages/include/messages/msg/rosidl_typesupport_opensplice_cpp__visibility_control.h
[0.928s] -- Up-to-date: /home/dom/Cerberus/install/messages/lib/libmessages__rosidl_typesupport_opensplice_cpp.so
[0.928s] -- Up-to-date: /home/dom/Cerberus/install/messages/include/messages
[0.928s] -- Up-to-date: /home/dom/Cerberus/install/messages/include/messages/msg
[0.928s] -- Up-to-date: /home/dom/Cerberus/install/messages/include/messages/msg/img__type_support.cpp
[0.928s] -- Up-to-date: /home/dom/Cerberus/install/messages/include/messages/msg/img__rosidl_typesupport_introspection_cpp.hpp
[0.928s] -- Up-to-date: /home/dom/Cerberus/install/messages/lib/libmessages__rosidl_typesupport_introspection_cpp.so
[0.928s] -- Up-to-date: /home/dom/Cerberus/install/messages/share/messages/environment/pythonpath.sh
[0.928s] -- Up-to-date: /home/dom/Cerberus/install/messages/lib/python3.6/site-packages/messages/__init__.py
[0.959s] -- Up-to-date: /home/dom/Cerberus/install/messages/lib/python3.6/site-packages/messages/msg
[0.960s] -- Up-to-date: /home/dom/Cerberus/install/messages/lib/python3.6/site-packages/messages/msg/_img_s.c
[0.960s] -- Up-to-date: /home/dom/Cerberus/install/messages/lib/python3.6/site-packages/messages/msg/_img.py
[0.960s] -- Up-to-date: /home/dom/Cerberus/install/messages/lib/python3.6/site-packages/messages/msg/__init__.py
[0.960s] -- Up-to-date: /home/dom/Cerberus/install/messages/lib/python3.6/site-packages/messages/messages_s__rosidl_typesupport_c.cpython-36m-x86_64-linux-gnu.so
[0.960s] -- Up-to-date: /home/dom/Cerberus/install/messages/lib/python3.6/site-packages/messages/messages_s__rosidl_typesupport_fastrtps_c.cpython-36m-x86_64-linux-gnu.so
[0.961s] -- Up-to-date: /home/dom/Cerberus/install/messages/lib/python3.6/site-packages/messages/messages_s__rosidl_typesupport_opensplice_c.cpython-36m-x86_64-linux-gnu.so
[0.961s] -- Up-to-date: /home/dom/Cerberus/install/messages/lib/libmessages__python.so
[0.961s] -- Up-to-date: /home/dom/Cerberus/install/messages/share/messages/msg/Img.idl
[0.962s] -- Up-to-date: /home/dom/Cerberus/install/messages/share/messages/msg/Img.msg
[0.962s] -- Up-to-date: /home/dom/Cerberus/install/messages/share/ament_index/resource_index/package_run_dependencies/messages
[0.962s] -- Up-to-date: /home/dom/Cerberus/install/messages/share/ament_index/resource_index/parent_prefix_path/messages
[0.962s] -- Up-to-date: /home/dom/Cerberus/install/messages/share/messages/environment/ament_prefix_path.sh
[0.962s] -- Up-to-date: /home/dom/Cerberus/install/messages/share/messages/environment/path.sh
[0.962s] -- Up-to-date: /home/dom/Cerberus/install/messages/share/messages/local_setup.bash
[0.962s] -- Up-to-date: /home/dom/Cerberus/install/messages/share/messages/local_setup.sh
[0.962s] -- Up-to-date: /home/dom/Cerberus/install/messages/share/messages/local_setup.zsh
[0.962s] -- Up-to-date: /home/dom/Cerberus/install/messages/share/ament_index/resource_index/packages/messages
[0.962s] -- Up-to-date: /home/dom/Cerberus/install/messages/share/messages/cmake/rosidl_cmake-extras.cmake
[0.962s] -- Up-to-date: /home/dom/Cerberus/install/messages/share/messages/cmake/ament_cmake_export_libraries-extras.cmake
[0.963s] -- Up-to-date: /home/dom/Cerberus/install/messages/share/messages/cmake/ament_cmake_export_include_directories-extras.cmake
[0.963s] -- Up-to-date: /home/dom/Cerberus/install/messages/share/messages/cmake/rosidl_cmake_export_typesupport_libraries-extras.cmake
[0.963s] -- Up-to-date: /home/dom/Cerberus/install/messages/share/messages/cmake/messagesConfig.cmake
[0.963s] -- Up-to-date: /home/dom/Cerberus/install/messages/share/messages/cmake/messagesConfig-version.cmake
[0.963s] -- Up-to-date: /home/dom/Cerberus/install/messages/share/messages/package.xml
[0.966s] Invoked command in '/home/dom/Cerberus/build/messages' returned '0': CMAKE_PREFIX_PATH=${CMAKE_PREFIX_PATH}:/home/dom/Cerberus/install/camera:/opt/ros/dashing CONDA_PROMPT_MODIFIER=(base) /usr/bin/cmake --build /home/dom/Cerberus/build/messages --target install -- -j12 -l12
