[0.000000] (-) TimerEvent: {}
[0.000270] (camera) JobQueued: {'identifier': 'camera', 'dependencies': OrderedDict()}
[0.000322] (central) JobQueued: {'identifier': 'central', 'dependencies': OrderedDict()}
[0.000365] (messages) JobQueued: {'identifier': 'messages', 'dependencies': OrderedDict()}
[0.000400] (tutorial_interfaces) JobQueued: {'identifier': 'tutorial_interfaces', 'dependencies': OrderedDict()}
[0.000458] (camera) JobStarted: {'identifier': 'camera'}
[0.011727] (central) JobStarted: {'identifier': 'central'}
[0.014280] (messages) JobStarted: {'identifier': 'messages'}
[0.020294] (tutorial_interfaces) JobStarted: {'identifier': 'tutorial_interfaces'}
[0.098829] (-) TimerEvent: {}
[0.199196] (-) TimerEvent: {}
[0.260244] (central) JobProgress: {'identifier': 'central', 'progress': 'cmake'}
[0.260899] (central) JobProgress: {'identifier': 'central', 'progress': 'build'}
[0.261644] (central) Command: {'cmd': ['/usr/bin/cmake', '--build', '/home/dom/Cerberus/build/central', '--', '-j12', '-l12'], 'cwd': '/home/dom/Cerberus/build/central', 'env': OrderedDict([('VIRTUALENVWRAPPER_WORKON_CD', '1'), ('LESSOPEN', '| /usr/bin/lesspipe %s'), ('CONDA_PROMPT_MODIFIER', '(base)'), ('WORKON_HOME', '/home/dom/.virtualenvs'), ('USER', 'dom'), ('LANGUAGE', 'en_GB:en'), ('TEXTDOMAIN', 'im-config'), ('OSPL_INFOFILE', '<stdout>'), ('XDG_SEAT', 'seat0'), ('SSH_AGENT_PID', '2152'), ('XDG_SESSION_TYPE', 'x11'), ('LD_LIBRARY_PATH', '/home/dom/Cerberus/install/tutorial_interfaces/lib:/home/dom/Cerberus/install/messages/lib:/opt/ros/dashing/opt/yaml_cpp_vendor/lib:/opt/ros/dashing/opt/rviz_ogre_vendor/lib:/usr/lib:/opt/rti.com/rti_connext_dds-5.3.1/lib/x64Linux3gcc5.4.0:/opt/ros/dashing/lib'), ('SHLVL', '1'), ('CONDA_SHLVL', '1'), ('OLDPWD', '/home/dom'), ('OSPL_URI', 'file:///opt/ros/dashing/share/opensplice_cmake_module/config/ros_ospl.xml'), ('QT4_IM_MODULE', 'xim'), ('HOME', '/home/dom'), ('VIRTUALENVWRAPPER_PYTHON', '/usr/bin/python3'), ('DESKTOP_SESSION', 'ubuntu'), ('OSPL_VERBOSITY', '2'), ('NDDSHOME', '/opt/rti.com/rti_connext_dds-5.3.1'), ('GNOME_SHELL_SESSION_MODE', 'ubuntu'), ('GTK_MODULES', 'gail:atk-bridge'), ('ROS_PYTHON_VERSION', '3'), ('DBUS_SESSION_BUS_ADDRESS', 'unix:path=/run/user/1000/bus'), ('OSPL_TMPL_PATH', '/usr/etc/opensplice/idlpp'), ('COLORTERM', 'truecolor'), ('_CE_M', ''), ('COLCON_PREFIX_PATH', '/home/dom/Cerberus/install'), ('IM_CONFIG_PHASE', '2'), ('ROS_DISTRO', 'dashing'), ('LOGNAME', 'dom'), ('GTK_IM_MODULE', 'ibus'), ('DESKTOP_AUTOSTART_ID', '105d257f35f903736159186493893427700000020570007'), ('_', '/usr/bin/colcon'), ('ROS_VERSION', '2'), ('USERNAME', 'dom'), ('XDG_SESSION_ID', '3'), ('TERM', 'xterm-256color'), ('_CE_CONDA', ''), ('OSPL_ERRORFILE', '<stderr>'), ('GNOME_DESKTOP_SESSION_ID', 'this-is-deprecated'), ('WINDOWPATH', '2'), ('PATH', '/opt/rti.com/rti_connext_dds-5.3.1/lib/x64Linux3gcc5.4.0:/opt/rti.com/rti_connext_dds-5.3.1/bin:/opt/ros/dashing/bin:/home/dom/anaconda3/bin:/home/dom/anaconda3/condabin:/home/dom/.local/bin:/usr/local/sbin:/usr/local/bin:/usr/sbin:/usr/bin:/sbin:/bin:/usr/games:/usr/local/games:/snap/bin'), ('SESSION_MANAGER', 'local/dom-NL5E:@/tmp/.ICE-unix/2057,unix/dom-NL5E:/tmp/.ICE-unix/2057'), ('XDG_MENU_PREFIX', 'gnome-'), ('S_COLORS', 'auto'), ('GNOME_TERMINAL_SCREEN', '/org/gnome/Terminal/screen/a8711835_157a_4be7_9cdf_c88917d6cb61'), ('XDG_RUNTIME_DIR', '/run/user/1000'), ('DISPLAY', ':1'), ('LANG', 'en_GB.UTF-8'), ('OSPL_HOME', '/usr'), ('XDG_CURRENT_DESKTOP', 'ubuntu:GNOME'), ('LS_COLORS', 'rs=0:di=01;34:ln=01;36:mh=00:pi=40;33:so=01;35:do=01;35:bd=40;33;01:cd=40;33;01:or=40;31;01:mi=00:su=37;41:sg=30;43:ca=30;41:tw=30;42:ow=34;42:st=37;44:ex=01;32:*.tar=01;31:*.tgz=01;31:*.arc=01;31:*.arj=01;31:*.taz=01;31:*.lha=01;31:*.lz4=01;31:*.lzh=01;31:*.lzma=01;31:*.tlz=01;31:*.txz=01;31:*.tzo=01;31:*.t7z=01;31:*.zip=01;31:*.z=01;31:*.Z=01;31:*.dz=01;31:*.gz=01;31:*.lrz=01;31:*.lz=01;31:*.lzo=01;31:*.xz=01;31:*.zst=01;31:*.tzst=01;31:*.bz2=01;31:*.bz=01;31:*.tbz=01;31:*.tbz2=01;31:*.tz=01;31:*.deb=01;31:*.rpm=01;31:*.jar=01;31:*.war=01;31:*.ear=01;31:*.sar=01;31:*.rar=01;31:*.alz=01;31:*.ace=01;31:*.zoo=01;31:*.cpio=01;31:*.7z=01;31:*.rz=01;31:*.cab=01;31:*.wim=01;31:*.swm=01;31:*.dwm=01;31:*.esd=01;31:*.jpg=01;35:*.jpeg=01;35:*.mjpg=01;35:*.mjpeg=01;35:*.gif=01;35:*.bmp=01;35:*.pbm=01;35:*.pgm=01;35:*.ppm=01;35:*.tga=01;35:*.xbm=01;35:*.xpm=01;35:*.tif=01;35:*.tiff=01;35:*.png=01;35:*.svg=01;35:*.svgz=01;35:*.mng=01;35:*.pcx=01;35:*.mov=01;35:*.mpg=01;35:*.mpeg=01;35:*.m2v=01;35:*.mkv=01;35:*.webm=01;35:*.ogm=01;35:*.mp4=01;35:*.m4v=01;35:*.mp4v=01;35:*.vob=01;35:*.qt=01;35:*.nuv=01;35:*.wmv=01;35:*.asf=01;35:*.rm=01;35:*.rmvb=01;35:*.flc=01;35:*.avi=01;35:*.fli=01;35:*.flv=01;35:*.gl=01;35:*.dl=01;35:*.xcf=01;35:*.xwd=01;35:*.yuv=01;35:*.cgm=01;35:*.emf=01;35:*.ogv=01;35:*.ogx=01;35:*.aac=00;36:*.au=00;36:*.flac=00;36:*.m4a=00;36:*.mid=00;36:*.midi=00;36:*.mka=00;36:*.mp3=00;36:*.mpc=00;36:*.ogg=00;36:*.ra=00;36:*.wav=00;36:*.oga=00;36:*.opus=00;36:*.spx=00;36:*.xspf=00;36:'), ('XDG_SESSION_DESKTOP', 'ubuntu'), ('XMODIFIERS', '@im=ibus'), ('GNOME_TERMINAL_SERVICE', ':1.78'), ('XAUTHORITY', '/run/user/1000/gdm/Xauthority'), ('AMENT_PREFIX_PATH', '/home/dom/Cerberus/install/tutorial_interfaces:/home/dom/Cerberus/install/messages:/home/dom/Cerberus/install/central:/home/dom/Cerberus/install/camera:/opt/ros/dashing'), ('SSH_AUTH_SOCK', '/run/user/1000/keyring/ssh'), ('CONDA_PYTHON_EXE', '/home/dom/anaconda3/bin/python'), ('ROS_DOMAIN_ID', '1'), ('SHELL', '/bin/bash'), ('QT_ACCESSIBILITY', '1'), ('GDMSESSION', 'ubuntu'), ('LESSCLOSE', '/usr/bin/lesspipe %s %s'), ('VIRTUALENVWRAPPER_PROJECT_FILENAME', '.project'), ('CONDA_DEFAULT_ENV', 'base'), ('VIRTUALENVWRAPPER_HOOK_DIR', '/home/dom/.virtualenvs'), ('TEXTDOMAINDIR', '/usr/share/locale/'), ('GPG_AGENT_INFO', '/run/user/1000/gnupg/S.gpg-agent:0:1'), ('XDG_VTNR', '2'), ('VIRTUALENVWRAPPER_SCRIPT', '/usr/local/bin/virtualenvwrapper.sh'), ('QT_IM_MODULE', 'ibus'), ('PWD', '/home/dom/Cerberus/build/central'), ('CLUTTER_IM_MODULE', 'xim'), ('CONDA_EXE', '/home/dom/anaconda3/bin/conda'), ('XDG_DATA_DIRS', '/usr/share/ubuntu:/usr/local/share/:/usr/share/:/var/lib/snapd/desktop'), ('XDG_CONFIG_DIRS', '/etc/xdg/xdg-ubuntu:/etc/xdg'), ('PYTHONPATH', '/home/dom/Cerberus/install/tutorial_interfaces/lib/python3.6/site-packages:/home/dom/Cerberus/install/messages/lib/python3.6/site-packages:/home/dom/Cerberus/install/camera/lib/python3.6/site-packages:/opt/ros/dashing/lib/python3.6/site-packages'), ('CONDA_PREFIX', '/home/dom/anaconda3'), ('COLCON', '1'), ('VTE_VERSION', '5202'), ('CMAKE_PREFIX_PATH', '/home/dom/Cerberus/install/tutorial_interfaces:/home/dom/Cerberus/install/messages:/home/dom/Cerberus/install/central:/home/dom/Cerberus/install/camera:/opt/ros/dashing')]), 'shell': False}
[0.266192] (messages) JobProgress: {'identifier': 'messages', 'progress': 'cmake'}
[0.266879] (messages) JobProgress: {'identifier': 'messages', 'progress': 'build'}
[0.267114] (messages) Command: {'cmd': ['/usr/bin/cmake', '--build', '/home/dom/Cerberus/build/messages', '--', '-j12', '-l12'], 'cwd': '/home/dom/Cerberus/build/messages', 'env': OrderedDict([('VIRTUALENVWRAPPER_WORKON_CD', '1'), ('LESSOPEN', '| /usr/bin/lesspipe %s'), ('CONDA_PROMPT_MODIFIER', '(base)'), ('WORKON_HOME', '/home/dom/.virtualenvs'), ('USER', 'dom'), ('LANGUAGE', 'en_GB:en'), ('TEXTDOMAIN', 'im-config'), ('OSPL_INFOFILE', '<stdout>'), ('XDG_SEAT', 'seat0'), ('SSH_AGENT_PID', '2152'), ('XDG_SESSION_TYPE', 'x11'), ('LD_LIBRARY_PATH', '/home/dom/Cerberus/install/tutorial_interfaces/lib:/home/dom/Cerberus/install/messages/lib:/opt/ros/dashing/opt/yaml_cpp_vendor/lib:/opt/ros/dashing/opt/rviz_ogre_vendor/lib:/usr/lib:/opt/rti.com/rti_connext_dds-5.3.1/lib/x64Linux3gcc5.4.0:/opt/ros/dashing/lib'), ('SHLVL', '1'), ('CONDA_SHLVL', '1'), ('OLDPWD', '/home/dom'), ('OSPL_URI', 'file:///opt/ros/dashing/share/opensplice_cmake_module/config/ros_ospl.xml'), ('QT4_IM_MODULE', 'xim'), ('HOME', '/home/dom'), ('VIRTUALENVWRAPPER_PYTHON', '/usr/bin/python3'), ('DESKTOP_SESSION', 'ubuntu'), ('OSPL_VERBOSITY', '2'), ('NDDSHOME', '/opt/rti.com/rti_connext_dds-5.3.1'), ('GNOME_SHELL_SESSION_MODE', 'ubuntu'), ('GTK_MODULES', 'gail:atk-bridge'), ('ROS_PYTHON_VERSION', '3'), ('DBUS_SESSION_BUS_ADDRESS', 'unix:path=/run/user/1000/bus'), ('OSPL_TMPL_PATH', '/usr/etc/opensplice/idlpp'), ('COLORTERM', 'truecolor'), ('_CE_M', ''), ('COLCON_PREFIX_PATH', '/home/dom/Cerberus/install'), ('IM_CONFIG_PHASE', '2'), ('ROS_DISTRO', 'dashing'), ('LOGNAME', 'dom'), ('GTK_IM_MODULE', 'ibus'), ('DESKTOP_AUTOSTART_ID', '105d257f35f903736159186493893427700000020570007'), ('_', '/usr/bin/colcon'), ('ROS_VERSION', '2'), ('USERNAME', 'dom'), ('XDG_SESSION_ID', '3'), ('TERM', 'xterm-256color'), ('_CE_CONDA', ''), ('OSPL_ERRORFILE', '<stderr>'), ('GNOME_DESKTOP_SESSION_ID', 'this-is-deprecated'), ('WINDOWPATH', '2'), ('PATH', '/opt/rti.com/rti_connext_dds-5.3.1/lib/x64Linux3gcc5.4.0:/opt/rti.com/rti_connext_dds-5.3.1/bin:/opt/ros/dashing/bin:/home/dom/anaconda3/bin:/home/dom/anaconda3/condabin:/home/dom/.local/bin:/usr/local/sbin:/usr/local/bin:/usr/sbin:/usr/bin:/sbin:/bin:/usr/games:/usr/local/games:/snap/bin'), ('SESSION_MANAGER', 'local/dom-NL5E:@/tmp/.ICE-unix/2057,unix/dom-NL5E:/tmp/.ICE-unix/2057'), ('XDG_MENU_PREFIX', 'gnome-'), ('S_COLORS', 'auto'), ('GNOME_TERMINAL_SCREEN', '/org/gnome/Terminal/screen/a8711835_157a_4be7_9cdf_c88917d6cb61'), ('XDG_RUNTIME_DIR', '/run/user/1000'), ('DISPLAY', ':1'), ('LANG', 'en_GB.UTF-8'), ('OSPL_HOME', '/usr'), ('XDG_CURRENT_DESKTOP', 'ubuntu:GNOME'), ('LS_COLORS', 'rs=0:di=01;34:ln=01;36:mh=00:pi=40;33:so=01;35:do=01;35:bd=40;33;01:cd=40;33;01:or=40;31;01:mi=00:su=37;41:sg=30;43:ca=30;41:tw=30;42:ow=34;42:st=37;44:ex=01;32:*.tar=01;31:*.tgz=01;31:*.arc=01;31:*.arj=01;31:*.taz=01;31:*.lha=01;31:*.lz4=01;31:*.lzh=01;31:*.lzma=01;31:*.tlz=01;31:*.txz=01;31:*.tzo=01;31:*.t7z=01;31:*.zip=01;31:*.z=01;31:*.Z=01;31:*.dz=01;31:*.gz=01;31:*.lrz=01;31:*.lz=01;31:*.lzo=01;31:*.xz=01;31:*.zst=01;31:*.tzst=01;31:*.bz2=01;31:*.bz=01;31:*.tbz=01;31:*.tbz2=01;31:*.tz=01;31:*.deb=01;31:*.rpm=01;31:*.jar=01;31:*.war=01;31:*.ear=01;31:*.sar=01;31:*.rar=01;31:*.alz=01;31:*.ace=01;31:*.zoo=01;31:*.cpio=01;31:*.7z=01;31:*.rz=01;31:*.cab=01;31:*.wim=01;31:*.swm=01;31:*.dwm=01;31:*.esd=01;31:*.jpg=01;35:*.jpeg=01;35:*.mjpg=01;35:*.mjpeg=01;35:*.gif=01;35:*.bmp=01;35:*.pbm=01;35:*.pgm=01;35:*.ppm=01;35:*.tga=01;35:*.xbm=01;35:*.xpm=01;35:*.tif=01;35:*.tiff=01;35:*.png=01;35:*.svg=01;35:*.svgz=01;35:*.mng=01;35:*.pcx=01;35:*.mov=01;35:*.mpg=01;35:*.mpeg=01;35:*.m2v=01;35:*.mkv=01;35:*.webm=01;35:*.ogm=01;35:*.mp4=01;35:*.m4v=01;35:*.mp4v=01;35:*.vob=01;35:*.qt=01;35:*.nuv=01;35:*.wmv=01;35:*.asf=01;35:*.rm=01;35:*.rmvb=01;35:*.flc=01;35:*.avi=01;35:*.fli=01;35:*.flv=01;35:*.gl=01;35:*.dl=01;35:*.xcf=01;35:*.xwd=01;35:*.yuv=01;35:*.cgm=01;35:*.emf=01;35:*.ogv=01;35:*.ogx=01;35:*.aac=00;36:*.au=00;36:*.flac=00;36:*.m4a=00;36:*.mid=00;36:*.midi=00;36:*.mka=00;36:*.mp3=00;36:*.mpc=00;36:*.ogg=00;36:*.ra=00;36:*.wav=00;36:*.oga=00;36:*.opus=00;36:*.spx=00;36:*.xspf=00;36:'), ('XDG_SESSION_DESKTOP', 'ubuntu'), ('XMODIFIERS', '@im=ibus'), ('GNOME_TERMINAL_SERVICE', ':1.78'), ('XAUTHORITY', '/run/user/1000/gdm/Xauthority'), ('AMENT_PREFIX_PATH', '/home/dom/Cerberus/install/tutorial_interfaces:/home/dom/Cerberus/install/messages:/home/dom/Cerberus/install/central:/home/dom/Cerberus/install/camera:/opt/ros/dashing'), ('SSH_AUTH_SOCK', '/run/user/1000/keyring/ssh'), ('CONDA_PYTHON_EXE', '/home/dom/anaconda3/bin/python'), ('ROS_DOMAIN_ID', '1'), ('SHELL', '/bin/bash'), ('QT_ACCESSIBILITY', '1'), ('GDMSESSION', 'ubuntu'), ('LESSCLOSE', '/usr/bin/lesspipe %s %s'), ('VIRTUALENVWRAPPER_PROJECT_FILENAME', '.project'), ('CONDA_DEFAULT_ENV', 'base'), ('VIRTUALENVWRAPPER_HOOK_DIR', '/home/dom/.virtualenvs'), ('TEXTDOMAINDIR', '/usr/share/locale/'), ('GPG_AGENT_INFO', '/run/user/1000/gnupg/S.gpg-agent:0:1'), ('XDG_VTNR', '2'), ('VIRTUALENVWRAPPER_SCRIPT', '/usr/local/bin/virtualenvwrapper.sh'), ('QT_IM_MODULE', 'ibus'), ('PWD', '/home/dom/Cerberus/build/messages'), ('CLUTTER_IM_MODULE', 'xim'), ('CONDA_EXE', '/home/dom/anaconda3/bin/conda'), ('XDG_DATA_DIRS', '/usr/share/ubuntu:/usr/local/share/:/usr/share/:/var/lib/snapd/desktop'), ('XDG_CONFIG_DIRS', '/etc/xdg/xdg-ubuntu:/etc/xdg'), ('PYTHONPATH', '/home/dom/Cerberus/install/tutorial_interfaces/lib/python3.6/site-packages:/home/dom/Cerberus/install/messages/lib/python3.6/site-packages:/home/dom/Cerberus/install/camera/lib/python3.6/site-packages:/opt/ros/dashing/lib/python3.6/site-packages'), ('CONDA_PREFIX', '/home/dom/anaconda3'), ('COLCON', '1'), ('VTE_VERSION', '5202'), ('CMAKE_PREFIX_PATH', '/home/dom/Cerberus/install/tutorial_interfaces:/home/dom/Cerberus/install/messages:/home/dom/Cerberus/install/central:/home/dom/Cerberus/install/camera:/opt/ros/dashing')]), 'shell': False}
[0.270350] (tutorial_interfaces) JobProgress: {'identifier': 'tutorial_interfaces', 'progress': 'cmake'}
[0.270963] (tutorial_interfaces) JobProgress: {'identifier': 'tutorial_interfaces', 'progress': 'build'}
[0.271236] (tutorial_interfaces) Command: {'cmd': ['/usr/bin/cmake', '--build', '/home/dom/Cerberus/build/tutorial_interfaces', '--', '-j12', '-l12'], 'cwd': '/home/dom/Cerberus/build/tutorial_interfaces', 'env': OrderedDict([('VIRTUALENVWRAPPER_WORKON_CD', '1'), ('LESSOPEN', '| /usr/bin/lesspipe %s'), ('CONDA_PROMPT_MODIFIER', '(base)'), ('WORKON_HOME', '/home/dom/.virtualenvs'), ('USER', 'dom'), ('LANGUAGE', 'en_GB:en'), ('TEXTDOMAIN', 'im-config'), ('OSPL_INFOFILE', '<stdout>'), ('XDG_SEAT', 'seat0'), ('SSH_AGENT_PID', '2152'), ('XDG_SESSION_TYPE', 'x11'), ('LD_LIBRARY_PATH', '/home/dom/Cerberus/install/tutorial_interfaces/lib:/home/dom/Cerberus/install/messages/lib:/opt/ros/dashing/opt/yaml_cpp_vendor/lib:/opt/ros/dashing/opt/rviz_ogre_vendor/lib:/usr/lib:/opt/rti.com/rti_connext_dds-5.3.1/lib/x64Linux3gcc5.4.0:/opt/ros/dashing/lib'), ('SHLVL', '1'), ('CONDA_SHLVL', '1'), ('OLDPWD', '/home/dom'), ('OSPL_URI', 'file:///opt/ros/dashing/share/opensplice_cmake_module/config/ros_ospl.xml'), ('QT4_IM_MODULE', 'xim'), ('HOME', '/home/dom'), ('VIRTUALENVWRAPPER_PYTHON', '/usr/bin/python3'), ('DESKTOP_SESSION', 'ubuntu'), ('OSPL_VERBOSITY', '2'), ('NDDSHOME', '/opt/rti.com/rti_connext_dds-5.3.1'), ('GNOME_SHELL_SESSION_MODE', 'ubuntu'), ('GTK_MODULES', 'gail:atk-bridge'), ('ROS_PYTHON_VERSION', '3'), ('DBUS_SESSION_BUS_ADDRESS', 'unix:path=/run/user/1000/bus'), ('OSPL_TMPL_PATH', '/usr/etc/opensplice/idlpp'), ('COLORTERM', 'truecolor'), ('_CE_M', ''), ('COLCON_PREFIX_PATH', '/home/dom/Cerberus/install'), ('IM_CONFIG_PHASE', '2'), ('ROS_DISTRO', 'dashing'), ('LOGNAME', 'dom'), ('GTK_IM_MODULE', 'ibus'), ('DESKTOP_AUTOSTART_ID', '105d257f35f903736159186493893427700000020570007'), ('_', '/usr/bin/colcon'), ('ROS_VERSION', '2'), ('USERNAME', 'dom'), ('XDG_SESSION_ID', '3'), ('TERM', 'xterm-256color'), ('_CE_CONDA', ''), ('OSPL_ERRORFILE', '<stderr>'), ('GNOME_DESKTOP_SESSION_ID', 'this-is-deprecated'), ('WINDOWPATH', '2'), ('PATH', '/opt/rti.com/rti_connext_dds-5.3.1/lib/x64Linux3gcc5.4.0:/opt/rti.com/rti_connext_dds-5.3.1/bin:/opt/ros/dashing/bin:/home/dom/anaconda3/bin:/home/dom/anaconda3/condabin:/home/dom/.local/bin:/usr/local/sbin:/usr/local/bin:/usr/sbin:/usr/bin:/sbin:/bin:/usr/games:/usr/local/games:/snap/bin'), ('SESSION_MANAGER', 'local/dom-NL5E:@/tmp/.ICE-unix/2057,unix/dom-NL5E:/tmp/.ICE-unix/2057'), ('XDG_MENU_PREFIX', 'gnome-'), ('S_COLORS', 'auto'), ('GNOME_TERMINAL_SCREEN', '/org/gnome/Terminal/screen/a8711835_157a_4be7_9cdf_c88917d6cb61'), ('XDG_RUNTIME_DIR', '/run/user/1000'), ('DISPLAY', ':1'), ('LANG', 'en_GB.UTF-8'), ('OSPL_HOME', '/usr'), ('XDG_CURRENT_DESKTOP', 'ubuntu:GNOME'), ('LS_COLORS', 'rs=0:di=01;34:ln=01;36:mh=00:pi=40;33:so=01;35:do=01;35:bd=40;33;01:cd=40;33;01:or=40;31;01:mi=00:su=37;41:sg=30;43:ca=30;41:tw=30;42:ow=34;42:st=37;44:ex=01;32:*.tar=01;31:*.tgz=01;31:*.arc=01;31:*.arj=01;31:*.taz=01;31:*.lha=01;31:*.lz4=01;31:*.lzh=01;31:*.lzma=01;31:*.tlz=01;31:*.txz=01;31:*.tzo=01;31:*.t7z=01;31:*.zip=01;31:*.z=01;31:*.Z=01;31:*.dz=01;31:*.gz=01;31:*.lrz=01;31:*.lz=01;31:*.lzo=01;31:*.xz=01;31:*.zst=01;31:*.tzst=01;31:*.bz2=01;31:*.bz=01;31:*.tbz=01;31:*.tbz2=01;31:*.tz=01;31:*.deb=01;31:*.rpm=01;31:*.jar=01;31:*.war=01;31:*.ear=01;31:*.sar=01;31:*.rar=01;31:*.alz=01;31:*.ace=01;31:*.zoo=01;31:*.cpio=01;31:*.7z=01;31:*.rz=01;31:*.cab=01;31:*.wim=01;31:*.swm=01;31:*.dwm=01;31:*.esd=01;31:*.jpg=01;35:*.jpeg=01;35:*.mjpg=01;35:*.mjpeg=01;35:*.gif=01;35:*.bmp=01;35:*.pbm=01;35:*.pgm=01;35:*.ppm=01;35:*.tga=01;35:*.xbm=01;35:*.xpm=01;35:*.tif=01;35:*.tiff=01;35:*.png=01;35:*.svg=01;35:*.svgz=01;35:*.mng=01;35:*.pcx=01;35:*.mov=01;35:*.mpg=01;35:*.mpeg=01;35:*.m2v=01;35:*.mkv=01;35:*.webm=01;35:*.ogm=01;35:*.mp4=01;35:*.m4v=01;35:*.mp4v=01;35:*.vob=01;35:*.qt=01;35:*.nuv=01;35:*.wmv=01;35:*.asf=01;35:*.rm=01;35:*.rmvb=01;35:*.flc=01;35:*.avi=01;35:*.fli=01;35:*.flv=01;35:*.gl=01;35:*.dl=01;35:*.xcf=01;35:*.xwd=01;35:*.yuv=01;35:*.cgm=01;35:*.emf=01;35:*.ogv=01;35:*.ogx=01;35:*.aac=00;36:*.au=00;36:*.flac=00;36:*.m4a=00;36:*.mid=00;36:*.midi=00;36:*.mka=00;36:*.mp3=00;36:*.mpc=00;36:*.ogg=00;36:*.ra=00;36:*.wav=00;36:*.oga=00;36:*.opus=00;36:*.spx=00;36:*.xspf=00;36:'), ('XDG_SESSION_DESKTOP', 'ubuntu'), ('XMODIFIERS', '@im=ibus'), ('GNOME_TERMINAL_SERVICE', ':1.78'), ('XAUTHORITY', '/run/user/1000/gdm/Xauthority'), ('AMENT_PREFIX_PATH', '/home/dom/Cerberus/install/tutorial_interfaces:/home/dom/Cerberus/install/messages:/home/dom/Cerberus/install/central:/home/dom/Cerberus/install/camera:/opt/ros/dashing'), ('SSH_AUTH_SOCK', '/run/user/1000/keyring/ssh'), ('CONDA_PYTHON_EXE', '/home/dom/anaconda3/bin/python'), ('ROS_DOMAIN_ID', '1'), ('SHELL', '/bin/bash'), ('QT_ACCESSIBILITY', '1'), ('GDMSESSION', 'ubuntu'), ('LESSCLOSE', '/usr/bin/lesspipe %s %s'), ('VIRTUALENVWRAPPER_PROJECT_FILENAME', '.project'), ('CONDA_DEFAULT_ENV', 'base'), ('VIRTUALENVWRAPPER_HOOK_DIR', '/home/dom/.virtualenvs'), ('TEXTDOMAINDIR', '/usr/share/locale/'), ('GPG_AGENT_INFO', '/run/user/1000/gnupg/S.gpg-agent:0:1'), ('XDG_VTNR', '2'), ('VIRTUALENVWRAPPER_SCRIPT', '/usr/local/bin/virtualenvwrapper.sh'), ('QT_IM_MODULE', 'ibus'), ('PWD', '/home/dom/Cerberus/build/tutorial_interfaces'), ('CLUTTER_IM_MODULE', 'xim'), ('CONDA_EXE', '/home/dom/anaconda3/bin/conda'), ('XDG_DATA_DIRS', '/usr/share/ubuntu:/usr/local/share/:/usr/share/:/var/lib/snapd/desktop'), ('XDG_CONFIG_DIRS', '/etc/xdg/xdg-ubuntu:/etc/xdg'), ('PYTHONPATH', '/home/dom/Cerberus/install/tutorial_interfaces/lib/python3.6/site-packages:/home/dom/Cerberus/install/messages/lib/python3.6/site-packages:/home/dom/Cerberus/install/camera/lib/python3.6/site-packages:/opt/ros/dashing/lib/python3.6/site-packages'), ('CONDA_PREFIX', '/home/dom/anaconda3'), ('COLCON', '1'), ('VTE_VERSION', '5202'), ('CMAKE_PREFIX_PATH', '/home/dom/Cerberus/install/tutorial_interfaces:/home/dom/Cerberus/install/messages:/home/dom/Cerberus/install/central:/home/dom/Cerberus/install/camera:/opt/ros/dashing')]), 'shell': False}
[0.277365] (camera) Command: {'cmd': ['/usr/bin/python3', 'setup.py', 'egg_info', '--egg-base', '/home/dom/Cerberus/build/camera', 'build', '--build-base', '/home/dom/Cerberus/build/camera/build', 'install', '--prefix', '/home/dom/Cerberus/install/camera', '--record', '/home/dom/Cerberus/build/camera/install.log', '--single-version-externally-managed'], 'cwd': '/home/dom/Cerberus/src/camera', 'env': {'VIRTUALENVWRAPPER_WORKON_CD': '1', 'LESSOPEN': '| /usr/bin/lesspipe %s', 'CONDA_PROMPT_MODIFIER': '(base)', 'WORKON_HOME': '/home/dom/.virtualenvs', 'USER': 'dom', 'LANGUAGE': 'en_GB:en', 'TEXTDOMAIN': 'im-config', 'OSPL_INFOFILE': '<stdout>', 'XDG_SEAT': 'seat0', 'SSH_AGENT_PID': '2152', 'XDG_SESSION_TYPE': 'x11', 'LD_LIBRARY_PATH': '/home/dom/Cerberus/install/tutorial_interfaces/lib:/home/dom/Cerberus/install/messages/lib:/opt/ros/dashing/opt/yaml_cpp_vendor/lib:/opt/ros/dashing/opt/rviz_ogre_vendor/lib:/usr/lib:/opt/rti.com/rti_connext_dds-5.3.1/lib/x64Linux3gcc5.4.0:/opt/ros/dashing/lib', 'SHLVL': '1', 'CONDA_SHLVL': '1', 'OLDPWD': '/home/dom', 'OSPL_URI': 'file:///opt/ros/dashing/share/opensplice_cmake_module/config/ros_ospl.xml', 'QT4_IM_MODULE': 'xim', 'HOME': '/home/dom', 'VIRTUALENVWRAPPER_PYTHON': '/usr/bin/python3', 'DESKTOP_SESSION': 'ubuntu', 'OSPL_VERBOSITY': '2', 'NDDSHOME': '/opt/rti.com/rti_connext_dds-5.3.1', 'GNOME_SHELL_SESSION_MODE': 'ubuntu', 'GTK_MODULES': 'gail:atk-bridge', 'ROS_PYTHON_VERSION': '3', 'DBUS_SESSION_BUS_ADDRESS': 'unix:path=/run/user/1000/bus', 'OSPL_TMPL_PATH': '/usr/etc/opensplice/idlpp', 'COLORTERM': 'truecolor', '_CE_M': '', 'COLCON_PREFIX_PATH': '/home/dom/Cerberus/install', 'IM_CONFIG_PHASE': '2', 'ROS_DISTRO': 'dashing', 'LOGNAME': 'dom', 'GTK_IM_MODULE': 'ibus', 'DESKTOP_AUTOSTART_ID': '105d257f35f903736159186493893427700000020570007', '_': '/usr/bin/colcon', 'ROS_VERSION': '2', 'USERNAME': 'dom', 'XDG_SESSION_ID': '3', 'TERM': 'xterm-256color', '_CE_CONDA': '', 'OSPL_ERRORFILE': '<stderr>', 'GNOME_DESKTOP_SESSION_ID': 'this-is-deprecated', 'WINDOWPATH': '2', 'PATH': '/opt/rti.com/rti_connext_dds-5.3.1/lib/x64Linux3gcc5.4.0:/opt/rti.com/rti_connext_dds-5.3.1/bin:/opt/ros/dashing/bin:/home/dom/anaconda3/bin:/home/dom/anaconda3/condabin:/home/dom/.local/bin:/usr/local/sbin:/usr/local/bin:/usr/sbin:/usr/bin:/sbin:/bin:/usr/games:/usr/local/games:/snap/bin', 'SESSION_MANAGER': 'local/dom-NL5E:@/tmp/.ICE-unix/2057,unix/dom-NL5E:/tmp/.ICE-unix/2057', 'XDG_MENU_PREFIX': 'gnome-', 'S_COLORS': 'auto', 'GNOME_TERMINAL_SCREEN': '/org/gnome/Terminal/screen/a8711835_157a_4be7_9cdf_c88917d6cb61', 'XDG_RUNTIME_DIR': '/run/user/1000', 'DISPLAY': ':1', 'LANG': 'en_GB.UTF-8', 'OSPL_HOME': '/usr', 'XDG_CURRENT_DESKTOP': 'ubuntu:GNOME', 'LS_COLORS': 'rs=0:di=01;34:ln=01;36:mh=00:pi=40;33:so=01;35:do=01;35:bd=40;33;01:cd=40;33;01:or=40;31;01:mi=00:su=37;41:sg=30;43:ca=30;41:tw=30;42:ow=34;42:st=37;44:ex=01;32:*.tar=01;31:*.tgz=01;31:*.arc=01;31:*.arj=01;31:*.taz=01;31:*.lha=01;31:*.lz4=01;31:*.lzh=01;31:*.lzma=01;31:*.tlz=01;31:*.txz=01;31:*.tzo=01;31:*.t7z=01;31:*.zip=01;31:*.z=01;31:*.Z=01;31:*.dz=01;31:*.gz=01;31:*.lrz=01;31:*.lz=01;31:*.lzo=01;31:*.xz=01;31:*.zst=01;31:*.tzst=01;31:*.bz2=01;31:*.bz=01;31:*.tbz=01;31:*.tbz2=01;31:*.tz=01;31:*.deb=01;31:*.rpm=01;31:*.jar=01;31:*.war=01;31:*.ear=01;31:*.sar=01;31:*.rar=01;31:*.alz=01;31:*.ace=01;31:*.zoo=01;31:*.cpio=01;31:*.7z=01;31:*.rz=01;31:*.cab=01;31:*.wim=01;31:*.swm=01;31:*.dwm=01;31:*.esd=01;31:*.jpg=01;35:*.jpeg=01;35:*.mjpg=01;35:*.mjpeg=01;35:*.gif=01;35:*.bmp=01;35:*.pbm=01;35:*.pgm=01;35:*.ppm=01;35:*.tga=01;35:*.xbm=01;35:*.xpm=01;35:*.tif=01;35:*.tiff=01;35:*.png=01;35:*.svg=01;35:*.svgz=01;35:*.mng=01;35:*.pcx=01;35:*.mov=01;35:*.mpg=01;35:*.mpeg=01;35:*.m2v=01;35:*.mkv=01;35:*.webm=01;35:*.ogm=01;35:*.mp4=01;35:*.m4v=01;35:*.mp4v=01;35:*.vob=01;35:*.qt=01;35:*.nuv=01;35:*.wmv=01;35:*.asf=01;35:*.rm=01;35:*.rmvb=01;35:*.flc=01;35:*.avi=01;35:*.fli=01;35:*.flv=01;35:*.gl=01;35:*.dl=01;35:*.xcf=01;35:*.xwd=01;35:*.yuv=01;35:*.cgm=01;35:*.emf=01;35:*.ogv=01;35:*.ogx=01;35:*.aac=00;36:*.au=00;36:*.flac=00;36:*.m4a=00;36:*.mid=00;36:*.midi=00;36:*.mka=00;36:*.mp3=00;36:*.mpc=00;36:*.ogg=00;36:*.ra=00;36:*.wav=00;36:*.oga=00;36:*.opus=00;36:*.spx=00;36:*.xspf=00;36:', 'XDG_SESSION_DESKTOP': 'ubuntu', 'XMODIFIERS': '@im=ibus', 'GNOME_TERMINAL_SERVICE': ':1.78', 'XAUTHORITY': '/run/user/1000/gdm/Xauthority', 'AMENT_PREFIX_PATH': '/home/dom/Cerberus/install/tutorial_interfaces:/home/dom/Cerberus/install/messages:/home/dom/Cerberus/install/central:/home/dom/Cerberus/install/camera:/opt/ros/dashing', 'SSH_AUTH_SOCK': '/run/user/1000/keyring/ssh', 'CONDA_PYTHON_EXE': '/home/dom/anaconda3/bin/python', 'ROS_DOMAIN_ID': '1', 'SHELL': '/bin/bash', 'QT_ACCESSIBILITY': '1', 'GDMSESSION': 'ubuntu', 'LESSCLOSE': '/usr/bin/lesspipe %s %s', 'VIRTUALENVWRAPPER_PROJECT_FILENAME': '.project', 'CONDA_DEFAULT_ENV': 'base', 'VIRTUALENVWRAPPER_HOOK_DIR': '/home/dom/.virtualenvs', 'TEXTDOMAINDIR': '/usr/share/locale/', 'GPG_AGENT_INFO': '/run/user/1000/gnupg/S.gpg-agent:0:1', 'XDG_VTNR': '2', 'VIRTUALENVWRAPPER_SCRIPT': '/usr/local/bin/virtualenvwrapper.sh', 'QT_IM_MODULE': 'ibus', 'PWD': '/home/dom/Cerberus/build/camera', 'CLUTTER_IM_MODULE': 'xim', 'CONDA_EXE': '/home/dom/anaconda3/bin/conda', 'XDG_DATA_DIRS': '/usr/share/ubuntu:/usr/local/share/:/usr/share/:/var/lib/snapd/desktop', 'XDG_CONFIG_DIRS': '/etc/xdg/xdg-ubuntu:/etc/xdg', 'PYTHONPATH': '/home/dom/Cerberus/install/camera/lib/python3.6/site-packages:/home/dom/Cerberus/install/tutorial_interfaces/lib/python3.6/site-packages:/home/dom/Cerberus/install/messages/lib/python3.6/site-packages:/home/dom/Cerberus/install/camera/lib/python3.6/site-packages:/opt/ros/dashing/lib/python3.6/site-packages', 'CONDA_PREFIX': '/home/dom/anaconda3', 'COLCON': '1', 'VTE_VERSION': '5202', 'CMAKE_PREFIX_PATH': '/home/dom/Cerberus/install/tutorial_interfaces:/home/dom/Cerberus/install/messages:/home/dom/Cerberus/install/central'}, 'shell': False}
[0.299316] (-) TimerEvent: {}
[0.339549] (tutorial_interfaces) StdoutLine: {'line': b'[  4%] Built target tutorial_interfaces__rosidl_generator_c\n'}
[0.345453] (tutorial_interfaces) StdoutLine: {'line': b'[  6%] Built target tutorial_interfaces__cpp\n'}
[0.345750] (central) StdoutLine: {'line': b'[100%] Built target central_main\n'}
[0.349394] (tutorial_interfaces) StdoutLine: {'line': b'[  7%] Built target tutorial_interfaces__dds_opensplice_idl\n'}
[0.349675] (messages) StdoutLine: {'line': b'[  1%] Built target messages__dds_connext_idl\n'}
[0.353084] (tutorial_interfaces) StdoutLine: {'line': b'[  9%] Built target tutorial_interfaces__dds_connext_idl\n'}
[0.353423] (messages) StdoutLine: {'line': b'[  3%] Built target messages__dds_opensplice_idl\n'}
[0.353573] (messages) StdoutLine: {'line': b'[  7%] Built target messages__rosidl_generator_c\n'}
[0.355672] (messages) StdoutLine: {'line': b'[  9%] Built target messages__cpp\n'}
[0.371229] (central) CommandEnded: {'returncode': 0}
[0.397980] (tutorial_interfaces) StdoutLine: {'line': b'[ 13%] Built target tutorial_interfaces__rosidl_typesupport_c\n'}
[0.399424] (-) TimerEvent: {}
[0.400168] (tutorial_interfaces) StdoutLine: {'line': b'[ 18%] Built target tutorial_interfaces__rosidl_typesupport_cpp\n'}
[0.402579] (tutorial_interfaces) StdoutLine: {'line': b'[ 23%] Built target tutorial_interfaces__rosidl_typesupport_introspection_c\n'}
[0.411040] (messages) StdoutLine: {'line': b'[ 13%] Built target messages__rosidl_typesupport_introspection_c\n'}
[0.411258] (tutorial_interfaces) StdoutLine: {'line': b'[ 27%] Built target tutorial_interfaces__rosidl_typesupport_introspection_cpp\n'}
[0.412714] (messages) StdoutLine: {'line': b'[ 18%] Built target messages__rosidl_typesupport_cpp\n'}
[0.417707] (tutorial_interfaces) StdoutLine: {'line': b'[ 32%] Built target tutorial_interfaces__rosidl_typesupport_fastrtps_cpp\n'}
[0.422696] (messages) StdoutLine: {'line': b'[ 23%] Built target messages__rosidl_typesupport_introspection_cpp\n'}
[0.429131] (tutorial_interfaces) StdoutLine: {'line': b'[ 44%] Built target tutorial_interfaces__rosidl_typesupport_opensplice_cpp\n'}
[0.429603] (messages) StdoutLine: {'line': b'[ 27%] Built target messages__rosidl_typesupport_c\n'}
[0.429777] (messages) StdoutLine: {'line': b'[ 38%] Built target messages__rosidl_typesupport_connext_cpp\n'}
[0.429979] (messages) StdoutLine: {'line': b'[ 50%] Built target messages__rosidl_typesupport_opensplice_cpp\n'}
[0.430105] (tutorial_interfaces) StdoutLine: {'line': b'[ 55%] Built target tutorial_interfaces__rosidl_typesupport_connext_cpp\n'}
[0.430410] (messages) StdoutLine: {'line': b'[ 55%] Built target messages__rosidl_typesupport_fastrtps_cpp\n'}
[0.436286] (central) JobProgress: {'identifier': 'central', 'progress': 'install'}
[0.451486] (central) Command: {'cmd': ['/usr/bin/cmake', '--build', '/home/dom/Cerberus/build/central', '--target', 'install', '--', '-j12', '-l12'], 'cwd': '/home/dom/Cerberus/build/central', 'env': OrderedDict([('VIRTUALENVWRAPPER_WORKON_CD', '1'), ('LESSOPEN', '| /usr/bin/lesspipe %s'), ('CONDA_PROMPT_MODIFIER', '(base)'), ('WORKON_HOME', '/home/dom/.virtualenvs'), ('USER', 'dom'), ('LANGUAGE', 'en_GB:en'), ('TEXTDOMAIN', 'im-config'), ('OSPL_INFOFILE', '<stdout>'), ('XDG_SEAT', 'seat0'), ('SSH_AGENT_PID', '2152'), ('XDG_SESSION_TYPE', 'x11'), ('LD_LIBRARY_PATH', '/home/dom/Cerberus/install/tutorial_interfaces/lib:/home/dom/Cerberus/install/messages/lib:/opt/ros/dashing/opt/yaml_cpp_vendor/lib:/opt/ros/dashing/opt/rviz_ogre_vendor/lib:/usr/lib:/opt/rti.com/rti_connext_dds-5.3.1/lib/x64Linux3gcc5.4.0:/opt/ros/dashing/lib'), ('SHLVL', '1'), ('CONDA_SHLVL', '1'), ('OLDPWD', '/home/dom'), ('OSPL_URI', 'file:///opt/ros/dashing/share/opensplice_cmake_module/config/ros_ospl.xml'), ('QT4_IM_MODULE', 'xim'), ('HOME', '/home/dom'), ('VIRTUALENVWRAPPER_PYTHON', '/usr/bin/python3'), ('DESKTOP_SESSION', 'ubuntu'), ('OSPL_VERBOSITY', '2'), ('NDDSHOME', '/opt/rti.com/rti_connext_dds-5.3.1'), ('GNOME_SHELL_SESSION_MODE', 'ubuntu'), ('GTK_MODULES', 'gail:atk-bridge'), ('ROS_PYTHON_VERSION', '3'), ('DBUS_SESSION_BUS_ADDRESS', 'unix:path=/run/user/1000/bus'), ('OSPL_TMPL_PATH', '/usr/etc/opensplice/idlpp'), ('COLORTERM', 'truecolor'), ('_CE_M', ''), ('COLCON_PREFIX_PATH', '/home/dom/Cerberus/install'), ('IM_CONFIG_PHASE', '2'), ('ROS_DISTRO', 'dashing'), ('LOGNAME', 'dom'), ('GTK_IM_MODULE', 'ibus'), ('DESKTOP_AUTOSTART_ID', '105d257f35f903736159186493893427700000020570007'), ('_', '/usr/bin/colcon'), ('ROS_VERSION', '2'), ('USERNAME', 'dom'), ('XDG_SESSION_ID', '3'), ('TERM', 'xterm-256color'), ('_CE_CONDA', ''), ('OSPL_ERRORFILE', '<stderr>'), ('GNOME_DESKTOP_SESSION_ID', 'this-is-deprecated'), ('WINDOWPATH', '2'), ('PATH', '/opt/rti.com/rti_connext_dds-5.3.1/lib/x64Linux3gcc5.4.0:/opt/rti.com/rti_connext_dds-5.3.1/bin:/opt/ros/dashing/bin:/home/dom/anaconda3/bin:/home/dom/anaconda3/condabin:/home/dom/.local/bin:/usr/local/sbin:/usr/local/bin:/usr/sbin:/usr/bin:/sbin:/bin:/usr/games:/usr/local/games:/snap/bin'), ('SESSION_MANAGER', 'local/dom-NL5E:@/tmp/.ICE-unix/2057,unix/dom-NL5E:/tmp/.ICE-unix/2057'), ('XDG_MENU_PREFIX', 'gnome-'), ('S_COLORS', 'auto'), ('GNOME_TERMINAL_SCREEN', '/org/gnome/Terminal/screen/a8711835_157a_4be7_9cdf_c88917d6cb61'), ('XDG_RUNTIME_DIR', '/run/user/1000'), ('DISPLAY', ':1'), ('LANG', 'en_GB.UTF-8'), ('OSPL_HOME', '/usr'), ('XDG_CURRENT_DESKTOP', 'ubuntu:GNOME'), ('LS_COLORS', 'rs=0:di=01;34:ln=01;36:mh=00:pi=40;33:so=01;35:do=01;35:bd=40;33;01:cd=40;33;01:or=40;31;01:mi=00:su=37;41:sg=30;43:ca=30;41:tw=30;42:ow=34;42:st=37;44:ex=01;32:*.tar=01;31:*.tgz=01;31:*.arc=01;31:*.arj=01;31:*.taz=01;31:*.lha=01;31:*.lz4=01;31:*.lzh=01;31:*.lzma=01;31:*.tlz=01;31:*.txz=01;31:*.tzo=01;31:*.t7z=01;31:*.zip=01;31:*.z=01;31:*.Z=01;31:*.dz=01;31:*.gz=01;31:*.lrz=01;31:*.lz=01;31:*.lzo=01;31:*.xz=01;31:*.zst=01;31:*.tzst=01;31:*.bz2=01;31:*.bz=01;31:*.tbz=01;31:*.tbz2=01;31:*.tz=01;31:*.deb=01;31:*.rpm=01;31:*.jar=01;31:*.war=01;31:*.ear=01;31:*.sar=01;31:*.rar=01;31:*.alz=01;31:*.ace=01;31:*.zoo=01;31:*.cpio=01;31:*.7z=01;31:*.rz=01;31:*.cab=01;31:*.wim=01;31:*.swm=01;31:*.dwm=01;31:*.esd=01;31:*.jpg=01;35:*.jpeg=01;35:*.mjpg=01;35:*.mjpeg=01;35:*.gif=01;35:*.bmp=01;35:*.pbm=01;35:*.pgm=01;35:*.ppm=01;35:*.tga=01;35:*.xbm=01;35:*.xpm=01;35:*.tif=01;35:*.tiff=01;35:*.png=01;35:*.svg=01;35:*.svgz=01;35:*.mng=01;35:*.pcx=01;35:*.mov=01;35:*.mpg=01;35:*.mpeg=01;35:*.m2v=01;35:*.mkv=01;35:*.webm=01;35:*.ogm=01;35:*.mp4=01;35:*.m4v=01;35:*.mp4v=01;35:*.vob=01;35:*.qt=01;35:*.nuv=01;35:*.wmv=01;35:*.asf=01;35:*.rm=01;35:*.rmvb=01;35:*.flc=01;35:*.avi=01;35:*.fli=01;35:*.flv=01;35:*.gl=01;35:*.dl=01;35:*.xcf=01;35:*.xwd=01;35:*.yuv=01;35:*.cgm=01;35:*.emf=01;35:*.ogv=01;35:*.ogx=01;35:*.aac=00;36:*.au=00;36:*.flac=00;36:*.m4a=00;36:*.mid=00;36:*.midi=00;36:*.mka=00;36:*.mp3=00;36:*.mpc=00;36:*.ogg=00;36:*.ra=00;36:*.wav=00;36:*.oga=00;36:*.opus=00;36:*.spx=00;36:*.xspf=00;36:'), ('XDG_SESSION_DESKTOP', 'ubuntu'), ('XMODIFIERS', '@im=ibus'), ('GNOME_TERMINAL_SERVICE', ':1.78'), ('XAUTHORITY', '/run/user/1000/gdm/Xauthority'), ('AMENT_PREFIX_PATH', '/home/dom/Cerberus/install/tutorial_interfaces:/home/dom/Cerberus/install/messages:/home/dom/Cerberus/install/central:/home/dom/Cerberus/install/camera:/opt/ros/dashing'), ('SSH_AUTH_SOCK', '/run/user/1000/keyring/ssh'), ('CONDA_PYTHON_EXE', '/home/dom/anaconda3/bin/python'), ('ROS_DOMAIN_ID', '1'), ('SHELL', '/bin/bash'), ('QT_ACCESSIBILITY', '1'), ('GDMSESSION', 'ubuntu'), ('LESSCLOSE', '/usr/bin/lesspipe %s %s'), ('VIRTUALENVWRAPPER_PROJECT_FILENAME', '.project'), ('CONDA_DEFAULT_ENV', 'base'), ('VIRTUALENVWRAPPER_HOOK_DIR', '/home/dom/.virtualenvs'), ('TEXTDOMAINDIR', '/usr/share/locale/'), ('GPG_AGENT_INFO', '/run/user/1000/gnupg/S.gpg-agent:0:1'), ('XDG_VTNR', '2'), ('VIRTUALENVWRAPPER_SCRIPT', '/usr/local/bin/virtualenvwrapper.sh'), ('QT_IM_MODULE', 'ibus'), ('PWD', '/home/dom/Cerberus/build/central'), ('CLUTTER_IM_MODULE', 'xim'), ('CONDA_EXE', '/home/dom/anaconda3/bin/conda'), ('XDG_DATA_DIRS', '/usr/share/ubuntu:/usr/local/share/:/usr/share/:/var/lib/snapd/desktop'), ('XDG_CONFIG_DIRS', '/etc/xdg/xdg-ubuntu:/etc/xdg'), ('PYTHONPATH', '/home/dom/Cerberus/install/tutorial_interfaces/lib/python3.6/site-packages:/home/dom/Cerberus/install/messages/lib/python3.6/site-packages:/home/dom/Cerberus/install/camera/lib/python3.6/site-packages:/opt/ros/dashing/lib/python3.6/site-packages'), ('CONDA_PREFIX', '/home/dom/anaconda3'), ('COLCON', '1'), ('VTE_VERSION', '5202'), ('CMAKE_PREFIX_PATH', '/home/dom/Cerberus/install/tutorial_interfaces:/home/dom/Cerberus/install/messages:/home/dom/Cerberus/install/central:/home/dom/Cerberus/install/camera:/opt/ros/dashing')]), 'shell': False}
[0.461224] (tutorial_interfaces) StdoutLine: {'line': b'[ 60%] Built target tutorial_interfaces__rosidl_typesupport_fastrtps_c\n'}
[0.463105] (messages) StdoutLine: {'line': b'[ 60%] Built target messages__rosidl_typesupport_fastrtps_c\n'}
[0.482248] (messages) StdoutLine: {'line': b'[ 73%] Built target messages__rosidl_typesupport_opensplice_c\n'}
[0.488903] (tutorial_interfaces) StdoutLine: {'line': b'[ 73%] Built target tutorial_interfaces__rosidl_typesupport_opensplice_c\n'}
[0.490294] (tutorial_interfaces) StdoutLine: {'line': b'[ 86%] Built target tutorial_interfaces__rosidl_typesupport_connext_c\n'}
[0.494178] (messages) StdoutLine: {'line': b'[ 86%] Built target messages__rosidl_typesupport_connext_c\n'}
[0.499507] (-) TimerEvent: {}
[0.516326] (tutorial_interfaces) StdoutLine: {'line': b'[ 86%] Built target tutorial_interfaces\n'}
[0.516572] (central) StdoutLine: {'line': b'[100%] Built target central_main\n'}
[0.518202] (messages) StdoutLine: {'line': b'[ 86%] Built target messages\n'}
[0.538832] (central) StdoutLine: {'line': b'\x1b[36mInstall the project...\x1b[0m\n'}
[0.542020] (tutorial_interfaces) StdoutLine: {'line': b'[ 87%] Built target tutorial_interfaces__py\n'}
[0.542743] (messages) StdoutLine: {'line': b'[ 87%] Built target messages__py\n'}
[0.549636] (central) StdoutLine: {'line': b'-- Install configuration: ""\n'}
[0.549916] (central) StdoutLine: {'line': b'-- Up-to-date: /home/dom/Cerberus/install/central/lib/central/central_main\n'}
[0.550126] (central) StdoutLine: {'line': b'-- Up-to-date: /home/dom/Cerberus/install/central/share/ament_index/resource_index/package_run_dependencies/central\n'}
[0.550451] (central) StdoutLine: {'line': b'-- Up-to-date: /home/dom/Cerberus/install/central/share/ament_index/resource_index/parent_prefix_path/central\n'}
[0.550646] (central) StdoutLine: {'line': b'-- Up-to-date: /home/dom/Cerberus/install/central/share/central/environment/ament_prefix_path.sh\n'}
[0.550759] (central) StdoutLine: {'line': b'-- Up-to-date: /home/dom/Cerberus/install/central/share/central/environment/path.sh\n'}
[0.550867] (central) StdoutLine: {'line': b'-- Up-to-date: /home/dom/Cerberus/install/central/share/central/local_setup.bash\n'}
[0.550976] (central) StdoutLine: {'line': b'-- Up-to-date: /home/dom/Cerberus/install/central/share/central/local_setup.sh\n'}
[0.551088] (central) StdoutLine: {'line': b'-- Up-to-date: /home/dom/Cerberus/install/central/share/central/local_setup.zsh\n'}
[0.551198] (central) StdoutLine: {'line': b'-- Up-to-date: /home/dom/Cerberus/install/central/share/ament_index/resource_index/packages/central\n'}
[0.551317] (central) StdoutLine: {'line': b'-- Up-to-date: /home/dom/Cerberus/install/central/share/central/cmake/centralConfig.cmake\n'}
[0.551424] (central) StdoutLine: {'line': b'-- Up-to-date: /home/dom/Cerberus/install/central/share/central/cmake/centralConfig-version.cmake\n'}
[0.551537] (central) StdoutLine: {'line': b'-- Up-to-date: /home/dom/Cerberus/install/central/share/central/package.xml\n'}
[0.553444] (central) CommandEnded: {'returncode': 0}
[0.570698] (tutorial_interfaces) StdoutLine: {'line': b'[ 90%] Built target tutorial_interfaces__python\n'}
[0.572574] (central) JobEnded: {'identifier': 'central', 'rc': 0}
[0.572972] (messages) StdoutLine: {'line': b'[ 90%] Built target messages__python\n'}
[0.599595] (-) TimerEvent: {}
[0.605775] (messages) StdoutLine: {'line': b'[ 93%] Built target messages__rosidl_typesupport_fastrtps_c__pyext\n'}
[0.609595] (camera) StdoutLine: {'line': b'running egg_info\n'}
[0.610461] (tutorial_interfaces) StdoutLine: {'line': b'[ 93%] Built target tutorial_interfaces__rosidl_typesupport_fastrtps_c__pyext\n'}
[0.610592] (tutorial_interfaces) StdoutLine: {'line': b'[ 96%] Built target tutorial_interfaces__rosidl_typesupport_opensplice_c__pyext\n'}
[0.611614] (camera) StdoutLine: {'line': b'writing /home/dom/Cerberus/build/camera/camera.egg-info/PKG-INFO\n'}
[0.611810] (camera) StdoutLine: {'line': b'writing dependency_links to /home/dom/Cerberus/build/camera/camera.egg-info/dependency_links.txt\n'}
[0.612103] (camera) StdoutLine: {'line': b'writing entry points to /home/dom/Cerberus/build/camera/camera.egg-info/entry_points.txt\n'}
[0.612343] (camera) StdoutLine: {'line': b'writing requirements to /home/dom/Cerberus/build/camera/camera.egg-info/requires.txt\n'}
[0.612446] (camera) StdoutLine: {'line': b'writing top-level names to /home/dom/Cerberus/build/camera/camera.egg-info/top_level.txt\n'}
[0.613470] (tutorial_interfaces) StdoutLine: {'line': b'[100%] Built target tutorial_interfaces__rosidl_typesupport_c__pyext\n'}
[0.614334] (messages) StdoutLine: {'line': b'[ 96%] Built target messages__rosidl_typesupport_c__pyext\n'}
[0.615763] (messages) StdoutLine: {'line': b'[100%] Built target messages__rosidl_typesupport_opensplice_c__pyext\n'}
[0.625095] (tutorial_interfaces) CommandEnded: {'returncode': 0}
[0.629270] (messages) CommandEnded: {'returncode': 0}
[0.644782] (camera) StdoutLine: {'line': b"reading manifest file '/home/dom/Cerberus/build/camera/camera.egg-info/SOURCES.txt'\n"}
[0.645745] (camera) StdoutLine: {'line': b"writing manifest file '/home/dom/Cerberus/build/camera/camera.egg-info/SOURCES.txt'\n"}
[0.646200] (camera) StdoutLine: {'line': b'running build\n'}
[0.646350] (camera) StdoutLine: {'line': b'running build_py\n'}
[0.646482] (camera) StdoutLine: {'line': b'running install\n'}
[0.646766] (camera) StdoutLine: {'line': b'running install_lib\n'}
[0.647921] (camera) StdoutLine: {'line': b'running install_data\n'}
[0.648473] (camera) StdoutLine: {'line': b'running install_egg_info\n'}
[0.650175] (camera) StdoutLine: {'line': b"removing '/home/dom/Cerberus/install/camera/lib/python3.6/site-packages/camera-0.0.0-py3.6.egg-info' (and everything under it)\n"}
[0.650331] (camera) StdoutLine: {'line': b'Copying /home/dom/Cerberus/build/camera/camera.egg-info to /home/dom/Cerberus/install/camera/lib/python3.6/site-packages/camera-0.0.0-py3.6.egg-info\n'}
[0.651024] (camera) StdoutLine: {'line': b'running install_scripts\n'}
[0.668939] (camera) StdoutLine: {'line': b'Installing camera_msg script to /home/dom/Cerberus/install/camera/lib/camera\n'}
[0.669257] (camera) StdoutLine: {'line': b'Installing detector script to /home/dom/Cerberus/install/camera/lib/camera\n'}
[0.669440] (camera) StdoutLine: {'line': b'Installing util script to /home/dom/Cerberus/install/camera/lib/camera\n'}
[0.669555] (camera) StdoutLine: {'line': b"writing list of installed files to '/home/dom/Cerberus/build/camera/install.log'\n"}
[0.696225] (camera) CommandEnded: {'returncode': 0}
[0.699791] (-) TimerEvent: {}
[0.704055] (camera) JobEnded: {'identifier': 'camera', 'rc': 0}
[0.705293] (tutorial_interfaces) JobProgress: {'identifier': 'tutorial_interfaces', 'progress': 'install'}
[0.705460] (tutorial_interfaces) Command: {'cmd': ['/usr/bin/cmake', '--build', '/home/dom/Cerberus/build/tutorial_interfaces', '--target', 'install', '--', '-j12', '-l12'], 'cwd': '/home/dom/Cerberus/build/tutorial_interfaces', 'env': OrderedDict([('VIRTUALENVWRAPPER_WORKON_CD', '1'), ('LESSOPEN', '| /usr/bin/lesspipe %s'), ('CONDA_PROMPT_MODIFIER', '(base)'), ('WORKON_HOME', '/home/dom/.virtualenvs'), ('USER', 'dom'), ('LANGUAGE', 'en_GB:en'), ('TEXTDOMAIN', 'im-config'), ('OSPL_INFOFILE', '<stdout>'), ('XDG_SEAT', 'seat0'), ('SSH_AGENT_PID', '2152'), ('XDG_SESSION_TYPE', 'x11'), ('LD_LIBRARY_PATH', '/home/dom/Cerberus/install/tutorial_interfaces/lib:/home/dom/Cerberus/install/messages/lib:/opt/ros/dashing/opt/yaml_cpp_vendor/lib:/opt/ros/dashing/opt/rviz_ogre_vendor/lib:/usr/lib:/opt/rti.com/rti_connext_dds-5.3.1/lib/x64Linux3gcc5.4.0:/opt/ros/dashing/lib'), ('SHLVL', '1'), ('CONDA_SHLVL', '1'), ('OLDPWD', '/home/dom'), ('OSPL_URI', 'file:///opt/ros/dashing/share/opensplice_cmake_module/config/ros_ospl.xml'), ('QT4_IM_MODULE', 'xim'), ('HOME', '/home/dom'), ('VIRTUALENVWRAPPER_PYTHON', '/usr/bin/python3'), ('DESKTOP_SESSION', 'ubuntu'), ('OSPL_VERBOSITY', '2'), ('NDDSHOME', '/opt/rti.com/rti_connext_dds-5.3.1'), ('GNOME_SHELL_SESSION_MODE', 'ubuntu'), ('GTK_MODULES', 'gail:atk-bridge'), ('ROS_PYTHON_VERSION', '3'), ('DBUS_SESSION_BUS_ADDRESS', 'unix:path=/run/user/1000/bus'), ('OSPL_TMPL_PATH', '/usr/etc/opensplice/idlpp'), ('COLORTERM', 'truecolor'), ('_CE_M', ''), ('COLCON_PREFIX_PATH', '/home/dom/Cerberus/install'), ('IM_CONFIG_PHASE', '2'), ('ROS_DISTRO', 'dashing'), ('LOGNAME', 'dom'), ('GTK_IM_MODULE', 'ibus'), ('DESKTOP_AUTOSTART_ID', '105d257f35f903736159186493893427700000020570007'), ('_', '/usr/bin/colcon'), ('ROS_VERSION', '2'), ('USERNAME', 'dom'), ('XDG_SESSION_ID', '3'), ('TERM', 'xterm-256color'), ('_CE_CONDA', ''), ('OSPL_ERRORFILE', '<stderr>'), ('GNOME_DESKTOP_SESSION_ID', 'this-is-deprecated'), ('WINDOWPATH', '2'), ('PATH', '/opt/rti.com/rti_connext_dds-5.3.1/lib/x64Linux3gcc5.4.0:/opt/rti.com/rti_connext_dds-5.3.1/bin:/opt/ros/dashing/bin:/home/dom/anaconda3/bin:/home/dom/anaconda3/condabin:/home/dom/.local/bin:/usr/local/sbin:/usr/local/bin:/usr/sbin:/usr/bin:/sbin:/bin:/usr/games:/usr/local/games:/snap/bin'), ('SESSION_MANAGER', 'local/dom-NL5E:@/tmp/.ICE-unix/2057,unix/dom-NL5E:/tmp/.ICE-unix/2057'), ('XDG_MENU_PREFIX', 'gnome-'), ('S_COLORS', 'auto'), ('GNOME_TERMINAL_SCREEN', '/org/gnome/Terminal/screen/a8711835_157a_4be7_9cdf_c88917d6cb61'), ('XDG_RUNTIME_DIR', '/run/user/1000'), ('DISPLAY', ':1'), ('LANG', 'en_GB.UTF-8'), ('OSPL_HOME', '/usr'), ('XDG_CURRENT_DESKTOP', 'ubuntu:GNOME'), ('LS_COLORS', 'rs=0:di=01;34:ln=01;36:mh=00:pi=40;33:so=01;35:do=01;35:bd=40;33;01:cd=40;33;01:or=40;31;01:mi=00:su=37;41:sg=30;43:ca=30;41:tw=30;42:ow=34;42:st=37;44:ex=01;32:*.tar=01;31:*.tgz=01;31:*.arc=01;31:*.arj=01;31:*.taz=01;31:*.lha=01;31:*.lz4=01;31:*.lzh=01;31:*.lzma=01;31:*.tlz=01;31:*.txz=01;31:*.tzo=01;31:*.t7z=01;31:*.zip=01;31:*.z=01;31:*.Z=01;31:*.dz=01;31:*.gz=01;31:*.lrz=01;31:*.lz=01;31:*.lzo=01;31:*.xz=01;31:*.zst=01;31:*.tzst=01;31:*.bz2=01;31:*.bz=01;31:*.tbz=01;31:*.tbz2=01;31:*.tz=01;31:*.deb=01;31:*.rpm=01;31:*.jar=01;31:*.war=01;31:*.ear=01;31:*.sar=01;31:*.rar=01;31:*.alz=01;31:*.ace=01;31:*.zoo=01;31:*.cpio=01;31:*.7z=01;31:*.rz=01;31:*.cab=01;31:*.wim=01;31:*.swm=01;31:*.dwm=01;31:*.esd=01;31:*.jpg=01;35:*.jpeg=01;35:*.mjpg=01;35:*.mjpeg=01;35:*.gif=01;35:*.bmp=01;35:*.pbm=01;35:*.pgm=01;35:*.ppm=01;35:*.tga=01;35:*.xbm=01;35:*.xpm=01;35:*.tif=01;35:*.tiff=01;35:*.png=01;35:*.svg=01;35:*.svgz=01;35:*.mng=01;35:*.pcx=01;35:*.mov=01;35:*.mpg=01;35:*.mpeg=01;35:*.m2v=01;35:*.mkv=01;35:*.webm=01;35:*.ogm=01;35:*.mp4=01;35:*.m4v=01;35:*.mp4v=01;35:*.vob=01;35:*.qt=01;35:*.nuv=01;35:*.wmv=01;35:*.asf=01;35:*.rm=01;35:*.rmvb=01;35:*.flc=01;35:*.avi=01;35:*.fli=01;35:*.flv=01;35:*.gl=01;35:*.dl=01;35:*.xcf=01;35:*.xwd=01;35:*.yuv=01;35:*.cgm=01;35:*.emf=01;35:*.ogv=01;35:*.ogx=01;35:*.aac=00;36:*.au=00;36:*.flac=00;36:*.m4a=00;36:*.mid=00;36:*.midi=00;36:*.mka=00;36:*.mp3=00;36:*.mpc=00;36:*.ogg=00;36:*.ra=00;36:*.wav=00;36:*.oga=00;36:*.opus=00;36:*.spx=00;36:*.xspf=00;36:'), ('XDG_SESSION_DESKTOP', 'ubuntu'), ('XMODIFIERS', '@im=ibus'), ('GNOME_TERMINAL_SERVICE', ':1.78'), ('XAUTHORITY', '/run/user/1000/gdm/Xauthority'), ('AMENT_PREFIX_PATH', '/home/dom/Cerberus/install/tutorial_interfaces:/home/dom/Cerberus/install/messages:/home/dom/Cerberus/install/central:/home/dom/Cerberus/install/camera:/opt/ros/dashing'), ('SSH_AUTH_SOCK', '/run/user/1000/keyring/ssh'), ('CONDA_PYTHON_EXE', '/home/dom/anaconda3/bin/python'), ('ROS_DOMAIN_ID', '1'), ('SHELL', '/bin/bash'), ('QT_ACCESSIBILITY', '1'), ('GDMSESSION', 'ubuntu'), ('LESSCLOSE', '/usr/bin/lesspipe %s %s'), ('VIRTUALENVWRAPPER_PROJECT_FILENAME', '.project'), ('CONDA_DEFAULT_ENV', 'base'), ('VIRTUALENVWRAPPER_HOOK_DIR', '/home/dom/.virtualenvs'), ('TEXTDOMAINDIR', '/usr/share/locale/'), ('GPG_AGENT_INFO', '/run/user/1000/gnupg/S.gpg-agent:0:1'), ('XDG_VTNR', '2'), ('VIRTUALENVWRAPPER_SCRIPT', '/usr/local/bin/virtualenvwrapper.sh'), ('QT_IM_MODULE', 'ibus'), ('PWD', '/home/dom/Cerberus/build/tutorial_interfaces'), ('CLUTTER_IM_MODULE', 'xim'), ('CONDA_EXE', '/home/dom/anaconda3/bin/conda'), ('XDG_DATA_DIRS', '/usr/share/ubuntu:/usr/local/share/:/usr/share/:/var/lib/snapd/desktop'), ('XDG_CONFIG_DIRS', '/etc/xdg/xdg-ubuntu:/etc/xdg'), ('PYTHONPATH', '/home/dom/Cerberus/install/tutorial_interfaces/lib/python3.6/site-packages:/home/dom/Cerberus/install/messages/lib/python3.6/site-packages:/home/dom/Cerberus/install/camera/lib/python3.6/site-packages:/opt/ros/dashing/lib/python3.6/site-packages'), ('CONDA_PREFIX', '/home/dom/anaconda3'), ('COLCON', '1'), ('VTE_VERSION', '5202'), ('CMAKE_PREFIX_PATH', '/home/dom/Cerberus/install/tutorial_interfaces:/home/dom/Cerberus/install/messages:/home/dom/Cerberus/install/central:/home/dom/Cerberus/install/camera:/opt/ros/dashing')]), 'shell': False}
[0.708473] (messages) JobProgress: {'identifier': 'messages', 'progress': 'install'}
[0.710150] (messages) Command: {'cmd': ['/usr/bin/cmake', '--build', '/home/dom/Cerberus/build/messages', '--target', 'install', '--', '-j12', '-l12'], 'cwd': '/home/dom/Cerberus/build/messages', 'env': OrderedDict([('VIRTUALENVWRAPPER_WORKON_CD', '1'), ('LESSOPEN', '| /usr/bin/lesspipe %s'), ('CONDA_PROMPT_MODIFIER', '(base)'), ('WORKON_HOME', '/home/dom/.virtualenvs'), ('USER', 'dom'), ('LANGUAGE', 'en_GB:en'), ('TEXTDOMAIN', 'im-config'), ('OSPL_INFOFILE', '<stdout>'), ('XDG_SEAT', 'seat0'), ('SSH_AGENT_PID', '2152'), ('XDG_SESSION_TYPE', 'x11'), ('LD_LIBRARY_PATH', '/home/dom/Cerberus/install/tutorial_interfaces/lib:/home/dom/Cerberus/install/messages/lib:/opt/ros/dashing/opt/yaml_cpp_vendor/lib:/opt/ros/dashing/opt/rviz_ogre_vendor/lib:/usr/lib:/opt/rti.com/rti_connext_dds-5.3.1/lib/x64Linux3gcc5.4.0:/opt/ros/dashing/lib'), ('SHLVL', '1'), ('CONDA_SHLVL', '1'), ('OLDPWD', '/home/dom'), ('OSPL_URI', 'file:///opt/ros/dashing/share/opensplice_cmake_module/config/ros_ospl.xml'), ('QT4_IM_MODULE', 'xim'), ('HOME', '/home/dom'), ('VIRTUALENVWRAPPER_PYTHON', '/usr/bin/python3'), ('DESKTOP_SESSION', 'ubuntu'), ('OSPL_VERBOSITY', '2'), ('NDDSHOME', '/opt/rti.com/rti_connext_dds-5.3.1'), ('GNOME_SHELL_SESSION_MODE', 'ubuntu'), ('GTK_MODULES', 'gail:atk-bridge'), ('ROS_PYTHON_VERSION', '3'), ('DBUS_SESSION_BUS_ADDRESS', 'unix:path=/run/user/1000/bus'), ('OSPL_TMPL_PATH', '/usr/etc/opensplice/idlpp'), ('COLORTERM', 'truecolor'), ('_CE_M', ''), ('COLCON_PREFIX_PATH', '/home/dom/Cerberus/install'), ('IM_CONFIG_PHASE', '2'), ('ROS_DISTRO', 'dashing'), ('LOGNAME', 'dom'), ('GTK_IM_MODULE', 'ibus'), ('DESKTOP_AUTOSTART_ID', '105d257f35f903736159186493893427700000020570007'), ('_', '/usr/bin/colcon'), ('ROS_VERSION', '2'), ('USERNAME', 'dom'), ('XDG_SESSION_ID', '3'), ('TERM', 'xterm-256color'), ('_CE_CONDA', ''), ('OSPL_ERRORFILE', '<stderr>'), ('GNOME_DESKTOP_SESSION_ID', 'this-is-deprecated'), ('WINDOWPATH', '2'), ('PATH', '/opt/rti.com/rti_connext_dds-5.3.1/lib/x64Linux3gcc5.4.0:/opt/rti.com/rti_connext_dds-5.3.1/bin:/opt/ros/dashing/bin:/home/dom/anaconda3/bin:/home/dom/anaconda3/condabin:/home/dom/.local/bin:/usr/local/sbin:/usr/local/bin:/usr/sbin:/usr/bin:/sbin:/bin:/usr/games:/usr/local/games:/snap/bin'), ('SESSION_MANAGER', 'local/dom-NL5E:@/tmp/.ICE-unix/2057,unix/dom-NL5E:/tmp/.ICE-unix/2057'), ('XDG_MENU_PREFIX', 'gnome-'), ('S_COLORS', 'auto'), ('GNOME_TERMINAL_SCREEN', '/org/gnome/Terminal/screen/a8711835_157a_4be7_9cdf_c88917d6cb61'), ('XDG_RUNTIME_DIR', '/run/user/1000'), ('DISPLAY', ':1'), ('LANG', 'en_GB.UTF-8'), ('OSPL_HOME', '/usr'), ('XDG_CURRENT_DESKTOP', 'ubuntu:GNOME'), ('LS_COLORS', 'rs=0:di=01;34:ln=01;36:mh=00:pi=40;33:so=01;35:do=01;35:bd=40;33;01:cd=40;33;01:or=40;31;01:mi=00:su=37;41:sg=30;43:ca=30;41:tw=30;42:ow=34;42:st=37;44:ex=01;32:*.tar=01;31:*.tgz=01;31:*.arc=01;31:*.arj=01;31:*.taz=01;31:*.lha=01;31:*.lz4=01;31:*.lzh=01;31:*.lzma=01;31:*.tlz=01;31:*.txz=01;31:*.tzo=01;31:*.t7z=01;31:*.zip=01;31:*.z=01;31:*.Z=01;31:*.dz=01;31:*.gz=01;31:*.lrz=01;31:*.lz=01;31:*.lzo=01;31:*.xz=01;31:*.zst=01;31:*.tzst=01;31:*.bz2=01;31:*.bz=01;31:*.tbz=01;31:*.tbz2=01;31:*.tz=01;31:*.deb=01;31:*.rpm=01;31:*.jar=01;31:*.war=01;31:*.ear=01;31:*.sar=01;31:*.rar=01;31:*.alz=01;31:*.ace=01;31:*.zoo=01;31:*.cpio=01;31:*.7z=01;31:*.rz=01;31:*.cab=01;31:*.wim=01;31:*.swm=01;31:*.dwm=01;31:*.esd=01;31:*.jpg=01;35:*.jpeg=01;35:*.mjpg=01;35:*.mjpeg=01;35:*.gif=01;35:*.bmp=01;35:*.pbm=01;35:*.pgm=01;35:*.ppm=01;35:*.tga=01;35:*.xbm=01;35:*.xpm=01;35:*.tif=01;35:*.tiff=01;35:*.png=01;35:*.svg=01;35:*.svgz=01;35:*.mng=01;35:*.pcx=01;35:*.mov=01;35:*.mpg=01;35:*.mpeg=01;35:*.m2v=01;35:*.mkv=01;35:*.webm=01;35:*.ogm=01;35:*.mp4=01;35:*.m4v=01;35:*.mp4v=01;35:*.vob=01;35:*.qt=01;35:*.nuv=01;35:*.wmv=01;35:*.asf=01;35:*.rm=01;35:*.rmvb=01;35:*.flc=01;35:*.avi=01;35:*.fli=01;35:*.flv=01;35:*.gl=01;35:*.dl=01;35:*.xcf=01;35:*.xwd=01;35:*.yuv=01;35:*.cgm=01;35:*.emf=01;35:*.ogv=01;35:*.ogx=01;35:*.aac=00;36:*.au=00;36:*.flac=00;36:*.m4a=00;36:*.mid=00;36:*.midi=00;36:*.mka=00;36:*.mp3=00;36:*.mpc=00;36:*.ogg=00;36:*.ra=00;36:*.wav=00;36:*.oga=00;36:*.opus=00;36:*.spx=00;36:*.xspf=00;36:'), ('XDG_SESSION_DESKTOP', 'ubuntu'), ('XMODIFIERS', '@im=ibus'), ('GNOME_TERMINAL_SERVICE', ':1.78'), ('XAUTHORITY', '/run/user/1000/gdm/Xauthority'), ('AMENT_PREFIX_PATH', '/home/dom/Cerberus/install/tutorial_interfaces:/home/dom/Cerberus/install/messages:/home/dom/Cerberus/install/central:/home/dom/Cerberus/install/camera:/opt/ros/dashing'), ('SSH_AUTH_SOCK', '/run/user/1000/keyring/ssh'), ('CONDA_PYTHON_EXE', '/home/dom/anaconda3/bin/python'), ('ROS_DOMAIN_ID', '1'), ('SHELL', '/bin/bash'), ('QT_ACCESSIBILITY', '1'), ('GDMSESSION', 'ubuntu'), ('LESSCLOSE', '/usr/bin/lesspipe %s %s'), ('VIRTUALENVWRAPPER_PROJECT_FILENAME', '.project'), ('CONDA_DEFAULT_ENV', 'base'), ('VIRTUALENVWRAPPER_HOOK_DIR', '/home/dom/.virtualenvs'), ('TEXTDOMAINDIR', '/usr/share/locale/'), ('GPG_AGENT_INFO', '/run/user/1000/gnupg/S.gpg-agent:0:1'), ('XDG_VTNR', '2'), ('VIRTUALENVWRAPPER_SCRIPT', '/usr/local/bin/virtualenvwrapper.sh'), ('QT_IM_MODULE', 'ibus'), ('PWD', '/home/dom/Cerberus/build/messages'), ('CLUTTER_IM_MODULE', 'xim'), ('CONDA_EXE', '/home/dom/anaconda3/bin/conda'), ('XDG_DATA_DIRS', '/usr/share/ubuntu:/usr/local/share/:/usr/share/:/var/lib/snapd/desktop'), ('XDG_CONFIG_DIRS', '/etc/xdg/xdg-ubuntu:/etc/xdg'), ('PYTHONPATH', '/home/dom/Cerberus/install/tutorial_interfaces/lib/python3.6/site-packages:/home/dom/Cerberus/install/messages/lib/python3.6/site-packages:/home/dom/Cerberus/install/camera/lib/python3.6/site-packages:/opt/ros/dashing/lib/python3.6/site-packages'), ('CONDA_PREFIX', '/home/dom/anaconda3'), ('COLCON', '1'), ('VTE_VERSION', '5202'), ('CMAKE_PREFIX_PATH', '/home/dom/Cerberus/install/tutorial_interfaces:/home/dom/Cerberus/install/messages:/home/dom/Cerberus/install/central:/home/dom/Cerberus/install/camera:/opt/ros/dashing')]), 'shell': False}
[0.768418] (tutorial_interfaces) StdoutLine: {'line': b'[  6%] Built target tutorial_interfaces__dds_connext_idl\n'}
[0.768640] (tutorial_interfaces) StdoutLine: {'line': b'[  7%] Built target tutorial_interfaces__dds_opensplice_idl\n'}
[0.768745] (tutorial_interfaces) StdoutLine: {'line': b'[  7%] Built target tutorial_interfaces__rosidl_generator_c\n'}
[0.768839] (tutorial_interfaces) StdoutLine: {'line': b'[  9%] Built target tutorial_interfaces__cpp\n'}
[0.774456] (messages) StdoutLine: {'line': b'[  1%] Built target messages__dds_connext_idl\n'}
[0.777807] (messages) StdoutLine: {'line': b'[  3%] Built target messages__dds_opensplice_idl\n'}
[0.782512] (messages) StdoutLine: {'line': b'[  4%] Built target messages__cpp\n'}
[0.782812] (messages) StdoutLine: {'line': b'[  9%] Built target messages__rosidl_generator_c\n'}
[0.803984] (tutorial_interfaces) StdoutLine: {'line': b'[ 13%] Built target tutorial_interfaces__rosidl_typesupport_introspection_c\n'}
[0.804203] (-) TimerEvent: {}
[0.811556] (tutorial_interfaces) StdoutLine: {'line': b'[ 18%] Built target tutorial_interfaces__rosidl_typesupport_cpp\n'}
[0.821189] (tutorial_interfaces) StdoutLine: {'line': b'[ 23%] Built target tutorial_interfaces__rosidl_typesupport_introspection_cpp\n'}
[0.823603] (tutorial_interfaces) StdoutLine: {'line': b'[ 27%] Built target tutorial_interfaces__rosidl_typesupport_c\n'}
[0.824982] (messages) StdoutLine: {'line': b'[ 13%] Built target messages__rosidl_typesupport_cpp\n'}
[0.827637] (messages) StdoutLine: {'line': b'[ 18%] Built target messages__rosidl_typesupport_introspection_cpp\n'}
[0.828083] (tutorial_interfaces) StdoutLine: {'line': b'[ 32%] Built target tutorial_interfaces__rosidl_typesupport_fastrtps_cpp\n'}
[0.834790] (tutorial_interfaces) StdoutLine: {'line': b'[ 44%] Built target tutorial_interfaces__rosidl_typesupport_opensplice_cpp\n'}
[0.835738] (messages) StdoutLine: {'line': b'[ 23%] Built target messages__rosidl_typesupport_introspection_c\n'}
[0.838180] (messages) StdoutLine: {'line': b'[ 27%] Built target messages__rosidl_typesupport_c\n'}
[0.840593] (tutorial_interfaces) StdoutLine: {'line': b'[ 55%] Built target tutorial_interfaces__rosidl_typesupport_connext_cpp\n'}
[0.842314] (messages) StdoutLine: {'line': b'[ 32%] Built target messages__rosidl_typesupport_fastrtps_cpp\n'}
[0.859726] (messages) StdoutLine: {'line': b'[ 43%] Built target messages__rosidl_typesupport_connext_cpp\n'}
[0.866474] (messages) StdoutLine: {'line': b'[ 55%] Built target messages__rosidl_typesupport_opensplice_cpp\n'}
[0.873981] (messages) StdoutLine: {'line': b'[ 60%] Built target messages__rosidl_typesupport_fastrtps_c\n'}
[0.875838] (tutorial_interfaces) StdoutLine: {'line': b'[ 60%] Built target tutorial_interfaces__rosidl_typesupport_fastrtps_c\n'}
[0.884559] (tutorial_interfaces) StdoutLine: {'line': b'[ 72%] Built target tutorial_interfaces__rosidl_typesupport_connext_c\n'}
[0.891996] (tutorial_interfaces) StdoutLine: {'line': b'[ 86%] Built target tutorial_interfaces__rosidl_typesupport_opensplice_c\n'}
[0.904335] (-) TimerEvent: {}
[0.909256] (messages) StdoutLine: {'line': b'[ 72%] Built target messages__rosidl_typesupport_connext_c\n'}
[0.909667] (messages) StdoutLine: {'line': b'[ 86%] Built target messages__rosidl_typesupport_opensplice_c\n'}
[0.915294] (tutorial_interfaces) StdoutLine: {'line': b'[ 86%] Built target tutorial_interfaces\n'}
[0.931930] (messages) StdoutLine: {'line': b'[ 86%] Built target messages\n'}
[0.937546] (tutorial_interfaces) StdoutLine: {'line': b'[ 87%] Built target tutorial_interfaces__py\n'}
[0.952408] (messages) StdoutLine: {'line': b'[ 87%] Built target messages__py\n'}
[0.963066] (tutorial_interfaces) StdoutLine: {'line': b'[ 90%] Built target tutorial_interfaces__python\n'}
[0.980273] (messages) StdoutLine: {'line': b'[ 90%] Built target messages__python\n'}
[0.990619] (tutorial_interfaces) StdoutLine: {'line': b'[ 93%] Built target tutorial_interfaces__rosidl_typesupport_opensplice_c__pyext\n'}
[0.993516] (tutorial_interfaces) StdoutLine: {'line': b'[ 96%] Built target tutorial_interfaces__rosidl_typesupport_fastrtps_c__pyext\n'}
[0.995222] (tutorial_interfaces) StdoutLine: {'line': b'[100%] Built target tutorial_interfaces__rosidl_typesupport_c__pyext\n'}
[1.004436] (-) TimerEvent: {}
[1.014329] (messages) StdoutLine: {'line': b'[ 93%] Built target messages__rosidl_typesupport_c__pyext\n'}
[1.014616] (messages) StdoutLine: {'line': b'[ 96%] Built target messages__rosidl_typesupport_opensplice_c__pyext\n'}
[1.017279] (messages) StdoutLine: {'line': b'[100%] Built target messages__rosidl_typesupport_fastrtps_c__pyext\n'}
[1.020323] (tutorial_interfaces) StdoutLine: {'line': b'\x1b[36mInstall the project...\x1b[0m\n'}
[1.029100] (tutorial_interfaces) StdoutLine: {'line': b'-- Install configuration: ""\n'}
[1.029358] (tutorial_interfaces) StdoutLine: {'line': b'-- Up-to-date: /home/dom/Cerberus/install/tutorial_interfaces/share/ament_index/resource_index/rosidl_interfaces/tutorial_interfaces\n'}
[1.029552] (tutorial_interfaces) StdoutLine: {'line': b'-- Up-to-date: /home/dom/Cerberus/install/tutorial_interfaces/lib/libtutorial_interfaces__rosidl_typesupport_c.so\n'}
[1.029812] (tutorial_interfaces) StdoutLine: {'line': b'-- Up-to-date: /home/dom/Cerberus/install/tutorial_interfaces/share/tutorial_interfaces/environment/library_path.sh\n'}
[1.030078] (tutorial_interfaces) StdoutLine: {'line': b'-- Up-to-date: /home/dom/Cerberus/install/tutorial_interfaces/lib/libtutorial_interfaces__rosidl_typesupport_cpp.so\n'}
[1.030360] (tutorial_interfaces) StdoutLine: {'line': b'-- Up-to-date: /home/dom/Cerberus/install/tutorial_interfaces/include/tutorial_interfaces\n'}
[1.030563] (tutorial_interfaces) StdoutLine: {'line': b'-- Up-to-date: /home/dom/Cerberus/install/tutorial_interfaces/include/tutorial_interfaces/msg\n'}
[1.030676] (tutorial_interfaces) StdoutLine: {'line': b'-- Up-to-date: /home/dom/Cerberus/install/tutorial_interfaces/include/tutorial_interfaces/msg/dds_connext\n'}
[1.030799] (tutorial_interfaces) StdoutLine: {'line': b'-- Up-to-date: /home/dom/Cerberus/install/tutorial_interfaces/include/tutorial_interfaces/msg/rosidl_typesupport_connext_c__visibility_control.h\n'}
[1.030908] (tutorial_interfaces) StdoutLine: {'line': b'-- Up-to-date: /home/dom/Cerberus/install/tutorial_interfaces/include/tutorial_interfaces/msg/num__rosidl_typesupport_connext_c.h\n'}
[1.031037] (tutorial_interfaces) StdoutLine: {'line': b'-- Up-to-date: /home/dom/Cerberus/install/tutorial_interfaces/lib/libtutorial_interfaces__rosidl_typesupport_connext_c.so\n'}
[1.031206] (tutorial_interfaces) StdoutLine: {'line': b'-- Up-to-date: /home/dom/Cerberus/install/tutorial_interfaces/include/tutorial_interfaces\n'}
[1.031310] (tutorial_interfaces) StdoutLine: {'line': b'-- Up-to-date: /home/dom/Cerberus/install/tutorial_interfaces/include/tutorial_interfaces/msg\n'}
[1.031433] (tutorial_interfaces) StdoutLine: {'line': b'-- Up-to-date: /home/dom/Cerberus/install/tutorial_interfaces/include/tutorial_interfaces/msg/num__functions.h\n'}
[1.031537] (tutorial_interfaces) StdoutLine: {'line': b'-- Up-to-date: /home/dom/Cerberus/install/tutorial_interfaces/include/tutorial_interfaces/msg/rosidl_generator_c__visibility_control.h\n'}
[1.031707] (tutorial_interfaces) StdoutLine: {'line': b'-- Up-to-date: /home/dom/Cerberus/install/tutorial_interfaces/include/tutorial_interfaces/msg/num__functions.c\n'}
[1.031889] (tutorial_interfaces) StdoutLine: {'line': b'-- Up-to-date: /home/dom/Cerberus/install/tutorial_interfaces/include/tutorial_interfaces/msg/num.h\n'}
[1.031995] (tutorial_interfaces) StdoutLine: {'line': b'-- Up-to-date: /home/dom/Cerberus/install/tutorial_interfaces/include/tutorial_interfaces/msg/num__type_support.h\n'}
[1.032115] (tutorial_interfaces) StdoutLine: {'line': b'-- Up-to-date: /home/dom/Cerberus/install/tutorial_interfaces/include/tutorial_interfaces/msg/num__struct.h\n'}
[1.032219] (tutorial_interfaces) StdoutLine: {'line': b'-- Up-to-date: /home/dom/Cerberus/install/tutorial_interfaces/lib/libtutorial_interfaces__rosidl_generator_c.so\n'}
[1.032334] (tutorial_interfaces) StdoutLine: {'line': b'-- Up-to-date: /home/dom/Cerberus/install/tutorial_interfaces/share/tutorial_interfaces/msg/dds_connext\n'}
[1.032511] (tutorial_interfaces) StdoutLine: {'line': b'-- Up-to-date: /home/dom/Cerberus/install/tutorial_interfaces/share/tutorial_interfaces/msg/dds_connext/Num_.idl\n'}
[1.032637] (tutorial_interfaces) StdoutLine: {'line': b'-- Up-to-date: /home/dom/Cerberus/install/tutorial_interfaces/include/tutorial_interfaces\n'}
[1.032738] (tutorial_interfaces) StdoutLine: {'line': b'-- Up-to-date: /home/dom/Cerberus/install/tutorial_interfaces/include/tutorial_interfaces/msg\n'}
[1.032855] (tutorial_interfaces) StdoutLine: {'line': b'-- Up-to-date: /home/dom/Cerberus/install/tutorial_interfaces/include/tutorial_interfaces/msg/dds_connext\n'}
[1.032956] (tutorial_interfaces) StdoutLine: {'line': b'-- Up-to-date: /home/dom/Cerberus/install/tutorial_interfaces/include/tutorial_interfaces/msg/dds_connext/Num_Support.cxx\n'}
[1.033113] (tutorial_interfaces) StdoutLine: {'line': b'-- Up-to-date: /home/dom/Cerberus/install/tutorial_interfaces/include/tutorial_interfaces/msg/dds_connext/Num_Support.h\n'}
[1.033214] (tutorial_interfaces) StdoutLine: {'line': b'-- Up-to-date: /home/dom/Cerberus/install/tutorial_interfaces/include/tutorial_interfaces/msg/dds_connext/Num_Plugin.cxx\n'}
[1.033332] (tutorial_interfaces) StdoutLine: {'line': b'-- Up-to-date: /home/dom/Cerberus/install/tutorial_interfaces/include/tutorial_interfaces/msg/dds_connext/Num_.cxx\n'}
[1.033438] (tutorial_interfaces) StdoutLine: {'line': b'-- Up-to-date: /home/dom/Cerberus/install/tutorial_interfaces/include/tutorial_interfaces/msg/dds_connext/Num_Plugin.h\n'}
[1.033622] (tutorial_interfaces) StdoutLine: {'line': b'-- Up-to-date: /home/dom/Cerberus/install/tutorial_interfaces/include/tutorial_interfaces/msg/dds_connext/Num_.h\n'}
[1.033751] (tutorial_interfaces) StdoutLine: {'line': b'-- Up-to-date: /home/dom/Cerberus/install/tutorial_interfaces/include/tutorial_interfaces/msg/rosidl_typesupport_connext_cpp__visibility_control.h\n'}
[1.033897] (tutorial_interfaces) StdoutLine: {'line': b'-- Up-to-date: /home/dom/Cerberus/install/tutorial_interfaces/include/tutorial_interfaces/msg/num__rosidl_typesupport_connext_cpp.hpp\n'}
[1.034023] (tutorial_interfaces) StdoutLine: {'line': b'-- Up-to-date: /home/dom/Cerberus/install/tutorial_interfaces/lib/libtutorial_interfaces__rosidl_typesupport_connext_cpp.so\n'}
[1.034180] (tutorial_interfaces) StdoutLine: {'line': b'-- Up-to-date: /home/dom/Cerberus/install/tutorial_interfaces/include/tutorial_interfaces\n'}
[1.034305] (tutorial_interfaces) StdoutLine: {'line': b'-- Up-to-date: /home/dom/Cerberus/install/tutorial_interfaces/include/tutorial_interfaces/msg\n'}
[1.034446] (tutorial_interfaces) StdoutLine: {'line': b'-- Up-to-date: /home/dom/Cerberus/install/tutorial_interfaces/include/tutorial_interfaces/msg/num__traits.hpp\n'}
[1.034585] (tutorial_interfaces) StdoutLine: {'line': b'-- Up-to-date: /home/dom/Cerberus/install/tutorial_interfaces/include/tutorial_interfaces/msg/num__struct.hpp\n'}
[1.034754] (tutorial_interfaces) StdoutLine: {'line': b'-- Up-to-date: /home/dom/Cerberus/install/tutorial_interfaces/include/tutorial_interfaces/msg/num.hpp\n'}
[1.034945] (tutorial_interfaces) StdoutLine: {'line': b'-- Up-to-date: /home/dom/Cerberus/install/tutorial_interfaces/include/tutorial_interfaces\n'}
[1.035078] (tutorial_interfaces) StdoutLine: {'line': b'-- Up-to-date: /home/dom/Cerberus/install/tutorial_interfaces/include/tutorial_interfaces/msg\n'}
[1.035225] (tutorial_interfaces) StdoutLine: {'line': b'-- Up-to-date: /home/dom/Cerberus/install/tutorial_interfaces/include/tutorial_interfaces/msg/rosidl_typesupport_fastrtps_c__visibility_control.h\n'}
[1.035359] (tutorial_interfaces) StdoutLine: {'line': b'-- Up-to-date: /home/dom/Cerberus/install/tutorial_interfaces/include/tutorial_interfaces/msg/num__rosidl_typesupport_fastrtps_c.h\n'}
[1.035523] (tutorial_interfaces) StdoutLine: {'line': b'-- Up-to-date: /home/dom/Cerberus/install/tutorial_interfaces/lib/libtutorial_interfaces__rosidl_typesupport_fastrtps_c.so\n'}
[1.035674] (tutorial_interfaces) StdoutLine: {'line': b'-- Up-to-date: /home/dom/Cerberus/install/tutorial_interfaces/include/tutorial_interfaces\n'}
[1.035803] (tutorial_interfaces) StdoutLine: {'line': b'-- Up-to-date: /home/dom/Cerberus/install/tutorial_interfaces/include/tutorial_interfaces/msg\n'}
[1.036049] (tutorial_interfaces) StdoutLine: {'line': b'-- Up-to-date: /home/dom/Cerberus/install/tutorial_interfaces/include/tutorial_interfaces/msg/dds_fastrtps\n'}
[1.036155] (tutorial_interfaces) StdoutLine: {'line': b'-- Up-to-date: /home/dom/Cerberus/install/tutorial_interfaces/include/tutorial_interfaces/msg/num__rosidl_typesupport_fastrtps_cpp.hpp\n'}
[1.036234] (tutorial_interfaces) StdoutLine: {'line': b'-- Up-to-date: /home/dom/Cerberus/install/tutorial_interfaces/include/tutorial_interfaces/msg/rosidl_typesupport_fastrtps_cpp__visibility_control.h\n'}
[1.036314] (tutorial_interfaces) StdoutLine: {'line': b'-- Up-to-date: /home/dom/Cerberus/install/tutorial_interfaces/lib/libtutorial_interfaces__rosidl_typesupport_fastrtps_cpp.so\n'}
[1.036381] (tutorial_interfaces) StdoutLine: {'line': b'-- Up-to-date: /home/dom/Cerberus/install/tutorial_interfaces/include/tutorial_interfaces\n'}
[1.036451] (tutorial_interfaces) StdoutLine: {'line': b'-- Up-to-date: /home/dom/Cerberus/install/tutorial_interfaces/include/tutorial_interfaces/msg\n'}
[1.036515] (tutorial_interfaces) StdoutLine: {'line': b'-- Up-to-date: /home/dom/Cerberus/install/tutorial_interfaces/include/tutorial_interfaces/msg/rosidl_typesupport_introspection_c__visibility_control.h\n'}
[1.036584] (tutorial_interfaces) StdoutLine: {'line': b'-- Up-to-date: /home/dom/Cerberus/install/tutorial_interfaces/include/tutorial_interfaces/msg/num__type_support.c\n'}
[1.036647] (tutorial_interfaces) StdoutLine: {'line': b'-- Up-to-date: /home/dom/Cerberus/install/tutorial_interfaces/include/tutorial_interfaces/msg/num__rosidl_typesupport_introspection_c.h\n'}
[1.036734] (tutorial_interfaces) StdoutLine: {'line': b'-- Up-to-date: /home/dom/Cerberus/install/tutorial_interfaces/lib/libtutorial_interfaces__rosidl_typesupport_introspection_c.so\n'}
[1.036804] (tutorial_interfaces) StdoutLine: {'line': b'-- Up-to-date: /home/dom/Cerberus/install/tutorial_interfaces/include/tutorial_interfaces\n'}
[1.036867] (tutorial_interfaces) StdoutLine: {'line': b'-- Up-to-date: /home/dom/Cerberus/install/tutorial_interfaces/include/tutorial_interfaces/msg\n'}
[1.036936] (tutorial_interfaces) StdoutLine: {'line': b'-- Up-to-date: /home/dom/Cerberus/install/tutorial_interfaces/include/tutorial_interfaces/msg/num__rosidl_typesupport_opensplice_c.h\n'}
[1.037000] (tutorial_interfaces) StdoutLine: {'line': b'-- Up-to-date: /home/dom/Cerberus/install/tutorial_interfaces/include/tutorial_interfaces/msg/rosidl_typesupport_opensplice_c__visibility_control.h\n'}
[1.037069] (tutorial_interfaces) StdoutLine: {'line': b'-- Up-to-date: /home/dom/Cerberus/install/tutorial_interfaces/include/tutorial_interfaces/msg/dds_opensplice_c\n'}
[1.037132] (tutorial_interfaces) StdoutLine: {'line': b'-- Up-to-date: /home/dom/Cerberus/install/tutorial_interfaces/lib/libtutorial_interfaces__rosidl_typesupport_opensplice_c.so\n'}
[1.037200] (tutorial_interfaces) StdoutLine: {'line': b'-- Up-to-date: /home/dom/Cerberus/install/tutorial_interfaces/share/tutorial_interfaces/msg/dds_opensplice\n'}
[1.037265] (tutorial_interfaces) StdoutLine: {'line': b'-- Up-to-date: /home/dom/Cerberus/install/tutorial_interfaces/share/tutorial_interfaces/msg/dds_opensplice/Num_.idl\n'}
[1.037335] (tutorial_interfaces) StdoutLine: {'line': b'-- Up-to-date: /home/dom/Cerberus/install/tutorial_interfaces/include/tutorial_interfaces\n'}
[1.037398] (tutorial_interfaces) StdoutLine: {'line': b'-- Up-to-date: /home/dom/Cerberus/install/tutorial_interfaces/include/tutorial_interfaces/msg\n'}
[1.037467] (tutorial_interfaces) StdoutLine: {'line': b'-- Up-to-date: /home/dom/Cerberus/install/tutorial_interfaces/include/tutorial_interfaces/msg/dds_opensplice\n'}
[1.037530] (tutorial_interfaces) StdoutLine: {'line': b'-- Up-to-date: /home/dom/Cerberus/install/tutorial_interfaces/include/tutorial_interfaces/msg/dds_opensplice/ccpp_Num_.h\n'}
[1.037657] (tutorial_interfaces) StdoutLine: {'line': b'-- Up-to-date: /home/dom/Cerberus/install/tutorial_interfaces/include/tutorial_interfaces/msg/dds_opensplice/Num_Dcps_impl.h\n'}
[1.037727] (tutorial_interfaces) StdoutLine: {'line': b'-- Up-to-date: /home/dom/Cerberus/install/tutorial_interfaces/include/tutorial_interfaces/msg/dds_opensplice/Num_SplDcps.h\n'}
[1.037799] (tutorial_interfaces) StdoutLine: {'line': b'-- Up-to-date: /home/dom/Cerberus/install/tutorial_interfaces/include/tutorial_interfaces/msg/dds_opensplice/Num_Dcps.h\n'}
[1.037864] (tutorial_interfaces) StdoutLine: {'line': b'-- Up-to-date: /home/dom/Cerberus/install/tutorial_interfaces/include/tutorial_interfaces/msg/dds_opensplice/Num_.h\n'}
[1.037934] (tutorial_interfaces) StdoutLine: {'line': b'-- Up-to-date: /home/dom/Cerberus/install/tutorial_interfaces/include/tutorial_interfaces/msg/num__rosidl_typesupport_opensplice_cpp.hpp\n'}
[1.037998] (tutorial_interfaces) StdoutLine: {'line': b'-- Up-to-date: /home/dom/Cerberus/install/tutorial_interfaces/include/tutorial_interfaces/msg/rosidl_typesupport_opensplice_cpp__visibility_control.h\n'}
[1.038067] (tutorial_interfaces) StdoutLine: {'line': b'-- Up-to-date: /home/dom/Cerberus/install/tutorial_interfaces/lib/libtutorial_interfaces__rosidl_typesupport_opensplice_cpp.so\n'}
[1.038131] (tutorial_interfaces) StdoutLine: {'line': b'-- Up-to-date: /home/dom/Cerberus/install/tutorial_interfaces/include/tutorial_interfaces\n'}
[1.038205] (tutorial_interfaces) StdoutLine: {'line': b'-- Up-to-date: /home/dom/Cerberus/install/tutorial_interfaces/include/tutorial_interfaces/msg\n'}
[1.038299] (tutorial_interfaces) StdoutLine: {'line': b'-- Up-to-date: /home/dom/Cerberus/install/tutorial_interfaces/include/tutorial_interfaces/msg/num__type_support.cpp\n'}
[1.038373] (tutorial_interfaces) StdoutLine: {'line': b'-- Up-to-date: /home/dom/Cerberus/install/tutorial_interfaces/include/tutorial_interfaces/msg/num__rosidl_typesupport_introspection_cpp.hpp\n'}
[1.038443] (tutorial_interfaces) StdoutLine: {'line': b'-- Up-to-date: /home/dom/Cerberus/install/tutorial_interfaces/lib/libtutorial_interfaces__rosidl_typesupport_introspection_cpp.so\n'}
[1.038508] (tutorial_interfaces) StdoutLine: {'line': b'-- Up-to-date: /home/dom/Cerberus/install/tutorial_interfaces/share/tutorial_interfaces/environment/pythonpath.sh\n'}
[1.038576] (tutorial_interfaces) StdoutLine: {'line': b'-- Up-to-date: /home/dom/Cerberus/install/tutorial_interfaces/lib/python3.6/site-packages/tutorial_interfaces/__init__.py\n'}
[1.038641] (messages) StdoutLine: {'line': b'\x1b[36mInstall the project...\x1b[0m\n'}
[1.048591] (messages) StdoutLine: {'line': b'-- Install configuration: ""\n'}
[1.048759] (messages) StdoutLine: {'line': b'-- Up-to-date: /home/dom/Cerberus/install/messages/share/ament_index/resource_index/rosidl_interfaces/messages\n'}
[1.048898] (messages) StdoutLine: {'line': b'-- Up-to-date: /home/dom/Cerberus/install/messages/lib/libmessages__rosidl_typesupport_c.so\n'}
[1.049092] (messages) StdoutLine: {'line': b'-- Up-to-date: /home/dom/Cerberus/install/messages/share/messages/environment/library_path.sh\n'}
[1.049327] (messages) StdoutLine: {'line': b'-- Up-to-date: /home/dom/Cerberus/install/messages/lib/libmessages__rosidl_typesupport_cpp.so\n'}
[1.049573] (messages) StdoutLine: {'line': b'-- Up-to-date: /home/dom/Cerberus/install/messages/include/messages\n'}
[1.049663] (messages) StdoutLine: {'line': b'-- Up-to-date: /home/dom/Cerberus/install/messages/include/messages/msg\n'}
[1.049767] (messages) StdoutLine: {'line': b'-- Up-to-date: /home/dom/Cerberus/install/messages/include/messages/msg/dds_connext\n'}
[1.049833] (messages) StdoutLine: {'line': b'-- Up-to-date: /home/dom/Cerberus/install/messages/include/messages/msg/rosidl_typesupport_connext_c__visibility_control.h\n'}
[1.049900] (messages) StdoutLine: {'line': b'-- Up-to-date: /home/dom/Cerberus/install/messages/include/messages/msg/img__rosidl_typesupport_connext_c.h\n'}
[1.050046] (messages) StdoutLine: {'line': b'-- Up-to-date: /home/dom/Cerberus/install/messages/lib/libmessages__rosidl_typesupport_connext_c.so\n'}
[1.050271] (messages) StdoutLine: {'line': b'-- Up-to-date: /home/dom/Cerberus/install/messages/include/messages\n'}
[1.050402] (messages) StdoutLine: {'line': b'-- Up-to-date: /home/dom/Cerberus/install/messages/include/messages/msg\n'}
[1.050468] (messages) StdoutLine: {'line': b'-- Up-to-date: /home/dom/Cerberus/install/messages/include/messages/msg/img__functions.h\n'}
[1.050528] (messages) StdoutLine: {'line': b'-- Up-to-date: /home/dom/Cerberus/install/messages/include/messages/msg/rosidl_generator_c__visibility_control.h\n'}
[1.050629] (messages) StdoutLine: {'line': b'-- Up-to-date: /home/dom/Cerberus/install/messages/include/messages/msg/img__struct.h\n'}
[1.050720] (messages) StdoutLine: {'line': b'-- Up-to-date: /home/dom/Cerberus/install/messages/include/messages/msg/img__functions.c\n'}
[1.050779] (messages) StdoutLine: {'line': b'-- Up-to-date: /home/dom/Cerberus/install/messages/include/messages/msg/img__type_support.h\n'}
[1.050843] (messages) StdoutLine: {'line': b'-- Up-to-date: /home/dom/Cerberus/install/messages/include/messages/msg/img.h\n'}
[1.050902] (messages) StdoutLine: {'line': b'-- Up-to-date: /home/dom/Cerberus/install/messages/lib/libmessages__rosidl_generator_c.so\n'}
[1.050996] (messages) StdoutLine: {'line': b'-- Up-to-date: /home/dom/Cerberus/install/messages/share/messages/msg/dds_connext\n'}
[1.051108] (messages) StdoutLine: {'line': b'-- Up-to-date: /home/dom/Cerberus/install/messages/share/messages/msg/dds_connext/Img_.idl\n'}
[1.051227] (messages) StdoutLine: {'line': b'-- Up-to-date: /home/dom/Cerberus/install/messages/include/messages\n'}
[1.051331] (messages) StdoutLine: {'line': b'-- Up-to-date: /home/dom/Cerberus/install/messages/include/messages/msg\n'}
[1.051391] (messages) StdoutLine: {'line': b'-- Up-to-date: /home/dom/Cerberus/install/messages/include/messages/msg/dds_connext\n'}
[1.051455] (messages) StdoutLine: {'line': b'-- Up-to-date: /home/dom/Cerberus/install/messages/include/messages/msg/dds_connext/Img_Support.h\n'}
[1.051514] (messages) StdoutLine: {'line': b'-- Up-to-date: /home/dom/Cerberus/install/messages/include/messages/msg/dds_connext/Img_.cxx\n'}
[1.051579] (messages) StdoutLine: {'line': b'-- Up-to-date: /home/dom/Cerberus/install/messages/include/messages/msg/dds_connext/Img_Plugin.cxx\n'}
[1.051636] (messages) StdoutLine: {'line': b'-- Up-to-date: /home/dom/Cerberus/install/messages/include/messages/msg/dds_connext/Img_.h\n'}
[1.051699] (messages) StdoutLine: {'line': b'-- Up-to-date: /home/dom/Cerberus/install/messages/include/messages/msg/dds_connext/Img_Plugin.h\n'}
[1.051757] (messages) StdoutLine: {'line': b'-- Up-to-date: /home/dom/Cerberus/install/messages/include/messages/msg/dds_connext/Img_Support.cxx\n'}
[1.051821] (messages) StdoutLine: {'line': b'-- Up-to-date: /home/dom/Cerberus/install/messages/include/messages/msg/rosidl_typesupport_connext_cpp__visibility_control.h\n'}
[1.052002] (messages) StdoutLine: {'line': b'-- Up-to-date: /home/dom/Cerberus/install/messages/include/messages/msg/img__rosidl_typesupport_connext_cpp.hpp\n'}
[1.052127] (messages) StdoutLine: {'line': b'-- Up-to-date: /home/dom/Cerberus/install/messages/lib/libmessages__rosidl_typesupport_connext_cpp.so\n'}
[1.052232] (messages) StdoutLine: {'line': b'-- Up-to-date: /home/dom/Cerberus/install/messages/include/messages\n'}
[1.052302] (messages) StdoutLine: {'line': b'-- Up-to-date: /home/dom/Cerberus/install/messages/include/messages/msg\n'}
[1.052423] (messages) StdoutLine: {'line': b'-- Up-to-date: /home/dom/Cerberus/install/messages/include/messages/msg/img__traits.hpp\n'}
[1.052518] (messages) StdoutLine: {'line': b'-- Up-to-date: /home/dom/Cerberus/install/messages/include/messages/msg/img.hpp\n'}
[1.052601] (messages) StdoutLine: {'line': b'-- Up-to-date: /home/dom/Cerberus/install/messages/include/messages/msg/img__struct.hpp\n'}
[1.052661] (messages) StdoutLine: {'line': b'-- Up-to-date: /home/dom/Cerberus/install/messages/include/messages\n'}
[1.052750] (messages) StdoutLine: {'line': b'-- Up-to-date: /home/dom/Cerberus/install/messages/include/messages/msg\n'}
[1.052852] (messages) StdoutLine: {'line': b'-- Up-to-date: /home/dom/Cerberus/install/messages/include/messages/msg/rosidl_typesupport_fastrtps_c__visibility_control.h\n'}
[1.052931] (messages) StdoutLine: {'line': b'-- Up-to-date: /home/dom/Cerberus/install/messages/include/messages/msg/img__rosidl_typesupport_fastrtps_c.h\n'}
[1.052990] (messages) StdoutLine: {'line': b'-- Up-to-date: /home/dom/Cerberus/install/messages/lib/libmessages__rosidl_typesupport_fastrtps_c.so\n'}
[1.053055] (messages) StdoutLine: {'line': b'-- Up-to-date: /home/dom/Cerberus/install/messages/include/messages\n'}
[1.053128] (messages) StdoutLine: {'line': b'-- Up-to-date: /home/dom/Cerberus/install/messages/include/messages/msg\n'}
[1.053201] (messages) StdoutLine: {'line': b'-- Up-to-date: /home/dom/Cerberus/install/messages/include/messages/msg/dds_fastrtps\n'}
[1.053261] (messages) StdoutLine: {'line': b'-- Up-to-date: /home/dom/Cerberus/install/messages/include/messages/msg/rosidl_typesupport_fastrtps_cpp__visibility_control.h\n'}
[1.053324] (messages) StdoutLine: {'line': b'-- Up-to-date: /home/dom/Cerberus/install/messages/include/messages/msg/img__rosidl_typesupport_fastrtps_cpp.hpp\n'}
[1.053409] (messages) StdoutLine: {'line': b'-- Up-to-date: /home/dom/Cerberus/install/messages/lib/libmessages__rosidl_typesupport_fastrtps_cpp.so\n'}
[1.053502] (messages) StdoutLine: {'line': b'-- Up-to-date: /home/dom/Cerberus/install/messages/include/messages\n'}
[1.053583] (messages) StdoutLine: {'line': b'-- Up-to-date: /home/dom/Cerberus/install/messages/include/messages/msg\n'}
[1.053644] (messages) StdoutLine: {'line': b'-- Up-to-date: /home/dom/Cerberus/install/messages/include/messages/msg/img__type_support.c\n'}
[1.053708] (messages) StdoutLine: {'line': b'-- Up-to-date: /home/dom/Cerberus/install/messages/include/messages/msg/img__rosidl_typesupport_introspection_c.h\n'}
[1.053767] (messages) StdoutLine: {'line': b'-- Up-to-date: /home/dom/Cerberus/install/messages/include/messages/msg/rosidl_typesupport_introspection_c__visibility_control.h\n'}
[1.053844] (messages) StdoutLine: {'line': b'-- Up-to-date: /home/dom/Cerberus/install/messages/lib/libmessages__rosidl_typesupport_introspection_c.so\n'}
[1.054135] (messages) StdoutLine: {'line': b'-- Up-to-date: /home/dom/Cerberus/install/messages/include/messages\n'}
[1.054214] (messages) StdoutLine: {'line': b'-- Up-to-date: /home/dom/Cerberus/install/messages/include/messages/msg\n'}
[1.054313] (messages) StdoutLine: {'line': b'-- Up-to-date: /home/dom/Cerberus/install/messages/include/messages/msg/rosidl_typesupport_opensplice_c__visibility_control.h\n'}
[1.054373] (messages) StdoutLine: {'line': b'-- Up-to-date: /home/dom/Cerberus/install/messages/include/messages/msg/dds_opensplice_c\n'}
[1.054437] (messages) StdoutLine: {'line': b'-- Up-to-date: /home/dom/Cerberus/install/messages/include/messages/msg/img__rosidl_typesupport_opensplice_c.h\n'}
[1.054584] (messages) StdoutLine: {'line': b'-- Up-to-date: /home/dom/Cerberus/install/messages/lib/libmessages__rosidl_typesupport_opensplice_c.so\n'}
[1.054874] (messages) StdoutLine: {'line': b'-- Up-to-date: /home/dom/Cerberus/install/messages/share/messages/msg/dds_opensplice\n'}
[1.055890] (messages) StdoutLine: {'line': b'-- Up-to-date: /home/dom/Cerberus/install/messages/share/messages/msg/dds_opensplice/Img_.idl\n'}
[1.056119] (messages) StdoutLine: {'line': b'-- Up-to-date: /home/dom/Cerberus/install/messages/include/messages\n'}
[1.056258] (messages) StdoutLine: {'line': b'-- Up-to-date: /home/dom/Cerberus/install/messages/include/messages/msg\n'}
[1.056450] (messages) StdoutLine: {'line': b'-- Up-to-date: /home/dom/Cerberus/install/messages/include/messages/msg/dds_opensplice\n'}
[1.056582] (messages) StdoutLine: {'line': b'-- Up-to-date: /home/dom/Cerberus/install/messages/include/messages/msg/dds_opensplice/Img_Dcps_impl.h\n'}
[1.056736] (messages) StdoutLine: {'line': b'-- Up-to-date: /home/dom/Cerberus/install/messages/include/messages/msg/dds_opensplice/Img_.h\n'}
[1.056856] (messages) StdoutLine: {'line': b'-- Up-to-date: /home/dom/Cerberus/install/messages/include/messages/msg/dds_opensplice/Img_Dcps.h\n'}
[1.056975] (messages) StdoutLine: {'line': b'-- Up-to-date: /home/dom/Cerberus/install/messages/include/messages/msg/dds_opensplice/Img_SplDcps.h\n'}
[1.057110] (messages) StdoutLine: {'line': b'-- Up-to-date: /home/dom/Cerberus/install/messages/include/messages/msg/dds_opensplice/ccpp_Img_.h\n'}
[1.057231] (messages) StdoutLine: {'line': b'-- Up-to-date: /home/dom/Cerberus/install/messages/include/messages/msg/img__rosidl_typesupport_opensplice_cpp.hpp\n'}
[1.057355] (messages) StdoutLine: {'line': b'-- Up-to-date: /home/dom/Cerberus/install/messages/include/messages/msg/rosidl_typesupport_opensplice_cpp__visibility_control.h\n'}
[1.057485] (messages) StdoutLine: {'line': b'-- Up-to-date: /home/dom/Cerberus/install/messages/lib/libmessages__rosidl_typesupport_opensplice_cpp.so\n'}
[1.057608] (messages) StdoutLine: {'line': b'-- Up-to-date: /home/dom/Cerberus/install/messages/include/messages\n'}
[1.057725] (messages) StdoutLine: {'line': b'-- Up-to-date: /home/dom/Cerberus/install/messages/include/messages/msg\n'}
[1.057845] (messages) StdoutLine: {'line': b'-- Up-to-date: /home/dom/Cerberus/install/messages/include/messages/msg/img__type_support.cpp\n'}
[1.057968] (messages) StdoutLine: {'line': b'-- Up-to-date: /home/dom/Cerberus/install/messages/include/messages/msg/img__rosidl_typesupport_introspection_cpp.hpp\n'}
[1.058091] (messages) StdoutLine: {'line': b'-- Up-to-date: /home/dom/Cerberus/install/messages/lib/libmessages__rosidl_typesupport_introspection_cpp.so\n'}
[1.058213] (messages) StdoutLine: {'line': b'-- Up-to-date: /home/dom/Cerberus/install/messages/share/messages/environment/pythonpath.sh\n'}
[1.058330] (messages) StdoutLine: {'line': b'-- Up-to-date: /home/dom/Cerberus/install/messages/lib/python3.6/site-packages/messages/__init__.py\n'}
[1.070272] (tutorial_interfaces) StdoutLine: {'line': b'-- Up-to-date: /home/dom/Cerberus/install/tutorial_interfaces/lib/python3.6/site-packages/tutorial_interfaces/msg\n'}
[1.070459] (tutorial_interfaces) StdoutLine: {'line': b'-- Up-to-date: /home/dom/Cerberus/install/tutorial_interfaces/lib/python3.6/site-packages/tutorial_interfaces/msg/_num.py\n'}
[1.070536] (tutorial_interfaces) StdoutLine: {'line': b'-- Up-to-date: /home/dom/Cerberus/install/tutorial_interfaces/lib/python3.6/site-packages/tutorial_interfaces/msg/_num_s.c\n'}
[1.070603] (tutorial_interfaces) StdoutLine: {'line': b'-- Up-to-date: /home/dom/Cerberus/install/tutorial_interfaces/lib/python3.6/site-packages/tutorial_interfaces/msg/__init__.py\n'}
[1.070703] (tutorial_interfaces) StdoutLine: {'line': b'-- Up-to-date: /home/dom/Cerberus/install/tutorial_interfaces/lib/python3.6/site-packages/tutorial_interfaces/tutorial_interfaces_s__rosidl_typesupport_c.cpython-36m-x86_64-linux-gnu.so\n'}
[1.071329] (tutorial_interfaces) StdoutLine: {'line': b'-- Up-to-date: /home/dom/Cerberus/install/tutorial_interfaces/lib/python3.6/site-packages/tutorial_interfaces/tutorial_interfaces_s__rosidl_typesupport_fastrtps_c.cpython-36m-x86_64-linux-gnu.so\n'}
[1.072083] (tutorial_interfaces) StdoutLine: {'line': b'-- Up-to-date: /home/dom/Cerberus/install/tutorial_interfaces/lib/python3.6/site-packages/tutorial_interfaces/tutorial_interfaces_s__rosidl_typesupport_opensplice_c.cpython-36m-x86_64-linux-gnu.so\n'}
[1.072544] (tutorial_interfaces) StdoutLine: {'line': b'-- Up-to-date: /home/dom/Cerberus/install/tutorial_interfaces/lib/libtutorial_interfaces__python.so\n'}
[1.072750] (tutorial_interfaces) StdoutLine: {'line': b'-- Up-to-date: /home/dom/Cerberus/install/tutorial_interfaces/share/tutorial_interfaces/msg/Num.idl\n'}
[1.072974] (tutorial_interfaces) StdoutLine: {'line': b'-- Up-to-date: /home/dom/Cerberus/install/tutorial_interfaces/share/tutorial_interfaces/msg/Num.msg\n'}
[1.073128] (tutorial_interfaces) StdoutLine: {'line': b'-- Up-to-date: /home/dom/Cerberus/install/tutorial_interfaces/share/ament_index/resource_index/package_run_dependencies/tutorial_interfaces\n'}
[1.073274] (tutorial_interfaces) StdoutLine: {'line': b'-- Up-to-date: /home/dom/Cerberus/install/tutorial_interfaces/share/ament_index/resource_index/parent_prefix_path/tutorial_interfaces\n'}
[1.073446] (tutorial_interfaces) StdoutLine: {'line': b'-- Up-to-date: /home/dom/Cerberus/install/tutorial_interfaces/share/tutorial_interfaces/environment/ament_prefix_path.sh\n'}
[1.073518] (tutorial_interfaces) StdoutLine: {'line': b'-- Up-to-date: /home/dom/Cerberus/install/tutorial_interfaces/share/tutorial_interfaces/environment/path.sh\n'}
[1.073584] (tutorial_interfaces) StdoutLine: {'line': b'-- Up-to-date: /home/dom/Cerberus/install/tutorial_interfaces/share/tutorial_interfaces/local_setup.bash\n'}
[1.073656] (tutorial_interfaces) StdoutLine: {'line': b'-- Up-to-date: /home/dom/Cerberus/install/tutorial_interfaces/share/tutorial_interfaces/local_setup.sh\n'}
[1.073721] (tutorial_interfaces) StdoutLine: {'line': b'-- Up-to-date: /home/dom/Cerberus/install/tutorial_interfaces/share/tutorial_interfaces/local_setup.zsh\n'}
[1.073784] (tutorial_interfaces) StdoutLine: {'line': b'-- Up-to-date: /home/dom/Cerberus/install/tutorial_interfaces/share/ament_index/resource_index/packages/tutorial_interfaces\n'}
[1.073849] (tutorial_interfaces) StdoutLine: {'line': b'-- Up-to-date: /home/dom/Cerberus/install/tutorial_interfaces/share/tutorial_interfaces/cmake/rosidl_cmake-extras.cmake\n'}
[1.073912] (tutorial_interfaces) StdoutLine: {'line': b'-- Up-to-date: /home/dom/Cerberus/install/tutorial_interfaces/share/tutorial_interfaces/cmake/ament_cmake_export_libraries-extras.cmake\n'}
[1.073974] (tutorial_interfaces) StdoutLine: {'line': b'-- Up-to-date: /home/dom/Cerberus/install/tutorial_interfaces/share/tutorial_interfaces/cmake/ament_cmake_export_include_directories-extras.cmake\n'}
[1.074037] (tutorial_interfaces) StdoutLine: {'line': b'-- Up-to-date: /home/dom/Cerberus/install/tutorial_interfaces/share/tutorial_interfaces/cmake/rosidl_cmake_export_typesupport_libraries-extras.cmake\n'}
[1.074099] (tutorial_interfaces) StdoutLine: {'line': b'-- Up-to-date: /home/dom/Cerberus/install/tutorial_interfaces/share/tutorial_interfaces/cmake/tutorial_interfacesConfig.cmake\n'}
[1.074161] (tutorial_interfaces) StdoutLine: {'line': b'-- Up-to-date: /home/dom/Cerberus/install/tutorial_interfaces/share/tutorial_interfaces/cmake/tutorial_interfacesConfig-version.cmake\n'}
[1.074228] (tutorial_interfaces) StdoutLine: {'line': b'-- Up-to-date: /home/dom/Cerberus/install/tutorial_interfaces/share/tutorial_interfaces/package.xml\n'}
[1.076438] (tutorial_interfaces) CommandEnded: {'returncode': 0}
[1.091998] (tutorial_interfaces) JobEnded: {'identifier': 'tutorial_interfaces', 'rc': 0}
[1.092628] (messages) StdoutLine: {'line': b'-- Up-to-date: /home/dom/Cerberus/install/messages/lib/python3.6/site-packages/messages/msg\n'}
[1.092769] (messages) StdoutLine: {'line': b'-- Up-to-date: /home/dom/Cerberus/install/messages/lib/python3.6/site-packages/messages/msg/_img_s.c\n'}
[1.092839] (messages) StdoutLine: {'line': b'-- Up-to-date: /home/dom/Cerberus/install/messages/lib/python3.6/site-packages/messages/msg/_img.py\n'}
[1.092903] (messages) StdoutLine: {'line': b'-- Up-to-date: /home/dom/Cerberus/install/messages/lib/python3.6/site-packages/messages/msg/__init__.py\n'}
[1.093087] (messages) StdoutLine: {'line': b'-- Up-to-date: /home/dom/Cerberus/install/messages/lib/python3.6/site-packages/messages/messages_s__rosidl_typesupport_c.cpython-36m-x86_64-linux-gnu.so\n'}
[1.093770] (messages) StdoutLine: {'line': b'-- Up-to-date: /home/dom/Cerberus/install/messages/lib/python3.6/site-packages/messages/messages_s__rosidl_typesupport_fastrtps_c.cpython-36m-x86_64-linux-gnu.so\n'}
[1.094468] (messages) StdoutLine: {'line': b'-- Up-to-date: /home/dom/Cerberus/install/messages/lib/python3.6/site-packages/messages/messages_s__rosidl_typesupport_opensplice_c.cpython-36m-x86_64-linux-gnu.so\n'}
[1.095035] (messages) StdoutLine: {'line': b'-- Up-to-date: /home/dom/Cerberus/install/messages/lib/libmessages__python.so\n'}
[1.095306] (messages) StdoutLine: {'line': b'-- Up-to-date: /home/dom/Cerberus/install/messages/share/messages/msg/Img.idl\n'}
[1.095455] (messages) StdoutLine: {'line': b'-- Up-to-date: /home/dom/Cerberus/install/messages/share/messages/msg/Img.msg\n'}
[1.095560] (messages) StdoutLine: {'line': b'-- Up-to-date: /home/dom/Cerberus/install/messages/share/ament_index/resource_index/package_run_dependencies/messages\n'}
[1.095659] (messages) StdoutLine: {'line': b'-- Up-to-date: /home/dom/Cerberus/install/messages/share/ament_index/resource_index/parent_prefix_path/messages\n'}
[1.095776] (messages) StdoutLine: {'line': b'-- Up-to-date: /home/dom/Cerberus/install/messages/share/messages/environment/ament_prefix_path.sh\n'}
[1.095885] (messages) StdoutLine: {'line': b'-- Up-to-date: /home/dom/Cerberus/install/messages/share/messages/environment/path.sh\n'}
[1.096000] (messages) StdoutLine: {'line': b'-- Up-to-date: /home/dom/Cerberus/install/messages/share/messages/local_setup.bash\n'}
[1.096096] (messages) StdoutLine: {'line': b'-- Up-to-date: /home/dom/Cerberus/install/messages/share/messages/local_setup.sh\n'}
[1.096191] (messages) StdoutLine: {'line': b'-- Up-to-date: /home/dom/Cerberus/install/messages/share/messages/local_setup.zsh\n'}
[1.096309] (messages) StdoutLine: {'line': b'-- Up-to-date: /home/dom/Cerberus/install/messages/share/ament_index/resource_index/packages/messages\n'}
[1.096422] (messages) StdoutLine: {'line': b'-- Up-to-date: /home/dom/Cerberus/install/messages/share/messages/cmake/rosidl_cmake-extras.cmake\n'}
[1.096510] (messages) StdoutLine: {'line': b'-- Up-to-date: /home/dom/Cerberus/install/messages/share/messages/cmake/ament_cmake_export_libraries-extras.cmake\n'}
[1.096571] (messages) StdoutLine: {'line': b'-- Up-to-date: /home/dom/Cerberus/install/messages/share/messages/cmake/ament_cmake_export_include_directories-extras.cmake\n'}
[1.096631] (messages) StdoutLine: {'line': b'-- Up-to-date: /home/dom/Cerberus/install/messages/share/messages/cmake/rosidl_cmake_export_typesupport_libraries-extras.cmake\n'}
[1.096694] (messages) StdoutLine: {'line': b'-- Up-to-date: /home/dom/Cerberus/install/messages/share/messages/cmake/messagesConfig.cmake\n'}
[1.096754] (messages) StdoutLine: {'line': b'-- Up-to-date: /home/dom/Cerberus/install/messages/share/messages/cmake/messagesConfig-version.cmake\n'}
[1.096812] (messages) StdoutLine: {'line': b'-- Up-to-date: /home/dom/Cerberus/install/messages/share/messages/package.xml\n'}
[1.099509] (messages) CommandEnded: {'returncode': 0}
[1.105002] (-) TimerEvent: {}
[1.113747] (messages) JobEnded: {'identifier': 'messages', 'rc': 0}
[1.115191] (-) EventReactorShutdown: {}
