[0.338s] [35m[1mScanning dependencies of target central_main[0m
[0.384s] [ 50%] [32mBuilding CXX object CMakeFiles/central_main.dir/src/central_main.cpp.o[0m
[1.984s] [100%] [32m[1mLinking CXX executable central_main[0m
[2.059s] [100%] Built target central_main
[2.269s] [100%] Built target central_main
[2.340s] [36mInstall the project...[0m
[2.374s] -- Install configuration: ""
[2.375s] -- Installing: /home/dom/Cerberus/install/central/lib/central/central_main
[2.377s] -- Set runtime path of "/home/dom/Cerberus/install/central/lib/central/central_main" to ""
[2.378s] -- Up-to-date: /home/dom/Cerberus/install/central/share/ament_index/resource_index/package_run_dependencies/central
[2.379s] -- Up-to-date: /home/dom/Cerberus/install/central/share/ament_index/resource_index/parent_prefix_path/central
[2.379s] -- Up-to-date: /home/dom/Cerberus/install/central/share/central/environment/ament_prefix_path.sh
[2.380s] -- Up-to-date: /home/dom/Cerberus/install/central/share/central/environment/path.sh
[2.380s] -- Up-to-date: /home/dom/Cerberus/install/central/share/central/local_setup.bash
[2.380s] -- Up-to-date: /home/dom/Cerberus/install/central/share/central/local_setup.sh
[2.380s] -- Up-to-date: /home/dom/Cerberus/install/central/share/central/local_setup.zsh
[2.381s] -- Up-to-date: /home/dom/Cerberus/install/central/share/ament_index/resource_index/packages/central
[2.381s] -- Up-to-date: /home/dom/Cerberus/install/central/share/central/cmake/centralConfig.cmake
[2.382s] -- Up-to-date: /home/dom/Cerberus/install/central/share/central/cmake/centralConfig-version.cmake
[2.382s] -- Up-to-date: /home/dom/Cerberus/install/central/share/central/package.xml
