[0.218s] Invoking command in '/home/dom/Cerberus/build/central': CMAKE_PREFIX_PATH=/opt/ros/dashing /usr/bin/cmake --build /home/dom/Cerberus/build/central -- -j12 -l12
[0.309s] [100%] Built target central_controller
[0.318s] Invoked command in '/home/dom/Cerberus/build/central' returned '0': CMAKE_PREFIX_PATH=/opt/ros/dashing /usr/bin/cmake --build /home/dom/Cerberus/build/central -- -j12 -l12
[0.348s] Invoking command in '/home/dom/Cerberus/build/central': CMAKE_PREFIX_PATH=/opt/ros/dashing /usr/bin/cmake --build /home/dom/Cerberus/build/central --target install -- -j12 -l12
[0.388s] [100%] Built target central_controller
[0.404s] [36mInstall the project...[0m
[0.412s] -- Install configuration: ""
[0.413s] -- Up-to-date: /home/dom/Cerberus/install/central/lib/central/central_controller
[0.413s] -- Up-to-date: /home/dom/Cerberus/install/central/share/ament_index/resource_index/package_run_dependencies/central
[0.414s] -- Up-to-date: /home/dom/Cerberus/install/central/share/ament_index/resource_index/parent_prefix_path/central
[0.414s] -- Up-to-date: /home/dom/Cerberus/install/central/share/central/environment/ament_prefix_path.sh
[0.414s] -- Up-to-date: /home/dom/Cerberus/install/central/share/central/environment/path.sh
[0.414s] -- Up-to-date: /home/dom/Cerberus/install/central/share/central/local_setup.bash
[0.414s] -- Up-to-date: /home/dom/Cerberus/install/central/share/central/local_setup.sh
[0.414s] -- Up-to-date: /home/dom/Cerberus/install/central/share/central/local_setup.zsh
[0.415s] -- Up-to-date: /home/dom/Cerberus/install/central/share/ament_index/resource_index/packages/central
[0.415s] -- Up-to-date: /home/dom/Cerberus/install/central/share/central/cmake/centralConfig.cmake
[0.415s] -- Up-to-date: /home/dom/Cerberus/install/central/share/central/cmake/centralConfig-version.cmake
[0.415s] -- Up-to-date: /home/dom/Cerberus/install/central/share/central/package.xml
[0.417s] Invoked command in '/home/dom/Cerberus/build/central' returned '0': CMAKE_PREFIX_PATH=/opt/ros/dashing /usr/bin/cmake --build /home/dom/Cerberus/build/central --target install -- -j12 -l12
