[0.229s] Invoking command in '/home/dom/Cerberus/build/tutorial_interfaces': CMAKE_PREFIX_PATH=/opt/ros/dashing CONDA_PROMPT_MODIFIER=(base) /usr/bin/cmake --build /home/dom/Cerberus/build/tutorial_interfaces -- -j12 -l12
[0.316s] [  1%] Built target tutorial_interfaces__dds_connext_idl
[0.321s] [  3%] Built target tutorial_interfaces__dds_opensplice_idl
[0.324s] [  4%] Built target tutorial_interfaces__cpp
[0.326s] [  9%] Built target tutorial_interfaces__rosidl_generator_c
[0.372s] [ 13%] Built target tutorial_interfaces__rosidl_typesupport_cpp
[0.374s] [ 15%] [32m[1mLinking CXX shared library libtutorial_interfaces__rosidl_typesupport_fastrtps_cpp.so[0m
[0.377s] [ 20%] Built target tutorial_interfaces__rosidl_typesupport_c
[0.380s] [ 24%] Built target tutorial_interfaces__rosidl_typesupport_introspection_cpp
[0.381s] [ 29%] Built target tutorial_interfaces__rosidl_typesupport_introspection_c
[0.386s] [ 41%] Built target tutorial_interfaces__rosidl_typesupport_opensplice_cpp
[0.397s] [ 52%] Built target tutorial_interfaces__rosidl_typesupport_connext_cpp
[0.433s] [ 66%] Built target tutorial_interfaces__rosidl_typesupport_opensplice_c
[0.448s] [ 78%] Built target tutorial_interfaces__rosidl_typesupport_connext_c
[0.490s] [ 81%] Built target tutorial_interfaces__rosidl_typesupport_fastrtps_cpp
[0.517s] [ 83%] [32m[1mLinking CXX shared library libtutorial_interfaces__rosidl_typesupport_fastrtps_c.so[0m
[0.597s] [ 86%] Built target tutorial_interfaces__rosidl_typesupport_fastrtps_c
[0.616s] [ 86%] Built target tutorial_interfaces
[0.636s] [ 87%] Built target tutorial_interfaces__py
[0.646s] [35m[1mScanning dependencies of target tutorial_interfaces__python[0m
[0.672s] [ 89%] [32mBuilding C object CMakeFiles/tutorial_interfaces__python.dir/rosidl_generator_py/tutorial_interfaces/msg/_num_s.c.o[0m
[0.826s] [ 90%] [32m[1mLinking C shared library rosidl_generator_py/tutorial_interfaces/libtutorial_interfaces__python.so[0m
[0.861s] [ 90%] Built target tutorial_interfaces__python
[0.874s] [35m[1mScanning dependencies of target tutorial_interfaces__rosidl_typesupport_fastrtps_c__pyext[0m
[0.878s] [35m[1mScanning dependencies of target tutorial_interfaces__rosidl_typesupport_c__pyext[0m
[0.878s] [35m[1mScanning dependencies of target tutorial_interfaces__rosidl_typesupport_opensplice_c__pyext[0m
[0.899s] [ 92%] [32mBuilding C object CMakeFiles/tutorial_interfaces__rosidl_typesupport_fastrtps_c__pyext.dir/rosidl_generator_py/tutorial_interfaces/_tutorial_interfaces_s.ep.rosidl_typesupport_fastrtps_c.c.o[0m
[0.902s] [ 93%] [32mBuilding C object CMakeFiles/tutorial_interfaces__rosidl_typesupport_opensplice_c__pyext.dir/rosidl_generator_py/tutorial_interfaces/_tutorial_interfaces_s.ep.rosidl_typesupport_opensplice_c.c.o[0m
[0.902s] [ 95%] [32mBuilding C object CMakeFiles/tutorial_interfaces__rosidl_typesupport_c__pyext.dir/rosidl_generator_py/tutorial_interfaces/_tutorial_interfaces_s.ep.rosidl_typesupport_c.c.o[0m
[0.969s] [ 96%] [32m[1mLinking C shared library rosidl_generator_py/tutorial_interfaces/tutorial_interfaces_s__rosidl_typesupport_opensplice_c.cpython-36m-x86_64-linux-gnu.so[0m
[0.970s] [ 98%] [32m[1mLinking C shared library rosidl_generator_py/tutorial_interfaces/tutorial_interfaces_s__rosidl_typesupport_fastrtps_c.cpython-36m-x86_64-linux-gnu.so[0m
[1.003s] [100%] [32m[1mLinking C shared library rosidl_generator_py/tutorial_interfaces/tutorial_interfaces_s__rosidl_typesupport_c.cpython-36m-x86_64-linux-gnu.so[0m
[1.031s] [100%] Built target tutorial_interfaces__rosidl_typesupport_opensplice_c__pyext
[1.032s] [100%] Built target tutorial_interfaces__rosidl_typesupport_fastrtps_c__pyext
[1.038s] [100%] Built target tutorial_interfaces__rosidl_typesupport_c__pyext
[1.049s] Invoked command in '/home/dom/Cerberus/build/tutorial_interfaces' returned '0': CMAKE_PREFIX_PATH=/opt/ros/dashing CONDA_PROMPT_MODIFIER=(base) /usr/bin/cmake --build /home/dom/Cerberus/build/tutorial_interfaces -- -j12 -l12
[1.123s] Invoking command in '/home/dom/Cerberus/build/tutorial_interfaces': CMAKE_PREFIX_PATH=/opt/ros/dashing CONDA_PROMPT_MODIFIER=(base) /usr/bin/cmake --build /home/dom/Cerberus/build/tutorial_interfaces --target install -- -j12 -l12
[1.179s] [  1%] Built target tutorial_interfaces__dds_opensplice_idl
[1.179s] [  3%] Built target tutorial_interfaces__cpp
[1.180s] [  4%] Built target tutorial_interfaces__dds_connext_idl
[1.181s] [  9%] Built target tutorial_interfaces__rosidl_generator_c
[1.218s] [ 13%] Built target tutorial_interfaces__rosidl_typesupport_cpp
[1.221s] [ 18%] Built target tutorial_interfaces__rosidl_typesupport_introspection_cpp
[1.225s] [ 23%] Built target tutorial_interfaces__rosidl_typesupport_introspection_c
[1.234s] [ 35%] Built target tutorial_interfaces__rosidl_typesupport_opensplice_cpp
[1.235s] [ 40%] Built target tutorial_interfaces__rosidl_typesupport_fastrtps_cpp
[1.235s] [ 44%] Built target tutorial_interfaces__rosidl_typesupport_c
[1.238s] [ 55%] Built target tutorial_interfaces__rosidl_typesupport_connext_cpp
[1.264s] [ 60%] Built target tutorial_interfaces__rosidl_typesupport_fastrtps_c
[1.274s] [ 73%] Built target tutorial_interfaces__rosidl_typesupport_opensplice_c
[1.279s] [ 86%] Built target tutorial_interfaces__rosidl_typesupport_connext_c
[1.297s] [ 86%] Built target tutorial_interfaces
[1.315s] [ 87%] Built target tutorial_interfaces__py
[1.338s] [ 90%] Built target tutorial_interfaces__python
[1.364s] [ 93%] Built target tutorial_interfaces__rosidl_typesupport_opensplice_c__pyext
[1.365s] [ 96%] Built target tutorial_interfaces__rosidl_typesupport_c__pyext
[1.368s] [100%] Built target tutorial_interfaces__rosidl_typesupport_fastrtps_c__pyext
[1.387s] [36mInstall the project...[0m
[1.396s] -- Install configuration: ""
[1.397s] -- Up-to-date: /home/dom/Cerberus/install/tutorial_interfaces/share/ament_index/resource_index/rosidl_interfaces/tutorial_interfaces
[1.397s] -- Up-to-date: /home/dom/Cerberus/install/tutorial_interfaces/lib/libtutorial_interfaces__rosidl_typesupport_c.so
[1.397s] -- Up-to-date: /home/dom/Cerberus/install/tutorial_interfaces/share/tutorial_interfaces/environment/library_path.sh
[1.397s] -- Up-to-date: /home/dom/Cerberus/install/tutorial_interfaces/lib/libtutorial_interfaces__rosidl_typesupport_cpp.so
[1.398s] -- Up-to-date: /home/dom/Cerberus/install/tutorial_interfaces/include/tutorial_interfaces
[1.398s] -- Up-to-date: /home/dom/Cerberus/install/tutorial_interfaces/include/tutorial_interfaces/msg
[1.398s] -- Up-to-date: /home/dom/Cerberus/install/tutorial_interfaces/include/tutorial_interfaces/msg/dds_connext
[1.398s] -- Up-to-date: /home/dom/Cerberus/install/tutorial_interfaces/include/tutorial_interfaces/msg/rosidl_typesupport_connext_c__visibility_control.h
[1.398s] -- Up-to-date: /home/dom/Cerberus/install/tutorial_interfaces/include/tutorial_interfaces/msg/num__rosidl_typesupport_connext_c.h
[1.398s] -- Up-to-date: /home/dom/Cerberus/install/tutorial_interfaces/lib/libtutorial_interfaces__rosidl_typesupport_connext_c.so
[1.399s] -- Up-to-date: /home/dom/Cerberus/install/tutorial_interfaces/include/tutorial_interfaces
[1.399s] -- Up-to-date: /home/dom/Cerberus/install/tutorial_interfaces/include/tutorial_interfaces/msg
[1.399s] -- Up-to-date: /home/dom/Cerberus/install/tutorial_interfaces/include/tutorial_interfaces/msg/num__functions.h
[1.399s] -- Up-to-date: /home/dom/Cerberus/install/tutorial_interfaces/include/tutorial_interfaces/msg/rosidl_generator_c__visibility_control.h
[1.399s] -- Up-to-date: /home/dom/Cerberus/install/tutorial_interfaces/include/tutorial_interfaces/msg/num__functions.c
[1.399s] -- Up-to-date: /home/dom/Cerberus/install/tutorial_interfaces/include/tutorial_interfaces/msg/num.h
[1.399s] -- Up-to-date: /home/dom/Cerberus/install/tutorial_interfaces/include/tutorial_interfaces/msg/num__type_support.h
[1.399s] -- Up-to-date: /home/dom/Cerberus/install/tutorial_interfaces/include/tutorial_interfaces/msg/num__struct.h
[1.399s] -- Up-to-date: /home/dom/Cerberus/install/tutorial_interfaces/lib/libtutorial_interfaces__rosidl_generator_c.so
[1.400s] -- Up-to-date: /home/dom/Cerberus/install/tutorial_interfaces/share/tutorial_interfaces/msg/dds_connext
[1.400s] -- Up-to-date: /home/dom/Cerberus/install/tutorial_interfaces/share/tutorial_interfaces/msg/dds_connext/Num_.idl
[1.400s] -- Up-to-date: /home/dom/Cerberus/install/tutorial_interfaces/include/tutorial_interfaces
[1.400s] -- Up-to-date: /home/dom/Cerberus/install/tutorial_interfaces/include/tutorial_interfaces/msg
[1.400s] -- Up-to-date: /home/dom/Cerberus/install/tutorial_interfaces/include/tutorial_interfaces/msg/dds_connext
[1.400s] -- Up-to-date: /home/dom/Cerberus/install/tutorial_interfaces/include/tutorial_interfaces/msg/dds_connext/Num_Support.cxx
[1.400s] -- Up-to-date: /home/dom/Cerberus/install/tutorial_interfaces/include/tutorial_interfaces/msg/dds_connext/Num_Support.h
[1.400s] -- Up-to-date: /home/dom/Cerberus/install/tutorial_interfaces/include/tutorial_interfaces/msg/dds_connext/Num_Plugin.cxx
[1.400s] -- Up-to-date: /home/dom/Cerberus/install/tutorial_interfaces/include/tutorial_interfaces/msg/dds_connext/Num_.cxx
[1.400s] -- Up-to-date: /home/dom/Cerberus/install/tutorial_interfaces/include/tutorial_interfaces/msg/dds_connext/Num_Plugin.h
[1.400s] -- Up-to-date: /home/dom/Cerberus/install/tutorial_interfaces/include/tutorial_interfaces/msg/dds_connext/Num_.h
[1.400s] -- Up-to-date: /home/dom/Cerberus/install/tutorial_interfaces/include/tutorial_interfaces/msg/rosidl_typesupport_connext_cpp__visibility_control.h
[1.400s] -- Up-to-date: /home/dom/Cerberus/install/tutorial_interfaces/include/tutorial_interfaces/msg/num__rosidl_typesupport_connext_cpp.hpp
[1.400s] -- Up-to-date: /home/dom/Cerberus/install/tutorial_interfaces/lib/libtutorial_interfaces__rosidl_typesupport_connext_cpp.so
[1.401s] -- Up-to-date: /home/dom/Cerberus/install/tutorial_interfaces/include/tutorial_interfaces
[1.401s] -- Up-to-date: /home/dom/Cerberus/install/tutorial_interfaces/include/tutorial_interfaces/msg
[1.401s] -- Up-to-date: /home/dom/Cerberus/install/tutorial_interfaces/include/tutorial_interfaces/msg/num__traits.hpp
[1.401s] -- Up-to-date: /home/dom/Cerberus/install/tutorial_interfaces/include/tutorial_interfaces/msg/num__struct.hpp
[1.401s] -- Up-to-date: /home/dom/Cerberus/install/tutorial_interfaces/include/tutorial_interfaces/msg/num.hpp
[1.401s] -- Up-to-date: /home/dom/Cerberus/install/tutorial_interfaces/include/tutorial_interfaces
[1.401s] -- Up-to-date: /home/dom/Cerberus/install/tutorial_interfaces/include/tutorial_interfaces/msg
[1.401s] -- Up-to-date: /home/dom/Cerberus/install/tutorial_interfaces/include/tutorial_interfaces/msg/rosidl_typesupport_fastrtps_c__visibility_control.h
[1.401s] -- Up-to-date: /home/dom/Cerberus/install/tutorial_interfaces/include/tutorial_interfaces/msg/num__rosidl_typesupport_fastrtps_c.h
[1.401s] -- Installing: /home/dom/Cerberus/install/tutorial_interfaces/lib/libtutorial_interfaces__rosidl_typesupport_fastrtps_c.so
[1.402s] -- Set runtime path of "/home/dom/Cerberus/install/tutorial_interfaces/lib/libtutorial_interfaces__rosidl_typesupport_fastrtps_c.so" to ""
[1.402s] -- Up-to-date: /home/dom/Cerberus/install/tutorial_interfaces/include/tutorial_interfaces
[1.402s] -- Up-to-date: /home/dom/Cerberus/install/tutorial_interfaces/include/tutorial_interfaces/msg
[1.402s] -- Up-to-date: /home/dom/Cerberus/install/tutorial_interfaces/include/tutorial_interfaces/msg/dds_fastrtps
[1.402s] -- Up-to-date: /home/dom/Cerberus/install/tutorial_interfaces/include/tutorial_interfaces/msg/num__rosidl_typesupport_fastrtps_cpp.hpp
[1.402s] -- Up-to-date: /home/dom/Cerberus/install/tutorial_interfaces/include/tutorial_interfaces/msg/rosidl_typesupport_fastrtps_cpp__visibility_control.h
[1.402s] -- Installing: /home/dom/Cerberus/install/tutorial_interfaces/lib/libtutorial_interfaces__rosidl_typesupport_fastrtps_cpp.so
[1.403s] -- Set runtime path of "/home/dom/Cerberus/install/tutorial_interfaces/lib/libtutorial_interfaces__rosidl_typesupport_fastrtps_cpp.so" to ""
[1.403s] -- Up-to-date: /home/dom/Cerberus/install/tutorial_interfaces/include/tutorial_interfaces
[1.403s] -- Up-to-date: /home/dom/Cerberus/install/tutorial_interfaces/include/tutorial_interfaces/msg
[1.403s] -- Up-to-date: /home/dom/Cerberus/install/tutorial_interfaces/include/tutorial_interfaces/msg/rosidl_typesupport_introspection_c__visibility_control.h
[1.403s] -- Up-to-date: /home/dom/Cerberus/install/tutorial_interfaces/include/tutorial_interfaces/msg/num__type_support.c
[1.403s] -- Up-to-date: /home/dom/Cerberus/install/tutorial_interfaces/include/tutorial_interfaces/msg/num__rosidl_typesupport_introspection_c.h
[1.403s] -- Up-to-date: /home/dom/Cerberus/install/tutorial_interfaces/lib/libtutorial_interfaces__rosidl_typesupport_introspection_c.so
[1.404s] -- Up-to-date: /home/dom/Cerberus/install/tutorial_interfaces/include/tutorial_interfaces
[1.404s] -- Up-to-date: /home/dom/Cerberus/install/tutorial_interfaces/include/tutorial_interfaces/msg
[1.404s] -- Up-to-date: /home/dom/Cerberus/install/tutorial_interfaces/include/tutorial_interfaces/msg/num__rosidl_typesupport_opensplice_c.h
[1.404s] -- Up-to-date: /home/dom/Cerberus/install/tutorial_interfaces/include/tutorial_interfaces/msg/rosidl_typesupport_opensplice_c__visibility_control.h
[1.404s] -- Up-to-date: /home/dom/Cerberus/install/tutorial_interfaces/include/tutorial_interfaces/msg/dds_opensplice_c
[1.404s] -- Up-to-date: /home/dom/Cerberus/install/tutorial_interfaces/lib/libtutorial_interfaces__rosidl_typesupport_opensplice_c.so
[1.405s] -- Up-to-date: /home/dom/Cerberus/install/tutorial_interfaces/share/tutorial_interfaces/msg/dds_opensplice
[1.405s] -- Up-to-date: /home/dom/Cerberus/install/tutorial_interfaces/share/tutorial_interfaces/msg/dds_opensplice/Num_.idl
[1.405s] -- Up-to-date: /home/dom/Cerberus/install/tutorial_interfaces/include/tutorial_interfaces
[1.405s] -- Up-to-date: /home/dom/Cerberus/install/tutorial_interfaces/include/tutorial_interfaces/msg
[1.405s] -- Up-to-date: /home/dom/Cerberus/install/tutorial_interfaces/include/tutorial_interfaces/msg/dds_opensplice
[1.405s] -- Up-to-date: /home/dom/Cerberus/install/tutorial_interfaces/include/tutorial_interfaces/msg/dds_opensplice/ccpp_Num_.h
[1.405s] -- Up-to-date: /home/dom/Cerberus/install/tutorial_interfaces/include/tutorial_interfaces/msg/dds_opensplice/Num_Dcps_impl.h
[1.405s] -- Up-to-date: /home/dom/Cerberus/install/tutorial_interfaces/include/tutorial_interfaces/msg/dds_opensplice/Num_SplDcps.h
[1.405s] -- Up-to-date: /home/dom/Cerberus/install/tutorial_interfaces/include/tutorial_interfaces/msg/dds_opensplice/Num_Dcps.h
[1.405s] -- Up-to-date: /home/dom/Cerberus/install/tutorial_interfaces/include/tutorial_interfaces/msg/dds_opensplice/Num_.h
[1.405s] -- Up-to-date: /home/dom/Cerberus/install/tutorial_interfaces/include/tutorial_interfaces/msg/num__rosidl_typesupport_opensplice_cpp.hpp
[1.405s] -- Up-to-date: /home/dom/Cerberus/install/tutorial_interfaces/include/tutorial_interfaces/msg/rosidl_typesupport_opensplice_cpp__visibility_control.h
[1.406s] -- Up-to-date: /home/dom/Cerberus/install/tutorial_interfaces/lib/libtutorial_interfaces__rosidl_typesupport_opensplice_cpp.so
[1.406s] -- Up-to-date: /home/dom/Cerberus/install/tutorial_interfaces/include/tutorial_interfaces
[1.406s] -- Up-to-date: /home/dom/Cerberus/install/tutorial_interfaces/include/tutorial_interfaces/msg
[1.406s] -- Up-to-date: /home/dom/Cerberus/install/tutorial_interfaces/include/tutorial_interfaces/msg/num__type_support.cpp
[1.406s] -- Up-to-date: /home/dom/Cerberus/install/tutorial_interfaces/include/tutorial_interfaces/msg/num__rosidl_typesupport_introspection_cpp.hpp
[1.406s] -- Up-to-date: /home/dom/Cerberus/install/tutorial_interfaces/lib/libtutorial_interfaces__rosidl_typesupport_introspection_cpp.so
[1.406s] -- Up-to-date: /home/dom/Cerberus/install/tutorial_interfaces/share/tutorial_interfaces/environment/pythonpath.sh
[1.407s] -- Up-to-date: /home/dom/Cerberus/install/tutorial_interfaces/lib/python3.6/site-packages/tutorial_interfaces/__init__.py
[1.438s] -- Up-to-date: /home/dom/Cerberus/install/tutorial_interfaces/lib/python3.6/site-packages/tutorial_interfaces/msg
[1.438s] -- Up-to-date: /home/dom/Cerberus/install/tutorial_interfaces/lib/python3.6/site-packages/tutorial_interfaces/msg/_num.py
[1.439s] -- Up-to-date: /home/dom/Cerberus/install/tutorial_interfaces/lib/python3.6/site-packages/tutorial_interfaces/msg/_num_s.c
[1.439s] -- Up-to-date: /home/dom/Cerberus/install/tutorial_interfaces/lib/python3.6/site-packages/tutorial_interfaces/msg/__init__.py
[1.439s] -- Installing: /home/dom/Cerberus/install/tutorial_interfaces/lib/python3.6/site-packages/tutorial_interfaces/tutorial_interfaces_s__rosidl_typesupport_c.cpython-36m-x86_64-linux-gnu.so
[1.439s] -- Set runtime path of "/home/dom/Cerberus/install/tutorial_interfaces/lib/python3.6/site-packages/tutorial_interfaces/tutorial_interfaces_s__rosidl_typesupport_c.cpython-36m-x86_64-linux-gnu.so" to ""
[1.440s] -- Installing: /home/dom/Cerberus/install/tutorial_interfaces/lib/python3.6/site-packages/tutorial_interfaces/tutorial_interfaces_s__rosidl_typesupport_fastrtps_c.cpython-36m-x86_64-linux-gnu.so
[1.440s] -- Set runtime path of "/home/dom/Cerberus/install/tutorial_interfaces/lib/python3.6/site-packages/tutorial_interfaces/tutorial_interfaces_s__rosidl_typesupport_fastrtps_c.cpython-36m-x86_64-linux-gnu.so" to ""
[1.441s] -- Installing: /home/dom/Cerberus/install/tutorial_interfaces/lib/python3.6/site-packages/tutorial_interfaces/tutorial_interfaces_s__rosidl_typesupport_opensplice_c.cpython-36m-x86_64-linux-gnu.so
[1.442s] -- Set runtime path of "/home/dom/Cerberus/install/tutorial_interfaces/lib/python3.6/site-packages/tutorial_interfaces/tutorial_interfaces_s__rosidl_typesupport_opensplice_c.cpython-36m-x86_64-linux-gnu.so" to ""
[1.442s] -- Installing: /home/dom/Cerberus/install/tutorial_interfaces/lib/libtutorial_interfaces__python.so
[1.442s] -- Set runtime path of "/home/dom/Cerberus/install/tutorial_interfaces/lib/libtutorial_interfaces__python.so" to ""
[1.442s] -- Up-to-date: /home/dom/Cerberus/install/tutorial_interfaces/share/tutorial_interfaces/msg/Num.idl
[1.443s] -- Up-to-date: /home/dom/Cerberus/install/tutorial_interfaces/share/tutorial_interfaces/msg/Num.msg
[1.443s] -- Up-to-date: /home/dom/Cerberus/install/tutorial_interfaces/share/ament_index/resource_index/package_run_dependencies/tutorial_interfaces
[1.443s] -- Up-to-date: /home/dom/Cerberus/install/tutorial_interfaces/share/ament_index/resource_index/parent_prefix_path/tutorial_interfaces
[1.443s] -- Up-to-date: /home/dom/Cerberus/install/tutorial_interfaces/share/tutorial_interfaces/environment/ament_prefix_path.sh
[1.443s] -- Up-to-date: /home/dom/Cerberus/install/tutorial_interfaces/share/tutorial_interfaces/environment/path.sh
[1.443s] -- Up-to-date: /home/dom/Cerberus/install/tutorial_interfaces/share/tutorial_interfaces/local_setup.bash
[1.443s] -- Up-to-date: /home/dom/Cerberus/install/tutorial_interfaces/share/tutorial_interfaces/local_setup.sh
[1.444s] -- Up-to-date: /home/dom/Cerberus/install/tutorial_interfaces/share/tutorial_interfaces/local_setup.zsh
[1.444s] -- Up-to-date: /home/dom/Cerberus/install/tutorial_interfaces/share/ament_index/resource_index/packages/tutorial_interfaces
[1.444s] -- Up-to-date: /home/dom/Cerberus/install/tutorial_interfaces/share/tutorial_interfaces/cmake/rosidl_cmake-extras.cmake
[1.444s] -- Up-to-date: /home/dom/Cerberus/install/tutorial_interfaces/share/tutorial_interfaces/cmake/ament_cmake_export_libraries-extras.cmake
[1.444s] -- Up-to-date: /home/dom/Cerberus/install/tutorial_interfaces/share/tutorial_interfaces/cmake/ament_cmake_export_include_directories-extras.cmake
[1.444s] -- Up-to-date: /home/dom/Cerberus/install/tutorial_interfaces/share/tutorial_interfaces/cmake/rosidl_cmake_export_typesupport_libraries-extras.cmake
[1.444s] -- Up-to-date: /home/dom/Cerberus/install/tutorial_interfaces/share/tutorial_interfaces/cmake/tutorial_interfacesConfig.cmake
[1.445s] -- Up-to-date: /home/dom/Cerberus/install/tutorial_interfaces/share/tutorial_interfaces/cmake/tutorial_interfacesConfig-version.cmake
[1.445s] -- Up-to-date: /home/dom/Cerberus/install/tutorial_interfaces/share/tutorial_interfaces/package.xml
[1.447s] Invoked command in '/home/dom/Cerberus/build/tutorial_interfaces' returned '0': CMAKE_PREFIX_PATH=/opt/ros/dashing CONDA_PROMPT_MODIFIER=(base) /usr/bin/cmake --build /home/dom/Cerberus/build/tutorial_interfaces --target install -- -j12 -l12
