[0.288s] [100%] Built target central_controller
[0.383s] [100%] Built target central_controller
[0.400s] [36mInstall the project...[0m
[0.408s] -- Install configuration: ""
[0.408s] -- Up-to-date: /home/dom/Cerberus/install/central/lib/central/central_controller
[0.409s] -- Up-to-date: /home/dom/Cerberus/install/central/share/ament_index/resource_index/package_run_dependencies/central
[0.409s] -- Up-to-date: /home/dom/Cerberus/install/central/share/ament_index/resource_index/parent_prefix_path/central
[0.409s] -- Up-to-date: /home/dom/Cerberus/install/central/share/central/environment/ament_prefix_path.sh
[0.409s] -- Up-to-date: /home/dom/Cerberus/install/central/share/central/environment/path.sh
[0.409s] -- Up-to-date: /home/dom/Cerberus/install/central/share/central/local_setup.bash
[0.409s] -- Up-to-date: /home/dom/Cerberus/install/central/share/central/local_setup.sh
[0.409s] -- Up-to-date: /home/dom/Cerberus/install/central/share/central/local_setup.zsh
[0.409s] -- Up-to-date: /home/dom/Cerberus/install/central/share/ament_index/resource_index/packages/central
[0.410s] -- Up-to-date: /home/dom/Cerberus/install/central/share/central/cmake/centralConfig.cmake
[0.410s] -- Up-to-date: /home/dom/Cerberus/install/central/share/central/cmake/centralConfig-version.cmake
[0.410s] -- Up-to-date: /home/dom/Cerberus/install/central/share/central/package.xml
