[0.000000] (-) TimerEvent: {}
[0.000134] (camera) JobQueued: {'identifier': 'camera', 'dependencies': OrderedDict()}
[0.000161] (central) JobQueued: {'identifier': 'central', 'dependencies': OrderedDict()}
[0.000180] (camera) JobStarted: {'identifier': 'camera'}
[0.018459] (central) JobStarted: {'identifier': 'central'}
[0.099442] (-) TimerEvent: {}
[0.199823] (-) TimerEvent: {}
[0.236255] (central) JobProgress: {'identifier': 'central', 'progress': 'cmake'}
[0.237343] (central) JobProgress: {'identifier': 'central', 'progress': 'build'}
[0.238200] (central) Command: {'cmd': ['/usr/bin/cmake', '--build', '/home/dom/Cerberus/build/central', '--', '-j12', '-l12'], 'cwd': '/home/dom/Cerberus/build/central', 'env': OrderedDict([('VIRTUALENVWRAPPER_WORKON_CD', '1'), ('LESSOPEN', '| /usr/bin/lesspipe %s'), ('WORKON_HOME', '/home/dom/.virtualenvs'), ('USER', 'dom'), ('LANGUAGE', 'en_GB:en'), ('TEXTDOMAIN', 'im-config'), ('OSPL_INFOFILE', '<stdout>'), ('XDG_SEAT', 'seat0'), ('SSH_AGENT_PID', '2232'), ('XDG_SESSION_TYPE', 'x11'), ('LD_LIBRARY_PATH', '/opt/ros/dashing/opt/yaml_cpp_vendor/lib:/opt/ros/dashing/opt/rviz_ogre_vendor/lib:/usr/lib:/opt/rti.com/rti_connext_dds-5.3.1/lib/x64Linux3gcc5.4.0:/opt/ros/dashing/lib'), ('SHLVL', '1'), ('OSPL_URI', 'file:///opt/ros/dashing/share/opensplice_cmake_module/config/ros_ospl.xml'), ('QT4_IM_MODULE', 'xim'), ('HOME', '/home/dom'), ('VIRTUALENVWRAPPER_PYTHON', '/usr/bin/python3'), ('OLDPWD', '/home/dom'), ('DESKTOP_SESSION', 'ubuntu'), ('OSPL_VERBOSITY', '2'), ('NDDSHOME', '/opt/rti.com/rti_connext_dds-5.3.1'), ('GNOME_SHELL_SESSION_MODE', 'ubuntu'), ('GTK_MODULES', 'gail:atk-bridge'), ('ROS_PYTHON_VERSION', '3'), ('DBUS_SESSION_BUS_ADDRESS', 'unix:path=/run/user/1000/bus'), ('OSPL_TMPL_PATH', '/usr/etc/opensplice/idlpp'), ('COLORTERM', 'truecolor'), ('IM_CONFIG_PHASE', '2'), ('ROS_DISTRO', 'dashing'), ('LOGNAME', 'dom'), ('GTK_IM_MODULE', 'ibus'), ('DESKTOP_AUTOSTART_ID', '10f11c40e4b9992116158669665112827200000021370007'), ('_', '/usr/bin/colcon'), ('ROS_VERSION', '2'), ('USERNAME', 'dom'), ('XDG_SESSION_ID', '3'), ('TERM', 'xterm-256color'), ('OSPL_ERRORFILE', '<stderr>'), ('GNOME_DESKTOP_SESSION_ID', 'this-is-deprecated'), ('WINDOWPATH', '2'), ('PATH', '/opt/rti.com/rti_connext_dds-5.3.1/lib/x64Linux3gcc5.4.0:/opt/rti.com/rti_connext_dds-5.3.1/bin:/opt/ros/dashing/bin:/home/dom/.local/bin:/usr/local/sbin:/usr/local/bin:/usr/sbin:/usr/bin:/sbin:/bin:/usr/games:/usr/local/games:/snap/bin'), ('SESSION_MANAGER', 'local/dom-NL5E:@/tmp/.ICE-unix/2137,unix/dom-NL5E:/tmp/.ICE-unix/2137'), ('XDG_MENU_PREFIX', 'gnome-'), ('S_COLORS', 'auto'), ('GNOME_TERMINAL_SCREEN', '/org/gnome/Terminal/screen/303f19b1_7f76_4d4d_9be8_eeae896cef3e'), ('XDG_RUNTIME_DIR', '/run/user/1000'), ('DISPLAY', ':1'), ('LANG', 'en_GB.UTF-8'), ('OSPL_HOME', '/usr'), ('XDG_CURRENT_DESKTOP', 'ubuntu:GNOME'), ('LS_COLORS', 'rs=0:di=01;34:ln=01;36:mh=00:pi=40;33:so=01;35:do=01;35:bd=40;33;01:cd=40;33;01:or=40;31;01:mi=00:su=37;41:sg=30;43:ca=30;41:tw=30;42:ow=34;42:st=37;44:ex=01;32:*.tar=01;31:*.tgz=01;31:*.arc=01;31:*.arj=01;31:*.taz=01;31:*.lha=01;31:*.lz4=01;31:*.lzh=01;31:*.lzma=01;31:*.tlz=01;31:*.txz=01;31:*.tzo=01;31:*.t7z=01;31:*.zip=01;31:*.z=01;31:*.Z=01;31:*.dz=01;31:*.gz=01;31:*.lrz=01;31:*.lz=01;31:*.lzo=01;31:*.xz=01;31:*.zst=01;31:*.tzst=01;31:*.bz2=01;31:*.bz=01;31:*.tbz=01;31:*.tbz2=01;31:*.tz=01;31:*.deb=01;31:*.rpm=01;31:*.jar=01;31:*.war=01;31:*.ear=01;31:*.sar=01;31:*.rar=01;31:*.alz=01;31:*.ace=01;31:*.zoo=01;31:*.cpio=01;31:*.7z=01;31:*.rz=01;31:*.cab=01;31:*.wim=01;31:*.swm=01;31:*.dwm=01;31:*.esd=01;31:*.jpg=01;35:*.jpeg=01;35:*.mjpg=01;35:*.mjpeg=01;35:*.gif=01;35:*.bmp=01;35:*.pbm=01;35:*.pgm=01;35:*.ppm=01;35:*.tga=01;35:*.xbm=01;35:*.xpm=01;35:*.tif=01;35:*.tiff=01;35:*.png=01;35:*.svg=01;35:*.svgz=01;35:*.mng=01;35:*.pcx=01;35:*.mov=01;35:*.mpg=01;35:*.mpeg=01;35:*.m2v=01;35:*.mkv=01;35:*.webm=01;35:*.ogm=01;35:*.mp4=01;35:*.m4v=01;35:*.mp4v=01;35:*.vob=01;35:*.qt=01;35:*.nuv=01;35:*.wmv=01;35:*.asf=01;35:*.rm=01;35:*.rmvb=01;35:*.flc=01;35:*.avi=01;35:*.fli=01;35:*.flv=01;35:*.gl=01;35:*.dl=01;35:*.xcf=01;35:*.xwd=01;35:*.yuv=01;35:*.cgm=01;35:*.emf=01;35:*.ogv=01;35:*.ogx=01;35:*.aac=00;36:*.au=00;36:*.flac=00;36:*.m4a=00;36:*.mid=00;36:*.midi=00;36:*.mka=00;36:*.mp3=00;36:*.mpc=00;36:*.ogg=00;36:*.ra=00;36:*.wav=00;36:*.oga=00;36:*.opus=00;36:*.spx=00;36:*.xspf=00;36:'), ('XDG_SESSION_DESKTOP', 'ubuntu'), ('XMODIFIERS', '@im=ibus'), ('GNOME_TERMINAL_SERVICE', ':1.72'), ('XAUTHORITY', '/run/user/1000/gdm/Xauthority'), ('AMENT_PREFIX_PATH', '/opt/ros/dashing'), ('SSH_AUTH_SOCK', '/run/user/1000/keyring/ssh'), ('ROS_DOMAIN_ID', '1'), ('SHELL', '/bin/bash'), ('QT_ACCESSIBILITY', '1'), ('GDMSESSION', 'ubuntu'), ('LESSCLOSE', '/usr/bin/lesspipe %s %s'), ('VIRTUALENVWRAPPER_PROJECT_FILENAME', '.project'), ('VIRTUALENVWRAPPER_HOOK_DIR', '/home/dom/.virtualenvs'), ('TEXTDOMAINDIR', '/usr/share/locale/'), ('GPG_AGENT_INFO', '/run/user/1000/gnupg/S.gpg-agent:0:1'), ('XDG_VTNR', '2'), ('VIRTUALENVWRAPPER_SCRIPT', '/usr/local/bin/virtualenvwrapper.sh'), ('QT_IM_MODULE', 'ibus'), ('PWD', '/home/dom/Cerberus/build/central'), ('CLUTTER_IM_MODULE', 'xim'), ('XDG_DATA_DIRS', '/usr/share/ubuntu:/usr/local/share/:/usr/share/:/var/lib/snapd/desktop'), ('XDG_CONFIG_DIRS', '/etc/xdg/xdg-ubuntu:/etc/xdg'), ('PYTHONPATH', '/opt/ros/dashing/lib/python3.6/site-packages'), ('VTE_VERSION', '5202'), ('CMAKE_PREFIX_PATH', '/opt/ros/dashing')]), 'shell': False}
[0.245585] (camera) Command: {'cmd': ['/usr/bin/python3', 'setup.py', 'egg_info', '--egg-base', '/home/dom/Cerberus/build/camera', 'build', '--build-base', '/home/dom/Cerberus/build/camera/build', 'install', '--prefix', '/home/dom/Cerberus/install/camera', '--record', '/home/dom/Cerberus/build/camera/install.log', '--single-version-externally-managed'], 'cwd': '/home/dom/Cerberus/src/camera', 'env': {'VIRTUALENVWRAPPER_WORKON_CD': '1', 'LESSOPEN': '| /usr/bin/lesspipe %s', 'WORKON_HOME': '/home/dom/.virtualenvs', 'USER': 'dom', 'LANGUAGE': 'en_GB:en', 'TEXTDOMAIN': 'im-config', 'OSPL_INFOFILE': '<stdout>', 'XDG_SEAT': 'seat0', 'SSH_AGENT_PID': '2232', 'XDG_SESSION_TYPE': 'x11', 'LD_LIBRARY_PATH': '/opt/ros/dashing/opt/yaml_cpp_vendor/lib:/opt/ros/dashing/opt/rviz_ogre_vendor/lib:/usr/lib:/opt/rti.com/rti_connext_dds-5.3.1/lib/x64Linux3gcc5.4.0:/opt/ros/dashing/lib', 'SHLVL': '1', 'OSPL_URI': 'file:///opt/ros/dashing/share/opensplice_cmake_module/config/ros_ospl.xml', 'QT4_IM_MODULE': 'xim', 'HOME': '/home/dom', 'VIRTUALENVWRAPPER_PYTHON': '/usr/bin/python3', 'OLDPWD': '/home/dom', 'DESKTOP_SESSION': 'ubuntu', 'OSPL_VERBOSITY': '2', 'NDDSHOME': '/opt/rti.com/rti_connext_dds-5.3.1', 'GNOME_SHELL_SESSION_MODE': 'ubuntu', 'GTK_MODULES': 'gail:atk-bridge', 'ROS_PYTHON_VERSION': '3', 'DBUS_SESSION_BUS_ADDRESS': 'unix:path=/run/user/1000/bus', 'OSPL_TMPL_PATH': '/usr/etc/opensplice/idlpp', 'COLORTERM': 'truecolor', 'IM_CONFIG_PHASE': '2', 'ROS_DISTRO': 'dashing', 'LOGNAME': 'dom', 'GTK_IM_MODULE': 'ibus', 'DESKTOP_AUTOSTART_ID': '10f11c40e4b9992116158669665112827200000021370007', '_': '/usr/bin/colcon', 'ROS_VERSION': '2', 'USERNAME': 'dom', 'XDG_SESSION_ID': '3', 'TERM': 'xterm-256color', 'OSPL_ERRORFILE': '<stderr>', 'GNOME_DESKTOP_SESSION_ID': 'this-is-deprecated', 'WINDOWPATH': '2', 'PATH': '/opt/rti.com/rti_connext_dds-5.3.1/lib/x64Linux3gcc5.4.0:/opt/rti.com/rti_connext_dds-5.3.1/bin:/opt/ros/dashing/bin:/home/dom/.local/bin:/usr/local/sbin:/usr/local/bin:/usr/sbin:/usr/bin:/sbin:/bin:/usr/games:/usr/local/games:/snap/bin', 'SESSION_MANAGER': 'local/dom-NL5E:@/tmp/.ICE-unix/2137,unix/dom-NL5E:/tmp/.ICE-unix/2137', 'XDG_MENU_PREFIX': 'gnome-', 'S_COLORS': 'auto', 'GNOME_TERMINAL_SCREEN': '/org/gnome/Terminal/screen/303f19b1_7f76_4d4d_9be8_eeae896cef3e', 'XDG_RUNTIME_DIR': '/run/user/1000', 'DISPLAY': ':1', 'LANG': 'en_GB.UTF-8', 'OSPL_HOME': '/usr', 'XDG_CURRENT_DESKTOP': 'ubuntu:GNOME', 'LS_COLORS': 'rs=0:di=01;34:ln=01;36:mh=00:pi=40;33:so=01;35:do=01;35:bd=40;33;01:cd=40;33;01:or=40;31;01:mi=00:su=37;41:sg=30;43:ca=30;41:tw=30;42:ow=34;42:st=37;44:ex=01;32:*.tar=01;31:*.tgz=01;31:*.arc=01;31:*.arj=01;31:*.taz=01;31:*.lha=01;31:*.lz4=01;31:*.lzh=01;31:*.lzma=01;31:*.tlz=01;31:*.txz=01;31:*.tzo=01;31:*.t7z=01;31:*.zip=01;31:*.z=01;31:*.Z=01;31:*.dz=01;31:*.gz=01;31:*.lrz=01;31:*.lz=01;31:*.lzo=01;31:*.xz=01;31:*.zst=01;31:*.tzst=01;31:*.bz2=01;31:*.bz=01;31:*.tbz=01;31:*.tbz2=01;31:*.tz=01;31:*.deb=01;31:*.rpm=01;31:*.jar=01;31:*.war=01;31:*.ear=01;31:*.sar=01;31:*.rar=01;31:*.alz=01;31:*.ace=01;31:*.zoo=01;31:*.cpio=01;31:*.7z=01;31:*.rz=01;31:*.cab=01;31:*.wim=01;31:*.swm=01;31:*.dwm=01;31:*.esd=01;31:*.jpg=01;35:*.jpeg=01;35:*.mjpg=01;35:*.mjpeg=01;35:*.gif=01;35:*.bmp=01;35:*.pbm=01;35:*.pgm=01;35:*.ppm=01;35:*.tga=01;35:*.xbm=01;35:*.xpm=01;35:*.tif=01;35:*.tiff=01;35:*.png=01;35:*.svg=01;35:*.svgz=01;35:*.mng=01;35:*.pcx=01;35:*.mov=01;35:*.mpg=01;35:*.mpeg=01;35:*.m2v=01;35:*.mkv=01;35:*.webm=01;35:*.ogm=01;35:*.mp4=01;35:*.m4v=01;35:*.mp4v=01;35:*.vob=01;35:*.qt=01;35:*.nuv=01;35:*.wmv=01;35:*.asf=01;35:*.rm=01;35:*.rmvb=01;35:*.flc=01;35:*.avi=01;35:*.fli=01;35:*.flv=01;35:*.gl=01;35:*.dl=01;35:*.xcf=01;35:*.xwd=01;35:*.yuv=01;35:*.cgm=01;35:*.emf=01;35:*.ogv=01;35:*.ogx=01;35:*.aac=00;36:*.au=00;36:*.flac=00;36:*.m4a=00;36:*.mid=00;36:*.midi=00;36:*.mka=00;36:*.mp3=00;36:*.mpc=00;36:*.ogg=00;36:*.ra=00;36:*.wav=00;36:*.oga=00;36:*.opus=00;36:*.spx=00;36:*.xspf=00;36:', 'XDG_SESSION_DESKTOP': 'ubuntu', 'XMODIFIERS': '@im=ibus', 'GNOME_TERMINAL_SERVICE': ':1.72', 'XAUTHORITY': '/run/user/1000/gdm/Xauthority', 'AMENT_PREFIX_PATH': '/opt/ros/dashing', 'SSH_AUTH_SOCK': '/run/user/1000/keyring/ssh', 'ROS_DOMAIN_ID': '1', 'SHELL': '/bin/bash', 'QT_ACCESSIBILITY': '1', 'GDMSESSION': 'ubuntu', 'LESSCLOSE': '/usr/bin/lesspipe %s %s', 'VIRTUALENVWRAPPER_PROJECT_FILENAME': '.project', 'VIRTUALENVWRAPPER_HOOK_DIR': '/home/dom/.virtualenvs', 'TEXTDOMAINDIR': '/usr/share/locale/', 'GPG_AGENT_INFO': '/run/user/1000/gnupg/S.gpg-agent:0:1', 'XDG_VTNR': '2', 'VIRTUALENVWRAPPER_SCRIPT': '/usr/local/bin/virtualenvwrapper.sh', 'QT_IM_MODULE': 'ibus', 'PWD': '/home/dom/Cerberus/build/camera', 'CLUTTER_IM_MODULE': 'xim', 'XDG_DATA_DIRS': '/usr/share/ubuntu:/usr/local/share/:/usr/share/:/var/lib/snapd/desktop', 'XDG_CONFIG_DIRS': '/etc/xdg/xdg-ubuntu:/etc/xdg', 'PYTHONPATH': '/home/dom/Cerberus/install/camera/lib/python3.6/site-packages:/opt/ros/dashing/lib/python3.6/site-packages', 'VTE_VERSION': '5202'}, 'shell': False}
[0.299948] (-) TimerEvent: {}
[0.323650] (central) StdoutLine: {'line': b'\x1b[35m\x1b[1mScanning dependencies of target central_main\x1b[0m\n'}
[0.377532] (central) StdoutLine: {'line': b'[ 50%] \x1b[32mBuilding CXX object CMakeFiles/central_main.dir/src/central_main.cpp.o\x1b[0m\n'}
[0.400055] (-) TimerEvent: {}
[0.455487] (camera) StdoutLine: {'line': b'running egg_info\n'}
[0.458150] (camera) StdoutLine: {'line': b'writing /home/dom/Cerberus/build/camera/camera.egg-info/PKG-INFO\n'}
[0.458455] (camera) StdoutLine: {'line': b'writing dependency_links to /home/dom/Cerberus/build/camera/camera.egg-info/dependency_links.txt\n'}
[0.458661] (camera) StdoutLine: {'line': b'writing entry points to /home/dom/Cerberus/build/camera/camera.egg-info/entry_points.txt\n'}
[0.458781] (camera) StdoutLine: {'line': b'writing requirements to /home/dom/Cerberus/build/camera/camera.egg-info/requires.txt\n'}
[0.458892] (camera) StdoutLine: {'line': b'writing top-level names to /home/dom/Cerberus/build/camera/camera.egg-info/top_level.txt\n'}
[0.489696] (camera) StdoutLine: {'line': b"reading manifest file '/home/dom/Cerberus/build/camera/camera.egg-info/SOURCES.txt'\n"}
[0.490691] (camera) StdoutLine: {'line': b"writing manifest file '/home/dom/Cerberus/build/camera/camera.egg-info/SOURCES.txt'\n"}
[0.490825] (camera) StdoutLine: {'line': b'running build\n'}
[0.490889] (camera) StdoutLine: {'line': b'running build_py\n'}
[0.491523] (camera) StdoutLine: {'line': b'running install\n'}
[0.491827] (camera) StdoutLine: {'line': b'running install_lib\n'}
[0.493815] (camera) StdoutLine: {'line': b'running install_data\n'}
[0.494684] (camera) StdoutLine: {'line': b'running install_egg_info\n'}
[0.496407] (camera) StdoutLine: {'line': b"removing '/home/dom/Cerberus/install/camera/lib/python3.6/site-packages/camera-0.0.0-py3.6.egg-info' (and everything under it)\n"}
[0.497050] (camera) StdoutLine: {'line': b'Copying /home/dom/Cerberus/build/camera/camera.egg-info to /home/dom/Cerberus/install/camera/lib/python3.6/site-packages/camera-0.0.0-py3.6.egg-info\n'}
[0.497933] (camera) StdoutLine: {'line': b'running install_scripts\n'}
[0.500152] (-) TimerEvent: {}
[0.513179] (camera) StdoutLine: {'line': b'Installing camera_msg script to /home/dom/Cerberus/install/camera/lib/camera\n'}
[0.513521] (camera) StdoutLine: {'line': b'Installing detector script to /home/dom/Cerberus/install/camera/lib/camera\n'}
[0.513689] (camera) StdoutLine: {'line': b'Installing util script to /home/dom/Cerberus/install/camera/lib/camera\n'}
[0.513880] (camera) StdoutLine: {'line': b"writing list of installed files to '/home/dom/Cerberus/build/camera/install.log'\n"}
[0.529880] (camera) CommandEnded: {'returncode': 0}
[0.554497] (camera) JobEnded: {'identifier': 'camera', 'rc': 0}
[0.558714] (central) StderrLine: {'line': b'In file included from \x1b[01m\x1b[K/home/dom/Cerberus/src/central/src/central_main.cpp:2:0\x1b[m\x1b[K:\n'}
[0.558843] (central) StderrLine: {'line': b'\x1b[01m\x1b[K/home/dom/Cerberus/src/central/src/central_controller.cpp:4:10:\x1b[m\x1b[K \x1b[01;31m\x1b[Kfatal error: \x1b[m\x1b[Kstd_msgs/msg/Float32MultiArray.hpp: No such file or directory\n'}
[0.558910] (central) StderrLine: {'line': b' #include \x1b[01;31m\x1b[K"std_msgs/msg/Float32MultiArray.hpp"\x1b[m\x1b[K\n'}
[0.558968] (central) StderrLine: {'line': b'          \x1b[01;31m\x1b[K^~~~~~~~~~~~~~~~~~~~~~~~~~~~~~~~~~~~\x1b[m\x1b[K\n'}
[0.559022] (central) StderrLine: {'line': b'compilation terminated.\n'}
[0.561274] (central) StderrLine: {'line': b'make[2]: *** [CMakeFiles/central_main.dir/src/central_main.cpp.o] Error 1\n'}
[0.561552] (central) StderrLine: {'line': b'make[1]: *** [CMakeFiles/central_main.dir/all] Error 2\n'}
[0.561641] (central) StderrLine: {'line': b'make: *** [all] Error 2\n'}
[0.561787] (central) StdoutLine: {'line': b"CMakeFiles/central_main.dir/build.make:62: recipe for target 'CMakeFiles/central_main.dir/src/central_main.cpp.o' failed\n"}
[0.561866] (central) StdoutLine: {'line': b"CMakeFiles/Makefile2:67: recipe for target 'CMakeFiles/central_main.dir/all' failed\n"}
[0.561929] (central) StdoutLine: {'line': b"Makefile:140: recipe for target 'all' failed\n"}
[0.562896] (central) CommandEnded: {'returncode': 2}
[0.563229] (central) JobEnded: {'identifier': 'central', 'rc': 2}
[0.573791] (-) EventReactorShutdown: {}
