[0.596s] running egg_info
[0.598s] writing /home/dom/Cerberus/build/camera/camera.egg-info/PKG-INFO
[0.598s] writing dependency_links to /home/dom/Cerberus/build/camera/camera.egg-info/dependency_links.txt
[0.599s] writing entry points to /home/dom/Cerberus/build/camera/camera.egg-info/entry_points.txt
[0.599s] writing requirements to /home/dom/Cerberus/build/camera/camera.egg-info/requires.txt
[0.599s] writing top-level names to /home/dom/Cerberus/build/camera/camera.egg-info/top_level.txt
[0.630s] reading manifest file '/home/dom/Cerberus/build/camera/camera.egg-info/SOURCES.txt'
[0.632s] writing manifest file '/home/dom/Cerberus/build/camera/camera.egg-info/SOURCES.txt'
[0.632s] running build
[0.632s] running build_py
[0.632s] running install
[0.633s] running install_lib
[0.634s] running install_data
[0.634s] running install_egg_info
[0.636s] removing '/home/dom/Cerberus/install/camera/lib/python3.6/site-packages/camera-0.0.0-py3.6.egg-info' (and everything under it)
[0.636s] Copying /home/dom/Cerberus/build/camera/camera.egg-info to /home/dom/Cerberus/install/camera/lib/python3.6/site-packages/camera-0.0.0-py3.6.egg-info
[0.637s] running install_scripts
[0.653s] Installing camera_msg script to /home/dom/Cerberus/install/camera/lib/camera
[0.653s] Installing detector script to /home/dom/Cerberus/install/camera/lib/camera
[0.654s] Installing util script to /home/dom/Cerberus/install/camera/lib/camera
[0.654s] writing list of installed files to '/home/dom/Cerberus/build/camera/install.log'
