[0.519s] running egg_info
[0.520s] writing /home/dom/Cerberus/build/camera/camera.egg-info/PKG-INFO
[0.520s] writing dependency_links to /home/dom/Cerberus/build/camera/camera.egg-info/dependency_links.txt
[0.521s] writing entry points to /home/dom/Cerberus/build/camera/camera.egg-info/entry_points.txt
[0.521s] writing requirements to /home/dom/Cerberus/build/camera/camera.egg-info/requires.txt
[0.521s] writing top-level names to /home/dom/Cerberus/build/camera/camera.egg-info/top_level.txt
[0.548s] reading manifest file '/home/dom/Cerberus/build/camera/camera.egg-info/SOURCES.txt'
[0.549s] writing manifest file '/home/dom/Cerberus/build/camera/camera.egg-info/SOURCES.txt'
[0.549s] running build
[0.550s] running build_py
[0.550s] copying camera/detector.py -> /home/dom/Cerberus/build/camera/build/lib/camera
[0.550s] running install
[0.551s] running install_lib
[0.551s] copying /home/dom/Cerberus/build/camera/build/lib/camera/detector.py -> /home/dom/Cerberus/install/camera/lib/python3.6/site-packages/camera
[0.552s] byte-compiling /home/dom/Cerberus/install/camera/lib/python3.6/site-packages/camera/detector.py to detector.cpython-36.pyc
[0.553s] running install_data
[0.553s] running install_egg_info
[0.555s] removing '/home/dom/Cerberus/install/camera/lib/python3.6/site-packages/camera-0.0.0-py3.6.egg-info' (and everything under it)
[0.555s] Copying /home/dom/Cerberus/build/camera/camera.egg-info to /home/dom/Cerberus/install/camera/lib/python3.6/site-packages/camera-0.0.0-py3.6.egg-info
[0.556s] running install_scripts
[0.569s] Installing camera_msg script to /home/dom/Cerberus/install/camera/lib/camera
[0.569s] Installing detector script to /home/dom/Cerberus/install/camera/lib/camera
[0.569s] Installing util script to /home/dom/Cerberus/install/camera/lib/camera
[0.570s] writing list of installed files to '/home/dom/Cerberus/build/camera/install.log'
