[0.286s] [35m[1mScanning dependencies of target central_main[0m
[0.328s] [ 50%] [32mBuilding CXX object CMakeFiles/central_main.dir/src/central_main.cpp.o[0m
[1.646s] CMakeFiles/central_main.dir/build.make:62: recipe for target 'CMakeFiles/central_main.dir/src/central_main.cpp.o' failed
[1.646s] CMakeFiles/Makefile2:67: recipe for target 'CMakeFiles/central_main.dir/all' failed
[1.646s] Makefile:140: recipe for target 'all' failed
