[1.423s] [01m[K/home/dom/Cerberus/src/central/src/central_main.cpp:28:31:[m[K [01;31m[Kerror: [m[Kreference to ‘[01m[Kmessages[m[K’ is ambiguous
[1.423s]      void topic_callback(const [01;31m[Kmessages[m[K::msg::Img::SharedPtr msg) const
[1.423s]                                [01;31m[K^~~~~~~~[m[K
[1.423s] In file included from [01m[K/home/dom/Cerberus/install/messages/include/messages/msg/img.hpp:7:0[m[K,
[1.423s]                  from [01m[K/home/dom/Cerberus/src/central/src/central_main.cpp:11[m[K:
[1.423s] [01m[K/home/dom/Cerberus/install/messages/include/messages/msg/img__struct.hpp:33:11:[m[K [01;36m[Knote: [m[Kcandidates are: namespace messages { }
[1.423s]  namespace [01;36m[Kmessages[m[K
[1.423s]            [01;36m[K^~~~~~~~[m[K
[1.424s] In file included from [01m[K/usr/include/c++/7/string:43:0[m[K,
[1.424s]                  from [01m[K/usr/include/c++/7/stdexcept:39[m[K,
[1.424s]                  from [01m[K/usr/include/c++/7/array:39[m[K,
[1.424s]                  from [01m[K/usr/include/c++/7/tuple:39[m[K,
[1.424s]                  from [01m[K/usr/include/c++/7/bits/unique_ptr.h:37[m[K,
[1.424s]                  from [01m[K/usr/include/c++/7/memory:80[m[K,
[1.424s]                  from [01m[K/home/dom/Cerberus/src/central/src/central_main.cpp:1[m[K:
[1.424s] [01m[K/usr/include/c++/7/bits/localefwd.h:198:11:[m[K [01;36m[Knote: [m[K                template<class _CharT> class std::__cxx11::messages
[1.424s]      class [01;36m[Kmessages[m[K;
[1.424s]            [01;36m[K^~~~~~~~[m[K
[1.424s] [01m[K/home/dom/Cerberus/src/central/src/central_main.cpp:28:44:[m[K [01;31m[Kerror: [m[Kexpected unqualified-id before ‘[01m[K::[m[K’ token
[1.424s]      void topic_callback(const messages::msg[01;31m[K::[m[KImg::SharedPtr msg) const
[1.424s]                                             [01;31m[K^~[m[K
[1.424s] [01m[K/home/dom/Cerberus/src/central/src/central_main.cpp:28:44:[m[K [01;31m[Kerror: [m[Kexpected ‘[01m[K)[m[K’ before ‘[01m[K::[m[K’ token
[1.425s] [01m[K/home/dom/Cerberus/src/central/src/central_main.cpp:28:41:[m[K [01;31m[Kerror: [m[Kexpected ‘[01m[K;[m[K’ at end of member declaration
[1.425s]      void topic_callback(const messages::[01;31m[Kmsg[m[K::Img::SharedPtr msg) const
[1.425s]                                          [01;31m[K^~~[m[K
[1.425s] [01m[K/home/dom/Cerberus/src/central/src/central_main.cpp:28:46:[m[K [01;31m[Kerror: [m[K‘[01m[KImg[m[K’ in namespace ‘[01m[K::[m[K’ does not name a type
[1.425s]      void topic_callback(const messages::msg::[01;31m[KImg[m[K::SharedPtr msg) const
[1.425s]                                               [01;31m[K^~~[m[K
[1.425s] [01m[K/home/dom/Cerberus/src/central/src/central_main.cpp:32:44:[m[K [01;31m[Kerror: [m[Ktemplate argument 1 is invalid
[1.425s]      rclcpp::Subscription<messages::msg::Img[01;31m[K>[m[K::SharedPtr subscription_;
[1.425s]                                             [01;31m[K^[m[K
[1.425s] [01m[K/home/dom/Cerberus/src/central/src/central_main.cpp:32:47:[m[K [01;31m[Kerror: [m[Kexpected ‘[01m[K;[m[K’ at end of member declaration
[1.426s]      rclcpp::Subscription<messages::msg::Img>::[01;31m[KSharedPtr[m[K subscription_;
[1.426s]                                                [01;31m[K^~~~~~~~~[m[K
[1.426s] [01m[K/home/dom/Cerberus/src/central/src/central_main.cpp:32:57:[m[K [01;31m[Kerror: [m[K‘[01m[Ksubscription_[m[K’ does not name a type; did you mean ‘[01m[Krcl_subscription_t[m[K’?
[1.426s]      rclcpp::Subscription<messages::msg::Img>::SharedPtr [01;31m[Ksubscription_[m[K;
[1.426s]                                                          [01;31m[K^~~~~~~~~~~~~[m[K
[1.426s]                                                          [32m[Krcl_subscription_t[m[K
[1.426s] [01m[K/home/dom/Cerberus/src/central/src/central_main.cpp:[m[K In constructor ‘[01m[KImageSubscriber::ImageSubscriber()[m[K’:
[1.426s] [01m[K/home/dom/Cerberus/src/central/src/central_main.cpp:24:7:[m[K [01;31m[Kerror: [m[K‘[01m[Ksubscription_[m[K’ was not declared in this scope
[1.426s]        [01;31m[Ksubscription_[m[K = this->create_subscription<messages::msg::Img>("image_data", 10, std::bind(&ImageSubscriber::topic_callback, this, _1));
[1.426s]        [01;31m[K^~~~~~~~~~~~~[m[K
[1.427s] [01m[K/home/dom/Cerberus/src/central/src/central_main.cpp:24:7:[m[K [01;36m[Knote: [m[Ksuggested alternative: ‘[01m[Krcl_subscription_t[m[K’
[1.427s]        [01;36m[Ksubscription_[m[K = this->create_subscription<messages::msg::Img>("image_data", 10, std::bind(&ImageSubscriber::topic_callback, this, _1));
[1.427s]        [01;36m[K^~~~~~~~~~~~~[m[K
[1.428s]        [32m[Krcl_subscription_t[m[K
[1.428s] [01m[K/home/dom/Cerberus/src/central/src/central_main.cpp:24:29:[m[K [01;31m[Kerror: [m[Kparse error in template argument list
[1.428s]        subscription_ = this->[01;31m[Kcreate_subscription<messages::msg::Img>[m[K("image_data", 10, std::bind(&ImageSubscriber::topic_callback, this, _1));
[1.428s]                              [01;31m[K^~~~~~~~~~~~~~~~~~~~~~~~~~~~~~~~~~~~~~~[m[K
[1.428s] [01m[K/home/dom/Cerberus/src/central/src/central_main.cpp:24:137:[m[K [01;31m[Kerror: [m[K‘[01m[K_1[m[K’ was not declared in this scope
[1.428s]  :Img>("image_data", 10, std::bind(&ImageSubscriber::topic_callback, this, [01;31m[K_1[m[K));
[1.428s]                                                                            [01;31m[K^~[m[K
[1.428s] [01m[K/home/dom/Cerberus/src/central/src/central_main.cpp:24:137:[m[K [01;36m[Knote: [m[Ksuggested alternative:
[1.428s] In file included from [01m[K/opt/ros/dashing/include/rclcpp/context.hpp:19:0[m[K,
[1.428s]                  from [01m[K/opt/ros/dashing/include/rclcpp/contexts/default_context.hpp:18[m[K,
[1.428s]                  from [01m[K/opt/ros/dashing/include/rclcpp/executor.hpp:32[m[K,
[1.428s]                  from [01m[K/opt/ros/dashing/include/rclcpp/executors/multi_threaded_executor.hpp:24[m[K,
[1.428s]                  from [01m[K/opt/ros/dashing/include/rclcpp/executors.hpp:21[m[K,
[1.429s]                  from [01m[K/opt/ros/dashing/include/rclcpp/rclcpp.hpp:144[m[K,
[1.429s]                  from [01m[K/home/dom/Cerberus/src/central/src/central_main.cpp:8[m[K:
[1.429s] [01m[K/usr/include/c++/7/functional:275:34:[m[K [01;36m[Knote: [m[K  ‘[01m[Kstd::placeholders::_1[m[K’
[1.429s]      extern const _Placeholder<1> [01;36m[K_1[m[K;
[1.429s]                                   [01;36m[K^~[m[K
[1.556s] make[2]: *** [CMakeFiles/central_main.dir/src/central_main.cpp.o] Error 1
[1.556s] make[1]: *** [CMakeFiles/central_main.dir/all] Error 2
[1.556s] make: *** [all] Error 2
