[0.237s] Invoking command in '/home/dom/Cerberus/build/messages': CMAKE_PREFIX_PATH=/opt/ros/dashing CONDA_PROMPT_MODIFIER=(base) /usr/bin/cmake --build /home/dom/Cerberus/build/messages -- -j12 -l12
[0.527s] Invoked command in '/home/dom/Cerberus/build/messages' returned '0': CMAKE_PREFIX_PATH=/opt/ros/dashing CONDA_PROMPT_MODIFIER=(base) /usr/bin/cmake --build /home/dom/Cerberus/build/messages -- -j12 -l12
[0.605s] Invoking command in '/home/dom/Cerberus/build/messages': CMAKE_PREFIX_PATH=/opt/ros/dashing CONDA_PROMPT_MODIFIER=(base) /usr/bin/cmake --build /home/dom/Cerberus/build/messages --target install -- -j12 -l12
[0.952s] Invoked command in '/home/dom/Cerberus/build/messages' returned '0': CMAKE_PREFIX_PATH=/opt/ros/dashing CONDA_PROMPT_MODIFIER=(base) /usr/bin/cmake --build /home/dom/Cerberus/build/messages --target install -- -j12 -l12
