[0.366s] [35m[1mScanning dependencies of target central_main[0m
[0.402s] [ 50%] [32mBuilding CXX object CMakeFiles/central_main.dir/src/central_main.cpp.o[0m
[2.020s] [100%] [32m[1mLinking CXX executable central_main[0m
[2.133s] [100%] Built target central_main
[2.455s] [100%] Built target central_main
[2.526s] [36mInstall the project...[0m
[2.561s] -- Install configuration: ""
[2.562s] -- Installing: /home/dom/Cerberus/install/central/lib/central/central_main
[2.563s] -- Set runtime path of "/home/dom/Cerberus/install/central/lib/central/central_main" to ""
[2.564s] -- Up-to-date: /home/dom/Cerberus/install/central/share/ament_index/resource_index/package_run_dependencies/central
[2.565s] -- Up-to-date: /home/dom/Cerberus/install/central/share/ament_index/resource_index/parent_prefix_path/central
[2.566s] -- Up-to-date: /home/dom/Cerberus/install/central/share/central/environment/ament_prefix_path.sh
[2.566s] -- Up-to-date: /home/dom/Cerberus/install/central/share/central/environment/path.sh
[2.567s] -- Up-to-date: /home/dom/Cerberus/install/central/share/central/local_setup.bash
[2.567s] -- Up-to-date: /home/dom/Cerberus/install/central/share/central/local_setup.sh
[2.567s] -- Up-to-date: /home/dom/Cerberus/install/central/share/central/local_setup.zsh
[2.567s] -- Up-to-date: /home/dom/Cerberus/install/central/share/ament_index/resource_index/packages/central
[2.568s] -- Up-to-date: /home/dom/Cerberus/install/central/share/central/cmake/centralConfig.cmake
[2.568s] -- Up-to-date: /home/dom/Cerberus/install/central/share/central/cmake/centralConfig-version.cmake
[2.568s] -- Up-to-date: /home/dom/Cerberus/install/central/share/central/package.xml
