[0.351s] [  1%] Built target tutorial_interfaces__dds_opensplice_idl
[0.353s] [  7%] Built target tutorial_interfaces__cpp
[0.354s] [  9%] Built target tutorial_interfaces__dds_connext_idl
[0.354s] [  9%] Built target tutorial_interfaces__rosidl_generator_c
[0.403s] [ 13%] Built target tutorial_interfaces__rosidl_typesupport_cpp
[0.411s] [ 18%] Built target tutorial_interfaces__rosidl_typesupport_introspection_cpp
[0.415s] [ 23%] Built target tutorial_interfaces__rosidl_typesupport_introspection_c
[0.425s] [ 27%] Built target tutorial_interfaces__rosidl_typesupport_c
[0.429s] [ 38%] Built target tutorial_interfaces__rosidl_typesupport_connext_cpp
[0.431s] [ 43%] Built target tutorial_interfaces__rosidl_typesupport_fastrtps_cpp
[0.443s] [ 55%] Built target tutorial_interfaces__rosidl_typesupport_opensplice_cpp
[0.477s] [ 60%] Built target tutorial_interfaces__rosidl_typesupport_fastrtps_c
[0.491s] [ 72%] Built target tutorial_interfaces__rosidl_typesupport_connext_c
[0.505s] [ 86%] Built target tutorial_interfaces__rosidl_typesupport_opensplice_c
[0.530s] [ 86%] Built target tutorial_interfaces
[0.556s] [ 87%] Built target tutorial_interfaces__py
[0.587s] [ 90%] Built target tutorial_interfaces__python
[0.619s] [ 93%] Built target tutorial_interfaces__rosidl_typesupport_opensplice_c__pyext
[0.623s] [ 96%] Built target tutorial_interfaces__rosidl_typesupport_fastrtps_c__pyext
[0.624s] [100%] Built target tutorial_interfaces__rosidl_typesupport_c__pyext
