[0.236s] Invoking command in '/home/dom/Cerberus/build/messages': CMAKE_PREFIX_PATH=/opt/ros/dashing CONDA_PROMPT_MODIFIER=(base) /usr/bin/cmake --build /home/dom/Cerberus/build/messages -- -j12 -l12
[0.504s] Invoked command in '/home/dom/Cerberus/build/messages' returned '0': CMAKE_PREFIX_PATH=/opt/ros/dashing CONDA_PROMPT_MODIFIER=(base) /usr/bin/cmake --build /home/dom/Cerberus/build/messages -- -j12 -l12
[0.584s] Invoking command in '/home/dom/Cerberus/build/messages': CMAKE_PREFIX_PATH=/opt/ros/dashing CONDA_PROMPT_MODIFIER=(base) /usr/bin/cmake --build /home/dom/Cerberus/build/messages --target install -- -j12 -l12
[0.916s] Invoked command in '/home/dom/Cerberus/build/messages' returned '0': CMAKE_PREFIX_PATH=/opt/ros/dashing CONDA_PROMPT_MODIFIER=(base) /usr/bin/cmake --build /home/dom/Cerberus/build/messages --target install -- -j12 -l12
