[0.283s] [  1%] Built target tutorial_interfaces__dds_connext_idl
[0.286s] [  3%] Built target tutorial_interfaces__cpp
[0.292s] [  4%] Built target tutorial_interfaces__dds_opensplice_idl
[0.297s] [  9%] Built target tutorial_interfaces__rosidl_generator_c
[0.336s] [ 13%] Built target tutorial_interfaces__rosidl_typesupport_fastrtps_cpp
[0.336s] [ 18%] Built target tutorial_interfaces__rosidl_typesupport_introspection_cpp
[0.337s] [ 23%] Built target tutorial_interfaces__rosidl_typesupport_cpp
[0.339s] [ 27%] Built target tutorial_interfaces__rosidl_typesupport_introspection_c
[0.346s] [ 32%] Built target tutorial_interfaces__rosidl_typesupport_c
[0.361s] [ 44%] Built target tutorial_interfaces__rosidl_typesupport_opensplice_cpp
[0.364s] [ 55%] Built target tutorial_interfaces__rosidl_typesupport_connext_cpp
[0.373s] [ 60%] Built target tutorial_interfaces__rosidl_typesupport_fastrtps_c
[0.401s] [ 73%] Built target tutorial_interfaces__rosidl_typesupport_opensplice_c
[0.412s] [ 86%] Built target tutorial_interfaces__rosidl_typesupport_connext_c
[0.434s] [ 86%] Built target tutorial_interfaces
[0.460s] [ 87%] Built target tutorial_interfaces__py
[0.494s] [ 90%] Built target tutorial_interfaces__python
[0.523s] [ 93%] Built target tutorial_interfaces__rosidl_typesupport_opensplice_c__pyext
[0.527s] [ 98%] Built target tutorial_interfaces__rosidl_typesupport_c__pyext
[0.527s] [100%] Built target tutorial_interfaces__rosidl_typesupport_fastrtps_c__pyext
[0.677s] [  4%] Built target tutorial_interfaces__rosidl_generator_c
[0.678s] [  6%] Built target tutorial_interfaces__cpp
[0.679s] [  7%] Built target tutorial_interfaces__dds_connext_idl
[0.679s] [  9%] Built target tutorial_interfaces__dds_opensplice_idl
[0.709s] [ 13%] Built target tutorial_interfaces__rosidl_typesupport_cpp
[0.710s] [ 18%] Built target tutorial_interfaces__rosidl_typesupport_c
[0.711s] [ 23%] Built target tutorial_interfaces__rosidl_typesupport_introspection_c
[0.713s] [ 27%] Built target tutorial_interfaces__rosidl_typesupport_fastrtps_cpp
[0.713s] [ 32%] Built target tutorial_interfaces__rosidl_typesupport_introspection_cpp
[0.727s] [ 44%] Built target tutorial_interfaces__rosidl_typesupport_opensplice_cpp
[0.737s] [ 49%] Built target tutorial_interfaces__rosidl_typesupport_fastrtps_c
[0.743s] [ 60%] Built target tutorial_interfaces__rosidl_typesupport_connext_cpp
[0.762s] [ 73%] Built target tutorial_interfaces__rosidl_typesupport_opensplice_c
[0.783s] [ 86%] Built target tutorial_interfaces__rosidl_typesupport_connext_c
[0.801s] [ 86%] Built target tutorial_interfaces
[0.822s] [ 87%] Built target tutorial_interfaces__py
[0.845s] [ 90%] Built target tutorial_interfaces__python
[0.870s] [ 93%] Built target tutorial_interfaces__rosidl_typesupport_c__pyext
[0.874s] [ 96%] Built target tutorial_interfaces__rosidl_typesupport_fastrtps_c__pyext
[0.880s] [100%] Built target tutorial_interfaces__rosidl_typesupport_opensplice_c__pyext
[0.900s] [36mInstall the project...[0m
[0.908s] -- Install configuration: ""
[0.908s] -- Up-to-date: /home/dom/Cerberus/install/tutorial_interfaces/share/ament_index/resource_index/rosidl_interfaces/tutorial_interfaces
[0.909s] -- Up-to-date: /home/dom/Cerberus/install/tutorial_interfaces/lib/libtutorial_interfaces__rosidl_typesupport_c.so
[0.909s] -- Up-to-date: /home/dom/Cerberus/install/tutorial_interfaces/share/tutorial_interfaces/environment/library_path.sh
[0.909s] -- Up-to-date: /home/dom/Cerberus/install/tutorial_interfaces/lib/libtutorial_interfaces__rosidl_typesupport_cpp.so
[0.910s] -- Up-to-date: /home/dom/Cerberus/install/tutorial_interfaces/include/tutorial_interfaces
[0.910s] -- Up-to-date: /home/dom/Cerberus/install/tutorial_interfaces/include/tutorial_interfaces/msg
[0.910s] -- Up-to-date: /home/dom/Cerberus/install/tutorial_interfaces/include/tutorial_interfaces/msg/dds_connext
[0.911s] -- Up-to-date: /home/dom/Cerberus/install/tutorial_interfaces/include/tutorial_interfaces/msg/rosidl_typesupport_connext_c__visibility_control.h
[0.912s] -- Up-to-date: /home/dom/Cerberus/install/tutorial_interfaces/include/tutorial_interfaces/msg/num__rosidl_typesupport_connext_c.h
[0.913s] -- Up-to-date: /home/dom/Cerberus/install/tutorial_interfaces/lib/libtutorial_interfaces__rosidl_typesupport_connext_c.so
[0.913s] -- Up-to-date: /home/dom/Cerberus/install/tutorial_interfaces/include/tutorial_interfaces
[0.913s] -- Up-to-date: /home/dom/Cerberus/install/tutorial_interfaces/include/tutorial_interfaces/msg
[0.914s] -- Up-to-date: /home/dom/Cerberus/install/tutorial_interfaces/include/tutorial_interfaces/msg/num__functions.h
[0.914s] -- Up-to-date: /home/dom/Cerberus/install/tutorial_interfaces/include/tutorial_interfaces/msg/rosidl_generator_c__visibility_control.h
[0.914s] -- Up-to-date: /home/dom/Cerberus/install/tutorial_interfaces/include/tutorial_interfaces/msg/num__functions.c
[0.915s] -- Up-to-date: /home/dom/Cerberus/install/tutorial_interfaces/include/tutorial_interfaces/msg/num.h
[0.915s] -- Up-to-date: /home/dom/Cerberus/install/tutorial_interfaces/include/tutorial_interfaces/msg/num__type_support.h
[0.915s] -- Up-to-date: /home/dom/Cerberus/install/tutorial_interfaces/include/tutorial_interfaces/msg/num__struct.h
[0.916s] -- Up-to-date: /home/dom/Cerberus/install/tutorial_interfaces/lib/libtutorial_interfaces__rosidl_generator_c.so
[0.916s] -- Up-to-date: /home/dom/Cerberus/install/tutorial_interfaces/share/tutorial_interfaces/msg/dds_connext
[0.916s] -- Up-to-date: /home/dom/Cerberus/install/tutorial_interfaces/share/tutorial_interfaces/msg/dds_connext/Num_.idl
[0.916s] -- Up-to-date: /home/dom/Cerberus/install/tutorial_interfaces/include/tutorial_interfaces
[0.916s] -- Up-to-date: /home/dom/Cerberus/install/tutorial_interfaces/include/tutorial_interfaces/msg
[0.917s] -- Up-to-date: /home/dom/Cerberus/install/tutorial_interfaces/include/tutorial_interfaces/msg/dds_connext
[0.917s] -- Up-to-date: /home/dom/Cerberus/install/tutorial_interfaces/include/tutorial_interfaces/msg/dds_connext/Num_Support.cxx
[0.917s] -- Up-to-date: /home/dom/Cerberus/install/tutorial_interfaces/include/tutorial_interfaces/msg/dds_connext/Num_Support.h
[0.917s] -- Up-to-date: /home/dom/Cerberus/install/tutorial_interfaces/include/tutorial_interfaces/msg/dds_connext/Num_Plugin.cxx
[0.917s] -- Up-to-date: /home/dom/Cerberus/install/tutorial_interfaces/include/tutorial_interfaces/msg/dds_connext/Num_.cxx
[0.917s] -- Up-to-date: /home/dom/Cerberus/install/tutorial_interfaces/include/tutorial_interfaces/msg/dds_connext/Num_Plugin.h
[0.917s] -- Up-to-date: /home/dom/Cerberus/install/tutorial_interfaces/include/tutorial_interfaces/msg/dds_connext/Num_.h
[0.917s] -- Up-to-date: /home/dom/Cerberus/install/tutorial_interfaces/include/tutorial_interfaces/msg/rosidl_typesupport_connext_cpp__visibility_control.h
[0.917s] -- Up-to-date: /home/dom/Cerberus/install/tutorial_interfaces/include/tutorial_interfaces/msg/num__rosidl_typesupport_connext_cpp.hpp
[0.917s] -- Up-to-date: /home/dom/Cerberus/install/tutorial_interfaces/lib/libtutorial_interfaces__rosidl_typesupport_connext_cpp.so
[0.917s] -- Up-to-date: /home/dom/Cerberus/install/tutorial_interfaces/include/tutorial_interfaces
[0.917s] -- Up-to-date: /home/dom/Cerberus/install/tutorial_interfaces/include/tutorial_interfaces/msg
[0.917s] -- Up-to-date: /home/dom/Cerberus/install/tutorial_interfaces/include/tutorial_interfaces/msg/num__traits.hpp
[0.918s] -- Up-to-date: /home/dom/Cerberus/install/tutorial_interfaces/include/tutorial_interfaces/msg/num__struct.hpp
[0.918s] -- Up-to-date: /home/dom/Cerberus/install/tutorial_interfaces/include/tutorial_interfaces/msg/num.hpp
[0.918s] -- Up-to-date: /home/dom/Cerberus/install/tutorial_interfaces/include/tutorial_interfaces
[0.918s] -- Up-to-date: /home/dom/Cerberus/install/tutorial_interfaces/include/tutorial_interfaces/msg
[0.918s] -- Up-to-date: /home/dom/Cerberus/install/tutorial_interfaces/include/tutorial_interfaces/msg/rosidl_typesupport_fastrtps_c__visibility_control.h
[0.918s] -- Up-to-date: /home/dom/Cerberus/install/tutorial_interfaces/include/tutorial_interfaces/msg/num__rosidl_typesupport_fastrtps_c.h
[0.918s] -- Up-to-date: /home/dom/Cerberus/install/tutorial_interfaces/lib/libtutorial_interfaces__rosidl_typesupport_fastrtps_c.so
[0.918s] -- Up-to-date: /home/dom/Cerberus/install/tutorial_interfaces/include/tutorial_interfaces
[0.918s] -- Up-to-date: /home/dom/Cerberus/install/tutorial_interfaces/include/tutorial_interfaces/msg
[0.918s] -- Up-to-date: /home/dom/Cerberus/install/tutorial_interfaces/include/tutorial_interfaces/msg/dds_fastrtps
[0.918s] -- Up-to-date: /home/dom/Cerberus/install/tutorial_interfaces/include/tutorial_interfaces/msg/num__rosidl_typesupport_fastrtps_cpp.hpp
[0.918s] -- Up-to-date: /home/dom/Cerberus/install/tutorial_interfaces/include/tutorial_interfaces/msg/rosidl_typesupport_fastrtps_cpp__visibility_control.h
[0.918s] -- Up-to-date: /home/dom/Cerberus/install/tutorial_interfaces/lib/libtutorial_interfaces__rosidl_typesupport_fastrtps_cpp.so
[0.918s] -- Up-to-date: /home/dom/Cerberus/install/tutorial_interfaces/include/tutorial_interfaces
[0.918s] -- Up-to-date: /home/dom/Cerberus/install/tutorial_interfaces/include/tutorial_interfaces/msg
[0.918s] -- Up-to-date: /home/dom/Cerberus/install/tutorial_interfaces/include/tutorial_interfaces/msg/rosidl_typesupport_introspection_c__visibility_control.h
[0.918s] -- Up-to-date: /home/dom/Cerberus/install/tutorial_interfaces/include/tutorial_interfaces/msg/num__type_support.c
[0.919s] -- Up-to-date: /home/dom/Cerberus/install/tutorial_interfaces/include/tutorial_interfaces/msg/num__rosidl_typesupport_introspection_c.h
[0.919s] -- Up-to-date: /home/dom/Cerberus/install/tutorial_interfaces/lib/libtutorial_interfaces__rosidl_typesupport_introspection_c.so
[0.919s] -- Up-to-date: /home/dom/Cerberus/install/tutorial_interfaces/include/tutorial_interfaces
[0.919s] -- Up-to-date: /home/dom/Cerberus/install/tutorial_interfaces/include/tutorial_interfaces/msg
[0.919s] -- Up-to-date: /home/dom/Cerberus/install/tutorial_interfaces/include/tutorial_interfaces/msg/num__rosidl_typesupport_opensplice_c.h
[0.919s] -- Up-to-date: /home/dom/Cerberus/install/tutorial_interfaces/include/tutorial_interfaces/msg/rosidl_typesupport_opensplice_c__visibility_control.h
[0.919s] -- Up-to-date: /home/dom/Cerberus/install/tutorial_interfaces/include/tutorial_interfaces/msg/dds_opensplice_c
[0.919s] -- Up-to-date: /home/dom/Cerberus/install/tutorial_interfaces/lib/libtutorial_interfaces__rosidl_typesupport_opensplice_c.so
[0.919s] -- Up-to-date: /home/dom/Cerberus/install/tutorial_interfaces/share/tutorial_interfaces/msg/dds_opensplice
[0.919s] -- Up-to-date: /home/dom/Cerberus/install/tutorial_interfaces/share/tutorial_interfaces/msg/dds_opensplice/Num_.idl
[0.919s] -- Up-to-date: /home/dom/Cerberus/install/tutorial_interfaces/include/tutorial_interfaces
[0.919s] -- Up-to-date: /home/dom/Cerberus/install/tutorial_interfaces/include/tutorial_interfaces/msg
[0.919s] -- Up-to-date: /home/dom/Cerberus/install/tutorial_interfaces/include/tutorial_interfaces/msg/dds_opensplice
[0.919s] -- Up-to-date: /home/dom/Cerberus/install/tutorial_interfaces/include/tutorial_interfaces/msg/dds_opensplice/ccpp_Num_.h
[0.919s] -- Up-to-date: /home/dom/Cerberus/install/tutorial_interfaces/include/tutorial_interfaces/msg/dds_opensplice/Num_Dcps_impl.h
[0.919s] -- Up-to-date: /home/dom/Cerberus/install/tutorial_interfaces/include/tutorial_interfaces/msg/dds_opensplice/Num_SplDcps.h
[0.919s] -- Up-to-date: /home/dom/Cerberus/install/tutorial_interfaces/include/tutorial_interfaces/msg/dds_opensplice/Num_Dcps.h
[0.919s] -- Up-to-date: /home/dom/Cerberus/install/tutorial_interfaces/include/tutorial_interfaces/msg/dds_opensplice/Num_.h
[0.920s] -- Up-to-date: /home/dom/Cerberus/install/tutorial_interfaces/include/tutorial_interfaces/msg/num__rosidl_typesupport_opensplice_cpp.hpp
[0.920s] -- Up-to-date: /home/dom/Cerberus/install/tutorial_interfaces/include/tutorial_interfaces/msg/rosidl_typesupport_opensplice_cpp__visibility_control.h
[0.920s] -- Up-to-date: /home/dom/Cerberus/install/tutorial_interfaces/lib/libtutorial_interfaces__rosidl_typesupport_opensplice_cpp.so
[0.920s] -- Up-to-date: /home/dom/Cerberus/install/tutorial_interfaces/include/tutorial_interfaces
[0.920s] -- Up-to-date: /home/dom/Cerberus/install/tutorial_interfaces/include/tutorial_interfaces/msg
[0.920s] -- Up-to-date: /home/dom/Cerberus/install/tutorial_interfaces/include/tutorial_interfaces/msg/num__type_support.cpp
[0.920s] -- Up-to-date: /home/dom/Cerberus/install/tutorial_interfaces/include/tutorial_interfaces/msg/num__rosidl_typesupport_introspection_cpp.hpp
[0.920s] -- Up-to-date: /home/dom/Cerberus/install/tutorial_interfaces/lib/libtutorial_interfaces__rosidl_typesupport_introspection_cpp.so
[0.920s] -- Up-to-date: /home/dom/Cerberus/install/tutorial_interfaces/share/tutorial_interfaces/environment/pythonpath.sh
[0.920s] -- Up-to-date: /home/dom/Cerberus/install/tutorial_interfaces/lib/python3.6/site-packages/tutorial_interfaces/__init__.py
[0.945s] -- Up-to-date: /home/dom/Cerberus/install/tutorial_interfaces/lib/python3.6/site-packages/tutorial_interfaces/msg
[0.945s] -- Up-to-date: /home/dom/Cerberus/install/tutorial_interfaces/lib/python3.6/site-packages/tutorial_interfaces/msg/_num.py
[0.945s] -- Up-to-date: /home/dom/Cerberus/install/tutorial_interfaces/lib/python3.6/site-packages/tutorial_interfaces/msg/_num_s.c
[0.945s] -- Up-to-date: /home/dom/Cerberus/install/tutorial_interfaces/lib/python3.6/site-packages/tutorial_interfaces/msg/__init__.py
[0.945s] -- Up-to-date: /home/dom/Cerberus/install/tutorial_interfaces/lib/python3.6/site-packages/tutorial_interfaces/tutorial_interfaces_s__rosidl_typesupport_c.cpython-36m-x86_64-linux-gnu.so
[0.946s] -- Up-to-date: /home/dom/Cerberus/install/tutorial_interfaces/lib/python3.6/site-packages/tutorial_interfaces/tutorial_interfaces_s__rosidl_typesupport_fastrtps_c.cpython-36m-x86_64-linux-gnu.so
[0.947s] -- Up-to-date: /home/dom/Cerberus/install/tutorial_interfaces/lib/python3.6/site-packages/tutorial_interfaces/tutorial_interfaces_s__rosidl_typesupport_opensplice_c.cpython-36m-x86_64-linux-gnu.so
[0.947s] -- Up-to-date: /home/dom/Cerberus/install/tutorial_interfaces/lib/libtutorial_interfaces__python.so
[0.947s] -- Up-to-date: /home/dom/Cerberus/install/tutorial_interfaces/share/tutorial_interfaces/msg/Num.idl
[0.948s] -- Up-to-date: /home/dom/Cerberus/install/tutorial_interfaces/share/tutorial_interfaces/msg/Num.msg
[0.948s] -- Up-to-date: /home/dom/Cerberus/install/tutorial_interfaces/share/ament_index/resource_index/package_run_dependencies/tutorial_interfaces
[0.948s] -- Up-to-date: /home/dom/Cerberus/install/tutorial_interfaces/share/ament_index/resource_index/parent_prefix_path/tutorial_interfaces
[0.948s] -- Up-to-date: /home/dom/Cerberus/install/tutorial_interfaces/share/tutorial_interfaces/environment/ament_prefix_path.sh
[0.948s] -- Up-to-date: /home/dom/Cerberus/install/tutorial_interfaces/share/tutorial_interfaces/environment/path.sh
[0.948s] -- Up-to-date: /home/dom/Cerberus/install/tutorial_interfaces/share/tutorial_interfaces/local_setup.bash
[0.949s] -- Up-to-date: /home/dom/Cerberus/install/tutorial_interfaces/share/tutorial_interfaces/local_setup.sh
[0.949s] -- Up-to-date: /home/dom/Cerberus/install/tutorial_interfaces/share/tutorial_interfaces/local_setup.zsh
[0.949s] -- Up-to-date: /home/dom/Cerberus/install/tutorial_interfaces/share/ament_index/resource_index/packages/tutorial_interfaces
[0.949s] -- Up-to-date: /home/dom/Cerberus/install/tutorial_interfaces/share/tutorial_interfaces/cmake/rosidl_cmake-extras.cmake
[0.949s] -- Up-to-date: /home/dom/Cerberus/install/tutorial_interfaces/share/tutorial_interfaces/cmake/ament_cmake_export_libraries-extras.cmake
[0.949s] -- Up-to-date: /home/dom/Cerberus/install/tutorial_interfaces/share/tutorial_interfaces/cmake/ament_cmake_export_include_directories-extras.cmake
[0.949s] -- Up-to-date: /home/dom/Cerberus/install/tutorial_interfaces/share/tutorial_interfaces/cmake/rosidl_cmake_export_typesupport_libraries-extras.cmake
[0.949s] -- Up-to-date: /home/dom/Cerberus/install/tutorial_interfaces/share/tutorial_interfaces/cmake/tutorial_interfacesConfig.cmake
[0.949s] -- Up-to-date: /home/dom/Cerberus/install/tutorial_interfaces/share/tutorial_interfaces/cmake/tutorial_interfacesConfig-version.cmake
[0.949s] -- Up-to-date: /home/dom/Cerberus/install/tutorial_interfaces/share/tutorial_interfaces/package.xml
