[0.290s] [  1%] Built target messages__dds_connext_idl
[0.293s] [  3%] Built target messages__cpp
[0.293s] [  7%] Built target messages__rosidl_generator_c
[0.298s] [  9%] Built target messages__dds_opensplice_idl
[0.334s] [ 13%] Built target messages__rosidl_typesupport_introspection_cpp
[0.334s] [ 18%] Built target messages__rosidl_typesupport_introspection_c
[0.337s] [ 23%] Built target messages__rosidl_typesupport_c
[0.346s] [ 27%] Built target messages__rosidl_typesupport_fastrtps_cpp
[0.351s] [ 32%] Built target messages__rosidl_typesupport_cpp
[0.359s] [ 43%] Built target messages__rosidl_typesupport_connext_cpp
[0.369s] [ 55%] Built target messages__rosidl_typesupport_opensplice_cpp
[0.381s] [ 60%] Built target messages__rosidl_typesupport_fastrtps_c
[0.404s] [ 72%] Built target messages__rosidl_typesupport_connext_c
[0.411s] [ 86%] Built target messages__rosidl_typesupport_opensplice_c
[0.434s] [ 86%] Built target messages
[0.456s] [ 87%] Built target messages__py
[0.484s] [ 90%] Built target messages__python
[0.516s] [ 93%] Built target messages__rosidl_typesupport_c__pyext
[0.517s] [ 96%] Built target messages__rosidl_typesupport_fastrtps_c__pyext
[0.518s] [100%] Built target messages__rosidl_typesupport_opensplice_c__pyext
[0.663s] [  1%] Built target messages__dds_opensplice_idl
[0.669s] [  3%] Built target messages__cpp
[0.673s] [  7%] Built target messages__rosidl_generator_c
[0.675s] [  9%] Built target messages__dds_connext_idl
[0.714s] [ 18%] Built target messages__rosidl_typesupport_introspection_cpp
[0.714s] [ 18%] Built target messages__rosidl_typesupport_cpp
[0.716s] [ 23%] Built target messages__rosidl_typesupport_introspection_c
[0.717s] [ 27%] Built target messages__rosidl_typesupport_c
[0.719s] [ 32%] Built target messages__rosidl_typesupport_fastrtps_cpp
[0.724s] [ 44%] Built target messages__rosidl_typesupport_opensplice_cpp
[0.737s] [ 55%] Built target messages__rosidl_typesupport_connext_cpp
[0.753s] [ 60%] Built target messages__rosidl_typesupport_fastrtps_c
[0.760s] [ 73%] Built target messages__rosidl_typesupport_opensplice_c
[0.774s] [ 86%] Built target messages__rosidl_typesupport_connext_c
[0.792s] [ 86%] Built target messages
[0.810s] [ 87%] Built target messages__py
[0.832s] [ 90%] Built target messages__python
[0.859s] [ 93%] Built target messages__rosidl_typesupport_opensplice_c__pyext
[0.862s] [ 96%] Built target messages__rosidl_typesupport_c__pyext
[0.864s] [100%] Built target messages__rosidl_typesupport_fastrtps_c__pyext
[0.882s] [36mInstall the project...[0m
[0.890s] -- Install configuration: ""
[0.890s] -- Up-to-date: /home/dom/Cerberus/install/messages/share/ament_index/resource_index/rosidl_interfaces/messages
[0.890s] -- Up-to-date: /home/dom/Cerberus/install/messages/lib/libmessages__rosidl_typesupport_c.so
[0.890s] -- Up-to-date: /home/dom/Cerberus/install/messages/share/messages/environment/library_path.sh
[0.890s] -- Up-to-date: /home/dom/Cerberus/install/messages/lib/libmessages__rosidl_typesupport_cpp.so
[0.891s] -- Up-to-date: /home/dom/Cerberus/install/messages/include/messages
[0.891s] -- Up-to-date: /home/dom/Cerberus/install/messages/include/messages/msg
[0.891s] -- Up-to-date: /home/dom/Cerberus/install/messages/include/messages/msg/dds_connext
[0.891s] -- Up-to-date: /home/dom/Cerberus/install/messages/include/messages/msg/rosidl_typesupport_connext_c__visibility_control.h
[0.891s] -- Up-to-date: /home/dom/Cerberus/install/messages/include/messages/msg/img__rosidl_typesupport_connext_c.h
[0.891s] -- Up-to-date: /home/dom/Cerberus/install/messages/lib/libmessages__rosidl_typesupport_connext_c.so
[0.891s] -- Up-to-date: /home/dom/Cerberus/install/messages/include/messages
[0.891s] -- Up-to-date: /home/dom/Cerberus/install/messages/include/messages/msg
[0.891s] -- Up-to-date: /home/dom/Cerberus/install/messages/include/messages/msg/img__functions.h
[0.891s] -- Up-to-date: /home/dom/Cerberus/install/messages/include/messages/msg/rosidl_generator_c__visibility_control.h
[0.892s] -- Up-to-date: /home/dom/Cerberus/install/messages/include/messages/msg/img__struct.h
[0.892s] -- Up-to-date: /home/dom/Cerberus/install/messages/include/messages/msg/img__functions.c
[0.892s] -- Up-to-date: /home/dom/Cerberus/install/messages/include/messages/msg/img__type_support.h
[0.892s] -- Up-to-date: /home/dom/Cerberus/install/messages/include/messages/msg/img.h
[0.892s] -- Up-to-date: /home/dom/Cerberus/install/messages/lib/libmessages__rosidl_generator_c.so
[0.892s] -- Up-to-date: /home/dom/Cerberus/install/messages/share/messages/msg/dds_connext
[0.892s] -- Up-to-date: /home/dom/Cerberus/install/messages/share/messages/msg/dds_connext/Img_.idl
[0.892s] -- Up-to-date: /home/dom/Cerberus/install/messages/include/messages
[0.892s] -- Up-to-date: /home/dom/Cerberus/install/messages/include/messages/msg
[0.892s] -- Up-to-date: /home/dom/Cerberus/install/messages/include/messages/msg/dds_connext
[0.892s] -- Up-to-date: /home/dom/Cerberus/install/messages/include/messages/msg/dds_connext/Img_Support.h
[0.892s] -- Up-to-date: /home/dom/Cerberus/install/messages/include/messages/msg/dds_connext/Img_.cxx
[0.893s] -- Up-to-date: /home/dom/Cerberus/install/messages/include/messages/msg/dds_connext/Img_Plugin.cxx
[0.893s] -- Up-to-date: /home/dom/Cerberus/install/messages/include/messages/msg/dds_connext/Img_.h
[0.893s] -- Up-to-date: /home/dom/Cerberus/install/messages/include/messages/msg/dds_connext/Img_Plugin.h
[0.893s] -- Up-to-date: /home/dom/Cerberus/install/messages/include/messages/msg/dds_connext/Img_Support.cxx
[0.893s] -- Up-to-date: /home/dom/Cerberus/install/messages/include/messages/msg/rosidl_typesupport_connext_cpp__visibility_control.h
[0.893s] -- Up-to-date: /home/dom/Cerberus/install/messages/include/messages/msg/img__rosidl_typesupport_connext_cpp.hpp
[0.893s] -- Up-to-date: /home/dom/Cerberus/install/messages/lib/libmessages__rosidl_typesupport_connext_cpp.so
[0.893s] -- Up-to-date: /home/dom/Cerberus/install/messages/include/messages
[0.893s] -- Up-to-date: /home/dom/Cerberus/install/messages/include/messages/msg
[0.893s] -- Up-to-date: /home/dom/Cerberus/install/messages/include/messages/msg/img__traits.hpp
[0.893s] -- Up-to-date: /home/dom/Cerberus/install/messages/include/messages/msg/img.hpp
[0.894s] -- Up-to-date: /home/dom/Cerberus/install/messages/include/messages/msg/img__struct.hpp
[0.894s] -- Up-to-date: /home/dom/Cerberus/install/messages/include/messages
[0.894s] -- Up-to-date: /home/dom/Cerberus/install/messages/include/messages/msg
[0.894s] -- Up-to-date: /home/dom/Cerberus/install/messages/include/messages/msg/rosidl_typesupport_fastrtps_c__visibility_control.h
[0.894s] -- Up-to-date: /home/dom/Cerberus/install/messages/include/messages/msg/img__rosidl_typesupport_fastrtps_c.h
[0.894s] -- Up-to-date: /home/dom/Cerberus/install/messages/lib/libmessages__rosidl_typesupport_fastrtps_c.so
[0.894s] -- Up-to-date: /home/dom/Cerberus/install/messages/include/messages
[0.895s] -- Up-to-date: /home/dom/Cerberus/install/messages/include/messages/msg
[0.895s] -- Up-to-date: /home/dom/Cerberus/install/messages/include/messages/msg/dds_fastrtps
[0.895s] -- Up-to-date: /home/dom/Cerberus/install/messages/include/messages/msg/rosidl_typesupport_fastrtps_cpp__visibility_control.h
[0.895s] -- Up-to-date: /home/dom/Cerberus/install/messages/include/messages/msg/img__rosidl_typesupport_fastrtps_cpp.hpp
[0.895s] -- Up-to-date: /home/dom/Cerberus/install/messages/lib/libmessages__rosidl_typesupport_fastrtps_cpp.so
[0.895s] -- Up-to-date: /home/dom/Cerberus/install/messages/include/messages
[0.895s] -- Up-to-date: /home/dom/Cerberus/install/messages/include/messages/msg
[0.896s] -- Up-to-date: /home/dom/Cerberus/install/messages/include/messages/msg/img__type_support.c
[0.896s] -- Up-to-date: /home/dom/Cerberus/install/messages/include/messages/msg/img__rosidl_typesupport_introspection_c.h
[0.896s] -- Up-to-date: /home/dom/Cerberus/install/messages/include/messages/msg/rosidl_typesupport_introspection_c__visibility_control.h
[0.896s] -- Up-to-date: /home/dom/Cerberus/install/messages/lib/libmessages__rosidl_typesupport_introspection_c.so
[0.896s] -- Up-to-date: /home/dom/Cerberus/install/messages/include/messages
[0.896s] -- Up-to-date: /home/dom/Cerberus/install/messages/include/messages/msg
[0.897s] -- Up-to-date: /home/dom/Cerberus/install/messages/include/messages/msg/rosidl_typesupport_opensplice_c__visibility_control.h
[0.897s] -- Up-to-date: /home/dom/Cerberus/install/messages/include/messages/msg/dds_opensplice_c
[0.897s] -- Up-to-date: /home/dom/Cerberus/install/messages/include/messages/msg/img__rosidl_typesupport_opensplice_c.h
[0.897s] -- Up-to-date: /home/dom/Cerberus/install/messages/lib/libmessages__rosidl_typesupport_opensplice_c.so
[0.898s] -- Up-to-date: /home/dom/Cerberus/install/messages/share/messages/msg/dds_opensplice
[0.898s] -- Up-to-date: /home/dom/Cerberus/install/messages/share/messages/msg/dds_opensplice/Img_.idl
[0.898s] -- Up-to-date: /home/dom/Cerberus/install/messages/include/messages
[0.899s] -- Up-to-date: /home/dom/Cerberus/install/messages/include/messages/msg
[0.899s] -- Up-to-date: /home/dom/Cerberus/install/messages/include/messages/msg/dds_opensplice
[0.899s] -- Up-to-date: /home/dom/Cerberus/install/messages/include/messages/msg/dds_opensplice/Img_Dcps_impl.h
[0.899s] -- Up-to-date: /home/dom/Cerberus/install/messages/include/messages/msg/dds_opensplice/Img_.h
[0.899s] -- Up-to-date: /home/dom/Cerberus/install/messages/include/messages/msg/dds_opensplice/Img_Dcps.h
[0.900s] -- Up-to-date: /home/dom/Cerberus/install/messages/include/messages/msg/dds_opensplice/Img_SplDcps.h
[0.900s] -- Up-to-date: /home/dom/Cerberus/install/messages/include/messages/msg/dds_opensplice/ccpp_Img_.h
[0.900s] -- Up-to-date: /home/dom/Cerberus/install/messages/include/messages/msg/img__rosidl_typesupport_opensplice_cpp.hpp
[0.901s] -- Up-to-date: /home/dom/Cerberus/install/messages/include/messages/msg/rosidl_typesupport_opensplice_cpp__visibility_control.h
[0.901s] -- Up-to-date: /home/dom/Cerberus/install/messages/lib/libmessages__rosidl_typesupport_opensplice_cpp.so
[0.901s] -- Up-to-date: /home/dom/Cerberus/install/messages/include/messages
[0.901s] -- Up-to-date: /home/dom/Cerberus/install/messages/include/messages/msg
[0.901s] -- Up-to-date: /home/dom/Cerberus/install/messages/include/messages/msg/img__type_support.cpp
[0.902s] -- Up-to-date: /home/dom/Cerberus/install/messages/include/messages/msg/img__rosidl_typesupport_introspection_cpp.hpp
[0.903s] -- Up-to-date: /home/dom/Cerberus/install/messages/lib/libmessages__rosidl_typesupport_introspection_cpp.so
[0.903s] -- Up-to-date: /home/dom/Cerberus/install/messages/share/messages/environment/pythonpath.sh
[0.903s] -- Up-to-date: /home/dom/Cerberus/install/messages/lib/python3.6/site-packages/messages/__init__.py
[0.932s] -- Up-to-date: /home/dom/Cerberus/install/messages/lib/python3.6/site-packages/messages/msg
[0.932s] -- Up-to-date: /home/dom/Cerberus/install/messages/lib/python3.6/site-packages/messages/msg/_img_s.c
[0.932s] -- Up-to-date: /home/dom/Cerberus/install/messages/lib/python3.6/site-packages/messages/msg/_img.py
[0.932s] -- Up-to-date: /home/dom/Cerberus/install/messages/lib/python3.6/site-packages/messages/msg/__init__.py
[0.933s] -- Up-to-date: /home/dom/Cerberus/install/messages/lib/python3.6/site-packages/messages/messages_s__rosidl_typesupport_c.cpython-36m-x86_64-linux-gnu.so
[0.933s] -- Up-to-date: /home/dom/Cerberus/install/messages/lib/python3.6/site-packages/messages/messages_s__rosidl_typesupport_fastrtps_c.cpython-36m-x86_64-linux-gnu.so
[0.934s] -- Up-to-date: /home/dom/Cerberus/install/messages/lib/python3.6/site-packages/messages/messages_s__rosidl_typesupport_opensplice_c.cpython-36m-x86_64-linux-gnu.so
[0.934s] -- Up-to-date: /home/dom/Cerberus/install/messages/lib/libmessages__python.so
[0.935s] -- Up-to-date: /home/dom/Cerberus/install/messages/share/messages/msg/Img.idl
[0.935s] -- Up-to-date: /home/dom/Cerberus/install/messages/share/messages/msg/Img.msg
[0.935s] -- Up-to-date: /home/dom/Cerberus/install/messages/share/ament_index/resource_index/package_run_dependencies/messages
[0.935s] -- Up-to-date: /home/dom/Cerberus/install/messages/share/ament_index/resource_index/parent_prefix_path/messages
[0.935s] -- Up-to-date: /home/dom/Cerberus/install/messages/share/messages/environment/ament_prefix_path.sh
[0.935s] -- Up-to-date: /home/dom/Cerberus/install/messages/share/messages/environment/path.sh
[0.935s] -- Up-to-date: /home/dom/Cerberus/install/messages/share/messages/local_setup.bash
[0.935s] -- Up-to-date: /home/dom/Cerberus/install/messages/share/messages/local_setup.sh
[0.935s] -- Up-to-date: /home/dom/Cerberus/install/messages/share/messages/local_setup.zsh
[0.935s] -- Up-to-date: /home/dom/Cerberus/install/messages/share/ament_index/resource_index/packages/messages
[0.936s] -- Up-to-date: /home/dom/Cerberus/install/messages/share/messages/cmake/rosidl_cmake-extras.cmake
[0.936s] -- Up-to-date: /home/dom/Cerberus/install/messages/share/messages/cmake/ament_cmake_export_libraries-extras.cmake
[0.936s] -- Up-to-date: /home/dom/Cerberus/install/messages/share/messages/cmake/ament_cmake_export_include_directories-extras.cmake
[0.936s] -- Up-to-date: /home/dom/Cerberus/install/messages/share/messages/cmake/rosidl_cmake_export_typesupport_libraries-extras.cmake
[0.938s] -- Up-to-date: /home/dom/Cerberus/install/messages/share/messages/cmake/messagesConfig.cmake
[0.938s] -- Up-to-date: /home/dom/Cerberus/install/messages/share/messages/cmake/messagesConfig-version.cmake
[0.938s] -- Up-to-date: /home/dom/Cerberus/install/messages/share/messages/package.xml
