[0.324s] [  1%] Built target tutorial_interfaces__dds_opensplice_idl
[0.325s] [  3%] Built target tutorial_interfaces__dds_connext_idl
[0.326s] [  4%] Built target tutorial_interfaces__cpp
[0.331s] [  9%] Built target tutorial_interfaces__rosidl_generator_c
[0.370s] [ 13%] Built target tutorial_interfaces__rosidl_typesupport_introspection_cpp
[0.372s] [ 18%] Built target tutorial_interfaces__rosidl_typesupport_fastrtps_cpp
[0.376s] [ 23%] Built target tutorial_interfaces__rosidl_typesupport_cpp
[0.381s] [ 27%] Built target tutorial_interfaces__rosidl_typesupport_c
[0.385s] [ 32%] Built target tutorial_interfaces__rosidl_typesupport_introspection_c
[0.397s] [ 44%] Built target tutorial_interfaces__rosidl_typesupport_opensplice_cpp
[0.398s] [ 55%] Built target tutorial_interfaces__rosidl_typesupport_connext_cpp
[0.418s] [ 60%] Built target tutorial_interfaces__rosidl_typesupport_fastrtps_c
[0.449s] [ 73%] Built target tutorial_interfaces__rosidl_typesupport_opensplice_c
[0.465s] [ 86%] Built target tutorial_interfaces__rosidl_typesupport_connext_c
[0.495s] [ 86%] Built target tutorial_interfaces
[0.523s] [ 87%] Built target tutorial_interfaces__py
[0.557s] [ 90%] Built target tutorial_interfaces__python
[0.595s] [ 93%] Built target tutorial_interfaces__rosidl_typesupport_fastrtps_c__pyext
[0.597s] [ 96%] Built target tutorial_interfaces__rosidl_typesupport_c__pyext
[0.601s] [100%] Built target tutorial_interfaces__rosidl_typesupport_opensplice_c__pyext
[0.803s] [  1%] Built target tutorial_interfaces__cpp
[0.804s] [  3%] Built target tutorial_interfaces__dds_opensplice_idl
[0.807s] [  4%] Built target tutorial_interfaces__dds_connext_idl
[0.810s] [  9%] Built target tutorial_interfaces__rosidl_generator_c
[0.845s] [ 13%] Built target tutorial_interfaces__rosidl_typesupport_cpp
[0.846s] [ 18%] Built target tutorial_interfaces__rosidl_typesupport_introspection_cpp
[0.854s] [ 23%] Built target tutorial_interfaces__rosidl_typesupport_fastrtps_cpp
[0.855s] [ 27%] Built target tutorial_interfaces__rosidl_typesupport_introspection_c
[0.856s] [ 32%] Built target tutorial_interfaces__rosidl_typesupport_c
[0.879s] [ 44%] Built target tutorial_interfaces__rosidl_typesupport_opensplice_cpp
[0.882s] [ 55%] Built target tutorial_interfaces__rosidl_typesupport_connext_cpp
[0.898s] [ 60%] Built target tutorial_interfaces__rosidl_typesupport_fastrtps_c
[0.929s] [ 73%] Built target tutorial_interfaces__rosidl_typesupport_opensplice_c
[0.933s] [ 86%] Built target tutorial_interfaces__rosidl_typesupport_connext_c
[0.956s] [ 86%] Built target tutorial_interfaces
[0.980s] [ 87%] Built target tutorial_interfaces__py
[1.010s] [ 90%] Built target tutorial_interfaces__python
[1.041s] [ 96%] Built target tutorial_interfaces__rosidl_typesupport_c__pyext
[1.041s] [ 96%] Built target tutorial_interfaces__rosidl_typesupport_opensplice_c__pyext
[1.049s] [100%] Built target tutorial_interfaces__rosidl_typesupport_fastrtps_c__pyext
[1.073s] [36mInstall the project...[0m
[1.084s] -- Install configuration: ""
[1.084s] -- Up-to-date: /home/dom/Cerberus/install/tutorial_interfaces/share/ament_index/resource_index/rosidl_interfaces/tutorial_interfaces
[1.085s] -- Up-to-date: /home/dom/Cerberus/install/tutorial_interfaces/lib/libtutorial_interfaces__rosidl_typesupport_c.so
[1.085s] -- Up-to-date: /home/dom/Cerberus/install/tutorial_interfaces/share/tutorial_interfaces/environment/library_path.sh
[1.085s] -- Up-to-date: /home/dom/Cerberus/install/tutorial_interfaces/lib/libtutorial_interfaces__rosidl_typesupport_cpp.so
[1.085s] -- Up-to-date: /home/dom/Cerberus/install/tutorial_interfaces/include/tutorial_interfaces
[1.086s] -- Up-to-date: /home/dom/Cerberus/install/tutorial_interfaces/include/tutorial_interfaces/msg
[1.086s] -- Up-to-date: /home/dom/Cerberus/install/tutorial_interfaces/include/tutorial_interfaces/msg/dds_connext
[1.086s] -- Up-to-date: /home/dom/Cerberus/install/tutorial_interfaces/include/tutorial_interfaces/msg/rosidl_typesupport_connext_c__visibility_control.h
[1.086s] -- Up-to-date: /home/dom/Cerberus/install/tutorial_interfaces/include/tutorial_interfaces/msg/num__rosidl_typesupport_connext_c.h
[1.086s] -- Up-to-date: /home/dom/Cerberus/install/tutorial_interfaces/lib/libtutorial_interfaces__rosidl_typesupport_connext_c.so
[1.086s] -- Up-to-date: /home/dom/Cerberus/install/tutorial_interfaces/include/tutorial_interfaces
[1.086s] -- Up-to-date: /home/dom/Cerberus/install/tutorial_interfaces/include/tutorial_interfaces/msg
[1.086s] -- Up-to-date: /home/dom/Cerberus/install/tutorial_interfaces/include/tutorial_interfaces/msg/num__functions.h
[1.086s] -- Up-to-date: /home/dom/Cerberus/install/tutorial_interfaces/include/tutorial_interfaces/msg/rosidl_generator_c__visibility_control.h
[1.087s] -- Up-to-date: /home/dom/Cerberus/install/tutorial_interfaces/include/tutorial_interfaces/msg/num__functions.c
[1.087s] -- Up-to-date: /home/dom/Cerberus/install/tutorial_interfaces/include/tutorial_interfaces/msg/num.h
[1.087s] -- Up-to-date: /home/dom/Cerberus/install/tutorial_interfaces/include/tutorial_interfaces/msg/num__type_support.h
[1.087s] -- Up-to-date: /home/dom/Cerberus/install/tutorial_interfaces/include/tutorial_interfaces/msg/num__struct.h
[1.087s] -- Up-to-date: /home/dom/Cerberus/install/tutorial_interfaces/lib/libtutorial_interfaces__rosidl_generator_c.so
[1.087s] -- Up-to-date: /home/dom/Cerberus/install/tutorial_interfaces/share/tutorial_interfaces/msg/dds_connext
[1.087s] -- Up-to-date: /home/dom/Cerberus/install/tutorial_interfaces/share/tutorial_interfaces/msg/dds_connext/Num_.idl
[1.087s] -- Up-to-date: /home/dom/Cerberus/install/tutorial_interfaces/include/tutorial_interfaces
[1.088s] -- Up-to-date: /home/dom/Cerberus/install/tutorial_interfaces/include/tutorial_interfaces/msg
[1.088s] -- Up-to-date: /home/dom/Cerberus/install/tutorial_interfaces/include/tutorial_interfaces/msg/dds_connext
[1.088s] -- Up-to-date: /home/dom/Cerberus/install/tutorial_interfaces/include/tutorial_interfaces/msg/dds_connext/Num_Support.cxx
[1.088s] -- Up-to-date: /home/dom/Cerberus/install/tutorial_interfaces/include/tutorial_interfaces/msg/dds_connext/Num_Support.h
[1.088s] -- Up-to-date: /home/dom/Cerberus/install/tutorial_interfaces/include/tutorial_interfaces/msg/dds_connext/Num_Plugin.cxx
[1.088s] -- Up-to-date: /home/dom/Cerberus/install/tutorial_interfaces/include/tutorial_interfaces/msg/dds_connext/Num_.cxx
[1.088s] -- Up-to-date: /home/dom/Cerberus/install/tutorial_interfaces/include/tutorial_interfaces/msg/dds_connext/Num_Plugin.h
[1.088s] -- Up-to-date: /home/dom/Cerberus/install/tutorial_interfaces/include/tutorial_interfaces/msg/dds_connext/Num_.h
[1.088s] -- Up-to-date: /home/dom/Cerberus/install/tutorial_interfaces/include/tutorial_interfaces/msg/rosidl_typesupport_connext_cpp__visibility_control.h
[1.088s] -- Up-to-date: /home/dom/Cerberus/install/tutorial_interfaces/include/tutorial_interfaces/msg/num__rosidl_typesupport_connext_cpp.hpp
[1.089s] -- Up-to-date: /home/dom/Cerberus/install/tutorial_interfaces/lib/libtutorial_interfaces__rosidl_typesupport_connext_cpp.so
[1.089s] -- Up-to-date: /home/dom/Cerberus/install/tutorial_interfaces/include/tutorial_interfaces
[1.089s] -- Up-to-date: /home/dom/Cerberus/install/tutorial_interfaces/include/tutorial_interfaces/msg
[1.089s] -- Up-to-date: /home/dom/Cerberus/install/tutorial_interfaces/include/tutorial_interfaces/msg/num__traits.hpp
[1.089s] -- Up-to-date: /home/dom/Cerberus/install/tutorial_interfaces/include/tutorial_interfaces/msg/num__struct.hpp
[1.089s] -- Up-to-date: /home/dom/Cerberus/install/tutorial_interfaces/include/tutorial_interfaces/msg/num.hpp
[1.089s] -- Up-to-date: /home/dom/Cerberus/install/tutorial_interfaces/include/tutorial_interfaces
[1.089s] -- Up-to-date: /home/dom/Cerberus/install/tutorial_interfaces/include/tutorial_interfaces/msg
[1.090s] -- Up-to-date: /home/dom/Cerberus/install/tutorial_interfaces/include/tutorial_interfaces/msg/rosidl_typesupport_fastrtps_c__visibility_control.h
[1.090s] -- Up-to-date: /home/dom/Cerberus/install/tutorial_interfaces/include/tutorial_interfaces/msg/num__rosidl_typesupport_fastrtps_c.h
[1.090s] -- Up-to-date: /home/dom/Cerberus/install/tutorial_interfaces/lib/libtutorial_interfaces__rosidl_typesupport_fastrtps_c.so
[1.090s] -- Up-to-date: /home/dom/Cerberus/install/tutorial_interfaces/include/tutorial_interfaces
[1.090s] -- Up-to-date: /home/dom/Cerberus/install/tutorial_interfaces/include/tutorial_interfaces/msg
[1.090s] -- Up-to-date: /home/dom/Cerberus/install/tutorial_interfaces/include/tutorial_interfaces/msg/dds_fastrtps
[1.090s] -- Up-to-date: /home/dom/Cerberus/install/tutorial_interfaces/include/tutorial_interfaces/msg/num__rosidl_typesupport_fastrtps_cpp.hpp
[1.090s] -- Up-to-date: /home/dom/Cerberus/install/tutorial_interfaces/include/tutorial_interfaces/msg/rosidl_typesupport_fastrtps_cpp__visibility_control.h
[1.090s] -- Up-to-date: /home/dom/Cerberus/install/tutorial_interfaces/lib/libtutorial_interfaces__rosidl_typesupport_fastrtps_cpp.so
[1.091s] -- Up-to-date: /home/dom/Cerberus/install/tutorial_interfaces/include/tutorial_interfaces
[1.091s] -- Up-to-date: /home/dom/Cerberus/install/tutorial_interfaces/include/tutorial_interfaces/msg
[1.091s] -- Up-to-date: /home/dom/Cerberus/install/tutorial_interfaces/include/tutorial_interfaces/msg/rosidl_typesupport_introspection_c__visibility_control.h
[1.091s] -- Up-to-date: /home/dom/Cerberus/install/tutorial_interfaces/include/tutorial_interfaces/msg/num__type_support.c
[1.091s] -- Up-to-date: /home/dom/Cerberus/install/tutorial_interfaces/include/tutorial_interfaces/msg/num__rosidl_typesupport_introspection_c.h
[1.091s] -- Up-to-date: /home/dom/Cerberus/install/tutorial_interfaces/lib/libtutorial_interfaces__rosidl_typesupport_introspection_c.so
[1.091s] -- Up-to-date: /home/dom/Cerberus/install/tutorial_interfaces/include/tutorial_interfaces
[1.091s] -- Up-to-date: /home/dom/Cerberus/install/tutorial_interfaces/include/tutorial_interfaces/msg
[1.091s] -- Up-to-date: /home/dom/Cerberus/install/tutorial_interfaces/include/tutorial_interfaces/msg/num__rosidl_typesupport_opensplice_c.h
[1.092s] -- Up-to-date: /home/dom/Cerberus/install/tutorial_interfaces/include/tutorial_interfaces/msg/rosidl_typesupport_opensplice_c__visibility_control.h
[1.092s] -- Up-to-date: /home/dom/Cerberus/install/tutorial_interfaces/include/tutorial_interfaces/msg/dds_opensplice_c
[1.092s] -- Up-to-date: /home/dom/Cerberus/install/tutorial_interfaces/lib/libtutorial_interfaces__rosidl_typesupport_opensplice_c.so
[1.092s] -- Up-to-date: /home/dom/Cerberus/install/tutorial_interfaces/share/tutorial_interfaces/msg/dds_opensplice
[1.092s] -- Up-to-date: /home/dom/Cerberus/install/tutorial_interfaces/share/tutorial_interfaces/msg/dds_opensplice/Num_.idl
[1.092s] -- Up-to-date: /home/dom/Cerberus/install/tutorial_interfaces/include/tutorial_interfaces
[1.092s] -- Up-to-date: /home/dom/Cerberus/install/tutorial_interfaces/include/tutorial_interfaces/msg
[1.092s] -- Up-to-date: /home/dom/Cerberus/install/tutorial_interfaces/include/tutorial_interfaces/msg/dds_opensplice
[1.092s] -- Up-to-date: /home/dom/Cerberus/install/tutorial_interfaces/include/tutorial_interfaces/msg/dds_opensplice/ccpp_Num_.h
[1.092s] -- Up-to-date: /home/dom/Cerberus/install/tutorial_interfaces/include/tutorial_interfaces/msg/dds_opensplice/Num_Dcps_impl.h
[1.093s] -- Up-to-date: /home/dom/Cerberus/install/tutorial_interfaces/include/tutorial_interfaces/msg/dds_opensplice/Num_SplDcps.h
[1.093s] -- Up-to-date: /home/dom/Cerberus/install/tutorial_interfaces/include/tutorial_interfaces/msg/dds_opensplice/Num_Dcps.h
[1.093s] -- Up-to-date: /home/dom/Cerberus/install/tutorial_interfaces/include/tutorial_interfaces/msg/dds_opensplice/Num_.h
[1.093s] -- Up-to-date: /home/dom/Cerberus/install/tutorial_interfaces/include/tutorial_interfaces/msg/num__rosidl_typesupport_opensplice_cpp.hpp
[1.093s] -- Up-to-date: /home/dom/Cerberus/install/tutorial_interfaces/include/tutorial_interfaces/msg/rosidl_typesupport_opensplice_cpp__visibility_control.h
[1.093s] -- Up-to-date: /home/dom/Cerberus/install/tutorial_interfaces/lib/libtutorial_interfaces__rosidl_typesupport_opensplice_cpp.so
[1.093s] -- Up-to-date: /home/dom/Cerberus/install/tutorial_interfaces/include/tutorial_interfaces
[1.093s] -- Up-to-date: /home/dom/Cerberus/install/tutorial_interfaces/include/tutorial_interfaces/msg
[1.093s] -- Up-to-date: /home/dom/Cerberus/install/tutorial_interfaces/include/tutorial_interfaces/msg/num__type_support.cpp
[1.093s] -- Up-to-date: /home/dom/Cerberus/install/tutorial_interfaces/include/tutorial_interfaces/msg/num__rosidl_typesupport_introspection_cpp.hpp
[1.093s] -- Up-to-date: /home/dom/Cerberus/install/tutorial_interfaces/lib/libtutorial_interfaces__rosidl_typesupport_introspection_cpp.so
[1.094s] -- Up-to-date: /home/dom/Cerberus/install/tutorial_interfaces/share/tutorial_interfaces/environment/pythonpath.sh
[1.094s] -- Up-to-date: /home/dom/Cerberus/install/tutorial_interfaces/lib/python3.6/site-packages/tutorial_interfaces/__init__.py
[1.138s] -- Up-to-date: /home/dom/Cerberus/install/tutorial_interfaces/lib/python3.6/site-packages/tutorial_interfaces/msg
[1.138s] -- Up-to-date: /home/dom/Cerberus/install/tutorial_interfaces/lib/python3.6/site-packages/tutorial_interfaces/msg/_num.py
[1.138s] -- Up-to-date: /home/dom/Cerberus/install/tutorial_interfaces/lib/python3.6/site-packages/tutorial_interfaces/msg/_num_s.c
[1.138s] -- Up-to-date: /home/dom/Cerberus/install/tutorial_interfaces/lib/python3.6/site-packages/tutorial_interfaces/msg/__init__.py
[1.138s] -- Up-to-date: /home/dom/Cerberus/install/tutorial_interfaces/lib/python3.6/site-packages/tutorial_interfaces/tutorial_interfaces_s__rosidl_typesupport_c.cpython-36m-x86_64-linux-gnu.so
[1.139s] -- Up-to-date: /home/dom/Cerberus/install/tutorial_interfaces/lib/python3.6/site-packages/tutorial_interfaces/tutorial_interfaces_s__rosidl_typesupport_fastrtps_c.cpython-36m-x86_64-linux-gnu.so
[1.140s] -- Up-to-date: /home/dom/Cerberus/install/tutorial_interfaces/lib/python3.6/site-packages/tutorial_interfaces/tutorial_interfaces_s__rosidl_typesupport_opensplice_c.cpython-36m-x86_64-linux-gnu.so
[1.140s] -- Up-to-date: /home/dom/Cerberus/install/tutorial_interfaces/lib/libtutorial_interfaces__python.so
[1.141s] -- Up-to-date: /home/dom/Cerberus/install/tutorial_interfaces/share/tutorial_interfaces/msg/Num.idl
[1.141s] -- Up-to-date: /home/dom/Cerberus/install/tutorial_interfaces/share/tutorial_interfaces/msg/Num.msg
[1.141s] -- Up-to-date: /home/dom/Cerberus/install/tutorial_interfaces/share/ament_index/resource_index/package_run_dependencies/tutorial_interfaces
[1.142s] -- Up-to-date: /home/dom/Cerberus/install/tutorial_interfaces/share/ament_index/resource_index/parent_prefix_path/tutorial_interfaces
[1.142s] -- Up-to-date: /home/dom/Cerberus/install/tutorial_interfaces/share/tutorial_interfaces/environment/ament_prefix_path.sh
[1.142s] -- Up-to-date: /home/dom/Cerberus/install/tutorial_interfaces/share/tutorial_interfaces/environment/path.sh
[1.142s] -- Up-to-date: /home/dom/Cerberus/install/tutorial_interfaces/share/tutorial_interfaces/local_setup.bash
[1.142s] -- Up-to-date: /home/dom/Cerberus/install/tutorial_interfaces/share/tutorial_interfaces/local_setup.sh
[1.142s] -- Up-to-date: /home/dom/Cerberus/install/tutorial_interfaces/share/tutorial_interfaces/local_setup.zsh
[1.142s] -- Up-to-date: /home/dom/Cerberus/install/tutorial_interfaces/share/ament_index/resource_index/packages/tutorial_interfaces
[1.142s] -- Up-to-date: /home/dom/Cerberus/install/tutorial_interfaces/share/tutorial_interfaces/cmake/rosidl_cmake-extras.cmake
[1.142s] -- Up-to-date: /home/dom/Cerberus/install/tutorial_interfaces/share/tutorial_interfaces/cmake/ament_cmake_export_libraries-extras.cmake
[1.143s] -- Up-to-date: /home/dom/Cerberus/install/tutorial_interfaces/share/tutorial_interfaces/cmake/ament_cmake_export_include_directories-extras.cmake
[1.143s] -- Up-to-date: /home/dom/Cerberus/install/tutorial_interfaces/share/tutorial_interfaces/cmake/rosidl_cmake_export_typesupport_libraries-extras.cmake
[1.143s] -- Up-to-date: /home/dom/Cerberus/install/tutorial_interfaces/share/tutorial_interfaces/cmake/tutorial_interfacesConfig.cmake
[1.143s] -- Up-to-date: /home/dom/Cerberus/install/tutorial_interfaces/share/tutorial_interfaces/cmake/tutorial_interfacesConfig-version.cmake
[1.143s] -- Up-to-date: /home/dom/Cerberus/install/tutorial_interfaces/share/tutorial_interfaces/package.xml
