[0.278s] Invoking command in '/home/dom/Cerberus/src/camera': PYTHONPATH=/home/dom/Cerberus/install/camera/lib/python3.6/site-packages:${PYTHONPATH} /usr/bin/python3 setup.py egg_info --egg-base /home/dom/Cerberus/build/camera build --build-base /home/dom/Cerberus/build/camera/build install --prefix /home/dom/Cerberus/install/camera --record /home/dom/Cerberus/build/camera/install.log --single-version-externally-managed
[0.524s] running egg_info
[0.525s] writing /home/dom/Cerberus/build/camera/camera.egg-info/PKG-INFO
[0.525s] writing dependency_links to /home/dom/Cerberus/build/camera/camera.egg-info/dependency_links.txt
[0.526s] writing entry points to /home/dom/Cerberus/build/camera/camera.egg-info/entry_points.txt
[0.526s] writing requirements to /home/dom/Cerberus/build/camera/camera.egg-info/requires.txt
[0.526s] writing top-level names to /home/dom/Cerberus/build/camera/camera.egg-info/top_level.txt
[0.551s] reading manifest file '/home/dom/Cerberus/build/camera/camera.egg-info/SOURCES.txt'
[0.552s] writing manifest file '/home/dom/Cerberus/build/camera/camera.egg-info/SOURCES.txt'
[0.552s] running build
[0.552s] running build_py
[0.552s] copying camera/detector.py -> /home/dom/Cerberus/build/camera/build/lib/camera
[0.552s] running install
[0.553s] running install_lib
[0.554s] copying /home/dom/Cerberus/build/camera/build/lib/camera/detector.py -> /home/dom/Cerberus/install/camera/lib/python3.6/site-packages/camera
[0.554s] byte-compiling /home/dom/Cerberus/install/camera/lib/python3.6/site-packages/camera/detector.py to detector.cpython-36.pyc
[0.555s] running install_data
[0.555s] running install_egg_info
[0.557s] removing '/home/dom/Cerberus/install/camera/lib/python3.6/site-packages/camera-0.0.0-py3.6.egg-info' (and everything under it)
[0.557s] Copying /home/dom/Cerberus/build/camera/camera.egg-info to /home/dom/Cerberus/install/camera/lib/python3.6/site-packages/camera-0.0.0-py3.6.egg-info
[0.558s] running install_scripts
[0.571s] Installing camera_msg script to /home/dom/Cerberus/install/camera/lib/camera
[0.571s] Installing detector script to /home/dom/Cerberus/install/camera/lib/camera
[0.571s] Installing util script to /home/dom/Cerberus/install/camera/lib/camera
[0.571s] writing list of installed files to '/home/dom/Cerberus/build/camera/install.log'
[0.587s] Invoked command in '/home/dom/Cerberus/src/camera' returned '0': PYTHONPATH=/home/dom/Cerberus/install/camera/lib/python3.6/site-packages:${PYTHONPATH} /usr/bin/python3 setup.py egg_info --egg-base /home/dom/Cerberus/build/camera build --build-base /home/dom/Cerberus/build/camera/build install --prefix /home/dom/Cerberus/install/camera --record /home/dom/Cerberus/build/camera/install.log --single-version-externally-managed
