[0.319s] [  1%] Built target tutorial_interfaces__dds_opensplice_idl
[0.321s] [  6%] Built target tutorial_interfaces__rosidl_generator_c
[0.321s] [  7%] Built target tutorial_interfaces__cpp
[0.324s] [  9%] Built target tutorial_interfaces__dds_connext_idl
[0.361s] [ 13%] Built target tutorial_interfaces__rosidl_typesupport_c
[0.362s] [ 18%] Built target tutorial_interfaces__rosidl_typesupport_cpp
[0.370s] [ 23%] Built target tutorial_interfaces__rosidl_typesupport_fastrtps_cpp
[0.371s] [ 27%] Built target tutorial_interfaces__rosidl_typesupport_introspection_cpp
[0.375s] [ 32%] Built target tutorial_interfaces__rosidl_typesupport_introspection_c
[0.386s] [ 44%] Built target tutorial_interfaces__rosidl_typesupport_opensplice_cpp
[0.392s] [ 55%] Built target tutorial_interfaces__rosidl_typesupport_connext_cpp
[0.404s] [ 60%] Built target tutorial_interfaces__rosidl_typesupport_fastrtps_c
[0.428s] [ 73%] Built target tutorial_interfaces__rosidl_typesupport_opensplice_c
[0.444s] [ 86%] Built target tutorial_interfaces__rosidl_typesupport_connext_c
[0.462s] [ 86%] Built target tutorial_interfaces
[0.485s] [ 87%] Built target tutorial_interfaces__py
[0.512s] [ 90%] Built target tutorial_interfaces__python
[0.545s] [ 93%] Built target tutorial_interfaces__rosidl_typesupport_fastrtps_c__pyext
[0.546s] [ 96%] Built target tutorial_interfaces__rosidl_typesupport_c__pyext
[0.546s] [100%] Built target tutorial_interfaces__rosidl_typesupport_opensplice_c__pyext
[0.697s] [  4%] Built target tutorial_interfaces__rosidl_generator_c
[0.700s] [  6%] Built target tutorial_interfaces__dds_connext_idl
[0.700s] [  7%] Built target tutorial_interfaces__cpp
[0.704s] [  9%] Built target tutorial_interfaces__dds_opensplice_idl
[0.732s] [ 13%] Built target tutorial_interfaces__rosidl_typesupport_c
[0.736s] [ 18%] Built target tutorial_interfaces__rosidl_typesupport_introspection_c
[0.740s] [ 23%] Built target tutorial_interfaces__rosidl_typesupport_introspection_cpp
[0.744s] [ 27%] Built target tutorial_interfaces__rosidl_typesupport_cpp
[0.752s] [ 32%] Built target tutorial_interfaces__rosidl_typesupport_fastrtps_cpp
[0.756s] [ 43%] Built target tutorial_interfaces__rosidl_typesupport_connext_cpp
[0.760s] [ 55%] Built target tutorial_interfaces__rosidl_typesupport_opensplice_cpp
[0.785s] [ 60%] Built target tutorial_interfaces__rosidl_typesupport_fastrtps_c
[0.794s] [ 73%] Built target tutorial_interfaces__rosidl_typesupport_opensplice_c
[0.802s] [ 86%] Built target tutorial_interfaces__rosidl_typesupport_connext_c
[0.825s] [ 86%] Built target tutorial_interfaces
[0.843s] [ 87%] Built target tutorial_interfaces__py
[0.869s] [ 90%] Built target tutorial_interfaces__python
[0.897s] [ 93%] Built target tutorial_interfaces__rosidl_typesupport_c__pyext
[0.898s] [ 96%] Built target tutorial_interfaces__rosidl_typesupport_fastrtps_c__pyext
[0.900s] [100%] Built target tutorial_interfaces__rosidl_typesupport_opensplice_c__pyext
[0.918s] [36mInstall the project...[0m
[0.926s] -- Install configuration: ""
[0.927s] -- Up-to-date: /home/dom/Cerberus/install/tutorial_interfaces/share/ament_index/resource_index/rosidl_interfaces/tutorial_interfaces
[0.927s] -- Up-to-date: /home/dom/Cerberus/install/tutorial_interfaces/lib/libtutorial_interfaces__rosidl_typesupport_c.so
[0.927s] -- Up-to-date: /home/dom/Cerberus/install/tutorial_interfaces/share/tutorial_interfaces/environment/library_path.sh
[0.927s] -- Up-to-date: /home/dom/Cerberus/install/tutorial_interfaces/lib/libtutorial_interfaces__rosidl_typesupport_cpp.so
[0.927s] -- Up-to-date: /home/dom/Cerberus/install/tutorial_interfaces/include/tutorial_interfaces
[0.927s] -- Up-to-date: /home/dom/Cerberus/install/tutorial_interfaces/include/tutorial_interfaces/msg
[0.928s] -- Up-to-date: /home/dom/Cerberus/install/tutorial_interfaces/include/tutorial_interfaces/msg/dds_connext
[0.928s] -- Up-to-date: /home/dom/Cerberus/install/tutorial_interfaces/include/tutorial_interfaces/msg/rosidl_typesupport_connext_c__visibility_control.h
[0.928s] -- Up-to-date: /home/dom/Cerberus/install/tutorial_interfaces/include/tutorial_interfaces/msg/num__rosidl_typesupport_connext_c.h
[0.928s] -- Up-to-date: /home/dom/Cerberus/install/tutorial_interfaces/lib/libtutorial_interfaces__rosidl_typesupport_connext_c.so
[0.928s] -- Up-to-date: /home/dom/Cerberus/install/tutorial_interfaces/include/tutorial_interfaces
[0.928s] -- Up-to-date: /home/dom/Cerberus/install/tutorial_interfaces/include/tutorial_interfaces/msg
[0.928s] -- Up-to-date: /home/dom/Cerberus/install/tutorial_interfaces/include/tutorial_interfaces/msg/num__functions.h
[0.929s] -- Up-to-date: /home/dom/Cerberus/install/tutorial_interfaces/include/tutorial_interfaces/msg/rosidl_generator_c__visibility_control.h
[0.929s] -- Up-to-date: /home/dom/Cerberus/install/tutorial_interfaces/include/tutorial_interfaces/msg/num__functions.c
[0.929s] -- Up-to-date: /home/dom/Cerberus/install/tutorial_interfaces/include/tutorial_interfaces/msg/num.h
[0.929s] -- Up-to-date: /home/dom/Cerberus/install/tutorial_interfaces/include/tutorial_interfaces/msg/num__type_support.h
[0.929s] -- Up-to-date: /home/dom/Cerberus/install/tutorial_interfaces/include/tutorial_interfaces/msg/num__struct.h
[0.929s] -- Up-to-date: /home/dom/Cerberus/install/tutorial_interfaces/lib/libtutorial_interfaces__rosidl_generator_c.so
[0.929s] -- Up-to-date: /home/dom/Cerberus/install/tutorial_interfaces/share/tutorial_interfaces/msg/dds_connext
[0.930s] -- Up-to-date: /home/dom/Cerberus/install/tutorial_interfaces/share/tutorial_interfaces/msg/dds_connext/Num_.idl
[0.930s] -- Up-to-date: /home/dom/Cerberus/install/tutorial_interfaces/include/tutorial_interfaces
[0.930s] -- Up-to-date: /home/dom/Cerberus/install/tutorial_interfaces/include/tutorial_interfaces/msg
[0.930s] -- Up-to-date: /home/dom/Cerberus/install/tutorial_interfaces/include/tutorial_interfaces/msg/dds_connext
[0.930s] -- Up-to-date: /home/dom/Cerberus/install/tutorial_interfaces/include/tutorial_interfaces/msg/dds_connext/Num_Support.cxx
[0.930s] -- Up-to-date: /home/dom/Cerberus/install/tutorial_interfaces/include/tutorial_interfaces/msg/dds_connext/Num_Support.h
[0.930s] -- Up-to-date: /home/dom/Cerberus/install/tutorial_interfaces/include/tutorial_interfaces/msg/dds_connext/Num_Plugin.cxx
[0.930s] -- Up-to-date: /home/dom/Cerberus/install/tutorial_interfaces/include/tutorial_interfaces/msg/dds_connext/Num_.cxx
[0.931s] -- Up-to-date: /home/dom/Cerberus/install/tutorial_interfaces/include/tutorial_interfaces/msg/dds_connext/Num_Plugin.h
[0.931s] -- Up-to-date: /home/dom/Cerberus/install/tutorial_interfaces/include/tutorial_interfaces/msg/dds_connext/Num_.h
[0.931s] -- Up-to-date: /home/dom/Cerberus/install/tutorial_interfaces/include/tutorial_interfaces/msg/rosidl_typesupport_connext_cpp__visibility_control.h
[0.931s] -- Up-to-date: /home/dom/Cerberus/install/tutorial_interfaces/include/tutorial_interfaces/msg/num__rosidl_typesupport_connext_cpp.hpp
[0.931s] -- Up-to-date: /home/dom/Cerberus/install/tutorial_interfaces/lib/libtutorial_interfaces__rosidl_typesupport_connext_cpp.so
[0.931s] -- Up-to-date: /home/dom/Cerberus/install/tutorial_interfaces/include/tutorial_interfaces
[0.931s] -- Up-to-date: /home/dom/Cerberus/install/tutorial_interfaces/include/tutorial_interfaces/msg
[0.932s] -- Up-to-date: /home/dom/Cerberus/install/tutorial_interfaces/include/tutorial_interfaces/msg/num__traits.hpp
[0.932s] -- Up-to-date: /home/dom/Cerberus/install/tutorial_interfaces/include/tutorial_interfaces/msg/num__struct.hpp
[0.932s] -- Up-to-date: /home/dom/Cerberus/install/tutorial_interfaces/include/tutorial_interfaces/msg/num.hpp
[0.932s] -- Up-to-date: /home/dom/Cerberus/install/tutorial_interfaces/include/tutorial_interfaces
[0.932s] -- Up-to-date: /home/dom/Cerberus/install/tutorial_interfaces/include/tutorial_interfaces/msg
[0.932s] -- Up-to-date: /home/dom/Cerberus/install/tutorial_interfaces/include/tutorial_interfaces/msg/rosidl_typesupport_fastrtps_c__visibility_control.h
[0.932s] -- Up-to-date: /home/dom/Cerberus/install/tutorial_interfaces/include/tutorial_interfaces/msg/num__rosidl_typesupport_fastrtps_c.h
[0.932s] -- Up-to-date: /home/dom/Cerberus/install/tutorial_interfaces/lib/libtutorial_interfaces__rosidl_typesupport_fastrtps_c.so
[0.933s] -- Up-to-date: /home/dom/Cerberus/install/tutorial_interfaces/include/tutorial_interfaces
[0.933s] -- Up-to-date: /home/dom/Cerberus/install/tutorial_interfaces/include/tutorial_interfaces/msg
[0.933s] -- Up-to-date: /home/dom/Cerberus/install/tutorial_interfaces/include/tutorial_interfaces/msg/dds_fastrtps
[0.933s] -- Up-to-date: /home/dom/Cerberus/install/tutorial_interfaces/include/tutorial_interfaces/msg/num__rosidl_typesupport_fastrtps_cpp.hpp
[0.933s] -- Up-to-date: /home/dom/Cerberus/install/tutorial_interfaces/include/tutorial_interfaces/msg/rosidl_typesupport_fastrtps_cpp__visibility_control.h
[0.933s] -- Up-to-date: /home/dom/Cerberus/install/tutorial_interfaces/lib/libtutorial_interfaces__rosidl_typesupport_fastrtps_cpp.so
[0.933s] -- Up-to-date: /home/dom/Cerberus/install/tutorial_interfaces/include/tutorial_interfaces
[0.933s] -- Up-to-date: /home/dom/Cerberus/install/tutorial_interfaces/include/tutorial_interfaces/msg
[0.934s] -- Up-to-date: /home/dom/Cerberus/install/tutorial_interfaces/include/tutorial_interfaces/msg/rosidl_typesupport_introspection_c__visibility_control.h
[0.934s] -- Up-to-date: /home/dom/Cerberus/install/tutorial_interfaces/include/tutorial_interfaces/msg/num__type_support.c
[0.934s] -- Up-to-date: /home/dom/Cerberus/install/tutorial_interfaces/include/tutorial_interfaces/msg/num__rosidl_typesupport_introspection_c.h
[0.934s] -- Up-to-date: /home/dom/Cerberus/install/tutorial_interfaces/lib/libtutorial_interfaces__rosidl_typesupport_introspection_c.so
[0.934s] -- Up-to-date: /home/dom/Cerberus/install/tutorial_interfaces/include/tutorial_interfaces
[0.934s] -- Up-to-date: /home/dom/Cerberus/install/tutorial_interfaces/include/tutorial_interfaces/msg
[0.934s] -- Up-to-date: /home/dom/Cerberus/install/tutorial_interfaces/include/tutorial_interfaces/msg/num__rosidl_typesupport_opensplice_c.h
[0.934s] -- Up-to-date: /home/dom/Cerberus/install/tutorial_interfaces/include/tutorial_interfaces/msg/rosidl_typesupport_opensplice_c__visibility_control.h
[0.934s] -- Up-to-date: /home/dom/Cerberus/install/tutorial_interfaces/include/tutorial_interfaces/msg/dds_opensplice_c
[0.935s] -- Up-to-date: /home/dom/Cerberus/install/tutorial_interfaces/lib/libtutorial_interfaces__rosidl_typesupport_opensplice_c.so
[0.935s] -- Up-to-date: /home/dom/Cerberus/install/tutorial_interfaces/share/tutorial_interfaces/msg/dds_opensplice
[0.935s] -- Up-to-date: /home/dom/Cerberus/install/tutorial_interfaces/share/tutorial_interfaces/msg/dds_opensplice/Num_.idl
[0.935s] -- Up-to-date: /home/dom/Cerberus/install/tutorial_interfaces/include/tutorial_interfaces
[0.935s] -- Up-to-date: /home/dom/Cerberus/install/tutorial_interfaces/include/tutorial_interfaces/msg
[0.935s] -- Up-to-date: /home/dom/Cerberus/install/tutorial_interfaces/include/tutorial_interfaces/msg/dds_opensplice
[0.935s] -- Up-to-date: /home/dom/Cerberus/install/tutorial_interfaces/include/tutorial_interfaces/msg/dds_opensplice/ccpp_Num_.h
[0.935s] -- Up-to-date: /home/dom/Cerberus/install/tutorial_interfaces/include/tutorial_interfaces/msg/dds_opensplice/Num_Dcps_impl.h
[0.935s] -- Up-to-date: /home/dom/Cerberus/install/tutorial_interfaces/include/tutorial_interfaces/msg/dds_opensplice/Num_SplDcps.h
[0.936s] -- Up-to-date: /home/dom/Cerberus/install/tutorial_interfaces/include/tutorial_interfaces/msg/dds_opensplice/Num_Dcps.h
[0.936s] -- Up-to-date: /home/dom/Cerberus/install/tutorial_interfaces/include/tutorial_interfaces/msg/dds_opensplice/Num_.h
[0.936s] -- Up-to-date: /home/dom/Cerberus/install/tutorial_interfaces/include/tutorial_interfaces/msg/num__rosidl_typesupport_opensplice_cpp.hpp
[0.936s] -- Up-to-date: /home/dom/Cerberus/install/tutorial_interfaces/include/tutorial_interfaces/msg/rosidl_typesupport_opensplice_cpp__visibility_control.h
[0.936s] -- Up-to-date: /home/dom/Cerberus/install/tutorial_interfaces/lib/libtutorial_interfaces__rosidl_typesupport_opensplice_cpp.so
[0.936s] -- Up-to-date: /home/dom/Cerberus/install/tutorial_interfaces/include/tutorial_interfaces
[0.936s] -- Up-to-date: /home/dom/Cerberus/install/tutorial_interfaces/include/tutorial_interfaces/msg
[0.936s] -- Up-to-date: /home/dom/Cerberus/install/tutorial_interfaces/include/tutorial_interfaces/msg/num__type_support.cpp
[0.936s] -- Up-to-date: /home/dom/Cerberus/install/tutorial_interfaces/include/tutorial_interfaces/msg/num__rosidl_typesupport_introspection_cpp.hpp
[0.937s] -- Up-to-date: /home/dom/Cerberus/install/tutorial_interfaces/lib/libtutorial_interfaces__rosidl_typesupport_introspection_cpp.so
[0.937s] -- Up-to-date: /home/dom/Cerberus/install/tutorial_interfaces/share/tutorial_interfaces/environment/pythonpath.sh
[0.937s] -- Up-to-date: /home/dom/Cerberus/install/tutorial_interfaces/lib/python3.6/site-packages/tutorial_interfaces/__init__.py
[0.963s] -- Up-to-date: /home/dom/Cerberus/install/tutorial_interfaces/lib/python3.6/site-packages/tutorial_interfaces/msg
[0.963s] -- Up-to-date: /home/dom/Cerberus/install/tutorial_interfaces/lib/python3.6/site-packages/tutorial_interfaces/msg/_num.py
[0.963s] -- Up-to-date: /home/dom/Cerberus/install/tutorial_interfaces/lib/python3.6/site-packages/tutorial_interfaces/msg/_num_s.c
[0.963s] -- Up-to-date: /home/dom/Cerberus/install/tutorial_interfaces/lib/python3.6/site-packages/tutorial_interfaces/msg/__init__.py
[0.963s] -- Up-to-date: /home/dom/Cerberus/install/tutorial_interfaces/lib/python3.6/site-packages/tutorial_interfaces/tutorial_interfaces_s__rosidl_typesupport_c.cpython-36m-x86_64-linux-gnu.so
[0.964s] -- Up-to-date: /home/dom/Cerberus/install/tutorial_interfaces/lib/python3.6/site-packages/tutorial_interfaces/tutorial_interfaces_s__rosidl_typesupport_fastrtps_c.cpython-36m-x86_64-linux-gnu.so
[0.965s] -- Up-to-date: /home/dom/Cerberus/install/tutorial_interfaces/lib/python3.6/site-packages/tutorial_interfaces/tutorial_interfaces_s__rosidl_typesupport_opensplice_c.cpython-36m-x86_64-linux-gnu.so
[0.965s] -- Up-to-date: /home/dom/Cerberus/install/tutorial_interfaces/lib/libtutorial_interfaces__python.so
[0.965s] -- Up-to-date: /home/dom/Cerberus/install/tutorial_interfaces/share/tutorial_interfaces/msg/Num.idl
[0.965s] -- Up-to-date: /home/dom/Cerberus/install/tutorial_interfaces/share/tutorial_interfaces/msg/Num.msg
[0.966s] -- Up-to-date: /home/dom/Cerberus/install/tutorial_interfaces/share/ament_index/resource_index/package_run_dependencies/tutorial_interfaces
[0.966s] -- Up-to-date: /home/dom/Cerberus/install/tutorial_interfaces/share/ament_index/resource_index/parent_prefix_path/tutorial_interfaces
[0.966s] -- Up-to-date: /home/dom/Cerberus/install/tutorial_interfaces/share/tutorial_interfaces/environment/ament_prefix_path.sh
[0.966s] -- Up-to-date: /home/dom/Cerberus/install/tutorial_interfaces/share/tutorial_interfaces/environment/path.sh
[0.966s] -- Up-to-date: /home/dom/Cerberus/install/tutorial_interfaces/share/tutorial_interfaces/local_setup.bash
[0.966s] -- Up-to-date: /home/dom/Cerberus/install/tutorial_interfaces/share/tutorial_interfaces/local_setup.sh
[0.966s] -- Up-to-date: /home/dom/Cerberus/install/tutorial_interfaces/share/tutorial_interfaces/local_setup.zsh
[0.966s] -- Up-to-date: /home/dom/Cerberus/install/tutorial_interfaces/share/ament_index/resource_index/packages/tutorial_interfaces
[0.966s] -- Up-to-date: /home/dom/Cerberus/install/tutorial_interfaces/share/tutorial_interfaces/cmake/rosidl_cmake-extras.cmake
[0.966s] -- Up-to-date: /home/dom/Cerberus/install/tutorial_interfaces/share/tutorial_interfaces/cmake/ament_cmake_export_libraries-extras.cmake
[0.966s] -- Up-to-date: /home/dom/Cerberus/install/tutorial_interfaces/share/tutorial_interfaces/cmake/ament_cmake_export_include_directories-extras.cmake
[0.966s] -- Up-to-date: /home/dom/Cerberus/install/tutorial_interfaces/share/tutorial_interfaces/cmake/rosidl_cmake_export_typesupport_libraries-extras.cmake
[0.967s] -- Up-to-date: /home/dom/Cerberus/install/tutorial_interfaces/share/tutorial_interfaces/cmake/tutorial_interfacesConfig.cmake
[0.967s] -- Up-to-date: /home/dom/Cerberus/install/tutorial_interfaces/share/tutorial_interfaces/cmake/tutorial_interfacesConfig-version.cmake
[0.967s] -- Up-to-date: /home/dom/Cerberus/install/tutorial_interfaces/share/tutorial_interfaces/package.xml
