[0.320s] [35m[1mScanning dependencies of target central_main[0m
[0.361s] [ 50%] [32mBuilding CXX object CMakeFiles/central_main.dir/src/central_main.cpp.o[0m
[2.418s] [100%] [32m[1mLinking CXX executable central_main[0m
[2.550s] [100%] Built target central_main
[2.635s] [100%] Built target central_main
[2.661s] [36mInstall the project...[0m
[2.678s] -- Install configuration: ""
[2.679s] -- Installing: /home/dom/Cerberus/install/central/lib/central/central_main
[2.680s] -- Set runtime path of "/home/dom/Cerberus/install/central/lib/central/central_main" to ""
[2.681s] -- Up-to-date: /home/dom/Cerberus/install/central/share/ament_index/resource_index/package_run_dependencies/central
[2.681s] -- Up-to-date: /home/dom/Cerberus/install/central/share/ament_index/resource_index/parent_prefix_path/central
[2.682s] -- Up-to-date: /home/dom/Cerberus/install/central/share/central/environment/ament_prefix_path.sh
[2.682s] -- Up-to-date: /home/dom/Cerberus/install/central/share/central/environment/path.sh
[2.682s] -- Up-to-date: /home/dom/Cerberus/install/central/share/central/local_setup.bash
[2.682s] -- Up-to-date: /home/dom/Cerberus/install/central/share/central/local_setup.sh
[2.682s] -- Up-to-date: /home/dom/Cerberus/install/central/share/central/local_setup.zsh
[2.682s] -- Up-to-date: /home/dom/Cerberus/install/central/share/ament_index/resource_index/packages/central
[2.682s] -- Up-to-date: /home/dom/Cerberus/install/central/share/central/cmake/centralConfig.cmake
[2.683s] -- Up-to-date: /home/dom/Cerberus/install/central/share/central/cmake/centralConfig-version.cmake
[2.683s] -- Up-to-date: /home/dom/Cerberus/install/central/share/central/package.xml
