[0.262s] Invoking command in '/home/dom/Cerberus/src/camera': CONDA_PROMPT_MODIFIER=(base) PYTHONPATH=/home/dom/Cerberus/install/camera/lib/python3.6/site-packages:${PYTHONPATH} /usr/bin/python3 setup.py egg_info --egg-base /home/dom/Cerberus/build/camera build --build-base /home/dom/Cerberus/build/camera/build install --prefix /home/dom/Cerberus/install/camera --record /home/dom/Cerberus/build/camera/install.log --single-version-externally-managed
[0.553s] running egg_info
[0.555s] writing /home/dom/Cerberus/build/camera/camera.egg-info/PKG-INFO
[0.555s] writing dependency_links to /home/dom/Cerberus/build/camera/camera.egg-info/dependency_links.txt
[0.556s] writing entry points to /home/dom/Cerberus/build/camera/camera.egg-info/entry_points.txt
[0.556s] writing requirements to /home/dom/Cerberus/build/camera/camera.egg-info/requires.txt
[0.556s] writing top-level names to /home/dom/Cerberus/build/camera/camera.egg-info/top_level.txt
[0.585s] reading manifest file '/home/dom/Cerberus/build/camera/camera.egg-info/SOURCES.txt'
[0.586s] writing manifest file '/home/dom/Cerberus/build/camera/camera.egg-info/SOURCES.txt'
[0.586s] running build
[0.586s] running build_py
[0.587s] running install
[0.587s] running install_lib
[0.588s] running install_data
[0.589s] running install_egg_info
[0.590s] removing '/home/dom/Cerberus/install/camera/lib/python3.6/site-packages/camera-0.0.0-py3.6.egg-info' (and everything under it)
[0.591s] Copying /home/dom/Cerberus/build/camera/camera.egg-info to /home/dom/Cerberus/install/camera/lib/python3.6/site-packages/camera-0.0.0-py3.6.egg-info
[0.591s] running install_scripts
[0.608s] Installing camera_msg script to /home/dom/Cerberus/install/camera/lib/camera
[0.609s] Installing detector script to /home/dom/Cerberus/install/camera/lib/camera
[0.609s] Installing util script to /home/dom/Cerberus/install/camera/lib/camera
[0.609s] writing list of installed files to '/home/dom/Cerberus/build/camera/install.log'
[0.629s] Invoked command in '/home/dom/Cerberus/src/camera' returned '0': CONDA_PROMPT_MODIFIER=(base) PYTHONPATH=/home/dom/Cerberus/install/camera/lib/python3.6/site-packages:${PYTHONPATH} /usr/bin/python3 setup.py egg_info --egg-base /home/dom/Cerberus/build/camera build --build-base /home/dom/Cerberus/build/camera/build install --prefix /home/dom/Cerberus/install/camera --record /home/dom/Cerberus/build/camera/install.log --single-version-externally-managed
