[0.271s] [100%] Built target central_controller
[0.357s] [100%] Built target central_controller
[0.373s] [36mInstall the project...[0m
[0.380s] -- Install configuration: ""
[0.380s] -- Up-to-date: /home/dom/Cerberus/install/central/lib/central/central_controller
[0.381s] -- Up-to-date: /home/dom/Cerberus/install/central/share/ament_index/resource_index/package_run_dependencies/central
[0.381s] -- Up-to-date: /home/dom/Cerberus/install/central/share/ament_index/resource_index/parent_prefix_path/central
[0.381s] -- Up-to-date: /home/dom/Cerberus/install/central/share/central/environment/ament_prefix_path.sh
[0.381s] -- Up-to-date: /home/dom/Cerberus/install/central/share/central/environment/path.sh
[0.381s] -- Up-to-date: /home/dom/Cerberus/install/central/share/central/local_setup.bash
[0.381s] -- Up-to-date: /home/dom/Cerberus/install/central/share/central/local_setup.sh
[0.382s] -- Up-to-date: /home/dom/Cerberus/install/central/share/central/local_setup.zsh
[0.382s] -- Up-to-date: /home/dom/Cerberus/install/central/share/ament_index/resource_index/packages/central
[0.382s] -- Up-to-date: /home/dom/Cerberus/install/central/share/central/cmake/centralConfig.cmake
[0.382s] -- Up-to-date: /home/dom/Cerberus/install/central/share/central/cmake/centralConfig-version.cmake
[0.382s] -- Up-to-date: /home/dom/Cerberus/install/central/share/central/package.xml
