[0.242s] Invoking command in '/home/dom/Cerberus/build/central': CMAKE_PREFIX_PATH=${CMAKE_PREFIX_PATH}:/home/dom/Cerberus/install/camera:/opt/ros/dashing /usr/bin/cmake --build /home/dom/Cerberus/build/central -- -j12 -l12
[2.270s] Invoked command in '/home/dom/Cerberus/build/central' returned '0': CMAKE_PREFIX_PATH=${CMAKE_PREFIX_PATH}:/home/dom/Cerberus/install/camera:/opt/ros/dashing /usr/bin/cmake --build /home/dom/Cerberus/build/central -- -j12 -l12
[2.291s] Invoking command in '/home/dom/Cerberus/build/central': CMAKE_PREFIX_PATH=${CMAKE_PREFIX_PATH}:/home/dom/Cerberus/install/camera:/opt/ros/dashing /usr/bin/cmake --build /home/dom/Cerberus/build/central --target install -- -j12 -l12
[2.364s] Invoked command in '/home/dom/Cerberus/build/central' returned '0': CMAKE_PREFIX_PATH=${CMAKE_PREFIX_PATH}:/home/dom/Cerberus/install/camera:/opt/ros/dashing /usr/bin/cmake --build /home/dom/Cerberus/build/central --target install -- -j12 -l12
