[0.318s] [35m[1mScanning dependencies of target central_main[0m
[0.353s] [ 50%] [32mBuilding CXX object CMakeFiles/central_main.dir/src/central_main.cpp.o[0m
[1.400s] [01m[K/home/dom/Cerberus/src/central/src/central_main.cpp:20:46:[m[K [01;31m[Kerror: [m[K‘[01m[KImg[m[K’ in namespace ‘[01m[Kstd_msgs::msg[m[K’ does not name a type
[1.401s]      void topic_callback(const std_msgs::msg::[01;31m[KImg[m[K::SharedPtr msg) const
[1.401s]                                               [01;31m[K^~~[m[K
[1.401s] [01m[K/home/dom/Cerberus/src/central/src/central_main.cpp:20:61:[m[K [01;31m[Kerror: [m[Kexpected unqualified-id before ‘[01m[Kmsg[m[K’
[1.401s]      void topic_callback(const std_msgs::msg::Img::SharedPtr [01;31m[Kmsg[m[K) const
[1.401s]                                                              [01;31m[K^~~[m[K
[1.401s] [01m[K/home/dom/Cerberus/src/central/src/central_main.cpp:20:61:[m[K [01;31m[Kerror: [m[Kexpected ‘[01m[K)[m[K’ before ‘[01m[Kmsg[m[K’
[1.402s] [01m[K/home/dom/Cerberus/src/central/src/central_main.cpp:20:51:[m[K [01;31m[Kerror: [m[Kexpected ‘[01m[K;[m[K’ at end of member declaration
[1.402s]      void topic_callback(const std_msgs::msg::Img::[01;31m[KSharedPtr[m[K msg) const
[1.402s]                                                    [01;31m[K^~~~~~~~~[m[K
[1.402s] [01m[K/home/dom/Cerberus/src/central/src/central_main.cpp:20:61:[m[K [01;31m[Kerror: [m[K‘[01m[Kmsg[m[K’ does not name a type
[1.402s]      void topic_callback(const std_msgs::msg::Img::SharedPtr [01;31m[Kmsg[m[K) const
[1.402s]                                                              [01;31m[K^~~[m[K
[1.402s] [01m[K/home/dom/Cerberus/src/central/src/central_main.cpp:24:41:[m[K [01;31m[Kerror: [m[K‘[01m[KImg[m[K’ is not a member of ‘[01m[Kstd_msgs::msg[m[K’
[1.402s]      rclcpp::Subscription<std_msgs::msg::[01;31m[KImg[m[K>::SharedPtr subscription_;
[1.402s]                                          [01;31m[K^~~[m[K
[1.402s] [01m[K/home/dom/Cerberus/src/central/src/central_main.cpp:24:41:[m[K [01;36m[Knote: [m[Ksuggested alternative:
[1.403s] In file included from [01m[K/home/dom/Cerberus/install/messages/include/messages/msg/img.hpp:7:0[m[K,
[1.403s]                  from [01m[K/home/dom/Cerberus/src/central/src/central_main.cpp:6[m[K:
[1.403s] [01m[K/home/dom/Cerberus/install/messages/include/messages/msg/img__struct.hpp:188:44:[m[K [01;36m[Knote: [m[K  ‘[01m[Kmessages::msg::Img[m[K’
[1.403s]    messages::msg::Img_<std::allocator<void>>[01;36m[K;[m[K
[1.403s]                                             [01;36m[K^[m[K
[1.403s] [01m[K/home/dom/Cerberus/src/central/src/central_main.cpp:24:41:[m[K [01;31m[Kerror: [m[K‘[01m[KImg[m[K’ is not a member of ‘[01m[Kstd_msgs::msg[m[K’
[1.403s]      rclcpp::Subscription<std_msgs::msg::[01;31m[KImg[m[K>::SharedPtr subscription_;
[1.403s]                                          [01;31m[K^~~[m[K
[1.403s] [01m[K/home/dom/Cerberus/src/central/src/central_main.cpp:24:41:[m[K [01;36m[Knote: [m[Ksuggested alternative:
[1.403s] In file included from [01m[K/home/dom/Cerberus/install/messages/include/messages/msg/img.hpp:7:0[m[K,
[1.403s]                  from [01m[K/home/dom/Cerberus/src/central/src/central_main.cpp:6[m[K:
[1.403s] [01m[K/home/dom/Cerberus/install/messages/include/messages/msg/img__struct.hpp:188:44:[m[K [01;36m[Knote: [m[K  ‘[01m[Kmessages::msg::Img[m[K’
[1.403s]    messages::msg::Img_<std::allocator<void>>[01;36m[K;[m[K
[1.403s]                                             [01;36m[K^[m[K
[1.404s] [01m[K/home/dom/Cerberus/src/central/src/central_main.cpp:24:44:[m[K [01;31m[Kerror: [m[Ktemplate argument 1 is invalid
[1.404s]      rclcpp::Subscription<std_msgs::msg::Img[01;31m[K>[m[K::SharedPtr subscription_;
[1.404s]                                             [01;31m[K^[m[K
[1.404s] [01m[K/home/dom/Cerberus/src/central/src/central_main.cpp:24:47:[m[K [01;31m[Kerror: [m[Kexpected ‘[01m[K;[m[K’ at end of member declaration
[1.404s]      rclcpp::Subscription<std_msgs::msg::Img>::[01;31m[KSharedPtr[m[K subscription_;
[1.404s]                                                [01;31m[K^~~~~~~~~[m[K
[1.404s] [01m[K/home/dom/Cerberus/src/central/src/central_main.cpp:24:57:[m[K [01;31m[Kerror: [m[K‘[01m[Ksubscription_[m[K’ does not name a type; did you mean ‘[01m[Krcl_subscription_t[m[K’?
[1.404s]      rclcpp::Subscription<std_msgs::msg::Img>::SharedPtr [01;31m[Ksubscription_[m[K;
[1.404s]                                                          [01;31m[K^~~~~~~~~~~~~[m[K
[1.404s]                                                          [32m[Krcl_subscription_t[m[K
[1.404s] [01m[K/home/dom/Cerberus/src/central/src/central_main.cpp:[m[K In constructor ‘[01m[KImageSubscriber::ImageSubscriber()[m[K’:
[1.404s] [01m[K/home/dom/Cerberus/src/central/src/central_main.cpp:16:7:[m[K [01;31m[Kerror: [m[K‘[01m[Ksubscription_[m[K’ was not declared in this scope
[1.404s]        [01;31m[Ksubscription_[m[K = this->create_subscription<std_msgs::msg::Img>("image_data", 10, std::bind(&ImageSubscriber::topic_callback, this, _1));
[1.404s]        [01;31m[K^~~~~~~~~~~~~[m[K
[1.406s] [01m[K/home/dom/Cerberus/src/central/src/central_main.cpp:16:7:[m[K [01;36m[Knote: [m[Ksuggested alternative: ‘[01m[Krcl_subscription_t[m[K’
[1.406s]        [01;36m[Ksubscription_[m[K = this->create_subscription<std_msgs::msg::Img>("image_data", 10, std::bind(&ImageSubscriber::topic_callback, this, _1));
[1.406s]        [01;36m[K^~~~~~~~~~~~~[m[K
[1.406s]        [32m[Krcl_subscription_t[m[K
[1.406s] [01m[K/home/dom/Cerberus/src/central/src/central_main.cpp:16:64:[m[K [01;31m[Kerror: [m[K‘[01m[KImg[m[K’ is not a member of ‘[01m[Kstd_msgs::msg[m[K’
[1.406s]        subscription_ = this->create_subscription<std_msgs::msg::[01;31m[KImg[m[K>("image_data", 10, std::bind(&ImageSubscriber::topic_callback, this, _1));
[1.406s]                                                                 [01;31m[K^~~[m[K
[1.406s] [01m[K/home/dom/Cerberus/src/central/src/central_main.cpp:16:64:[m[K [01;36m[Knote: [m[Ksuggested alternative:
[1.406s] In file included from [01m[K/home/dom/Cerberus/install/messages/include/messages/msg/img.hpp:7:0[m[K,
[1.406s]                  from [01m[K/home/dom/Cerberus/src/central/src/central_main.cpp:6[m[K:
[1.406s] [01m[K/home/dom/Cerberus/install/messages/include/messages/msg/img__struct.hpp:188:44:[m[K [01;36m[Knote: [m[K  ‘[01m[Kmessages::msg::Img[m[K’
[1.406s]    messages::msg::Img_<std::allocator<void>>[01;36m[K;[m[K
[1.406s]                                             [01;36m[K^[m[K
[1.406s] [01m[K/home/dom/Cerberus/src/central/src/central_main.cpp:16:64:[m[K [01;31m[Kerror: [m[K‘[01m[KImg[m[K’ is not a member of ‘[01m[Kstd_msgs::msg[m[K’
[1.406s]        subscription_ = this->create_subscription<std_msgs::msg::[01;31m[KImg[m[K>("image_data", 10, std::bind(&ImageSubscriber::topic_callback, this, _1));
[1.407s]                                                                 [01;31m[K^~~[m[K
[1.407s] [01m[K/home/dom/Cerberus/src/central/src/central_main.cpp:16:64:[m[K [01;36m[Knote: [m[Ksuggested alternative:
[1.407s] In file included from [01m[K/home/dom/Cerberus/install/messages/include/messages/msg/img.hpp:7:0[m[K,
[1.407s]                  from [01m[K/home/dom/Cerberus/src/central/src/central_main.cpp:6[m[K:
[1.407s] [01m[K/home/dom/Cerberus/install/messages/include/messages/msg/img__struct.hpp:188:44:[m[K [01;36m[Knote: [m[K  ‘[01m[Kmessages::msg::Img[m[K’
[1.407s]    messages::msg::Img_<std::allocator<void>>[01;36m[K;[m[K
[1.407s]                                             [01;36m[K^[m[K
[1.414s] [01m[K/home/dom/Cerberus/src/central/src/central_main.cpp:16:140:[m[K [01;31m[Kerror: [m[Kno matching function for call to ‘[01m[KImageSubscriber::create_subscription<<expression error> >(const char [11], int, std::_Bind_helper<false, void (ImageSubscriber::*)(...), ImageSubscriber*, const std::_Placeholder<1>&>::type)[m[K’
[1.414s]  :Img>("image_data", 10, std::bind(&ImageSubscriber::topic_callback, this, _1)[01;31m[K)[m[K;
[1.414s]                                                                               [01;31m[K^[m[K
[1.414s] In file included from [01m[K/opt/ros/dashing/include/rclcpp/executors/single_threaded_executor.hpp:28:0[m[K,
[1.414s]                  from [01m[K/opt/ros/dashing/include/rclcpp/executors.hpp:22[m[K,
[1.414s]                  from [01m[K/opt/ros/dashing/include/rclcpp/rclcpp.hpp:144[m[K,
[1.414s]                  from [01m[K/home/dom/Cerberus/src/central/src/central_main.cpp:3[m[K:
[1.414s] [01m[K/opt/ros/dashing/include/rclcpp/node.hpp:242:3:[m[K [01;36m[Knote: [m[Kcandidate: template<class MessageT, class CallbackT, class AllocatorT, class SubscriptionT> std::shared_ptr<SubscriptionT> rclcpp::Node::create_subscription(const string&, const rclcpp::QoS&, CallbackT&&, const rclcpp::SubscriptionOptionsWithAllocator<AllocatorT>&, typename rclcpp::message_memory_strategy::MessageMemoryStrategy<typename rclcpp::subscription_traits::has_message_type<CallbackT>::type, AllocatorT>::SharedPtr)
[1.414s]    [01;36m[Kcreate_subscription[m[K(
[1.414s]    [01;36m[K^~~~~~~~~~~~~~~~~~~[m[K
[1.415s] [01m[K/opt/ros/dashing/include/rclcpp/node.hpp:242:3:[m[K [01;36m[Knote: [m[K  template argument deduction/substitution failed:
[1.415s] [01m[K/home/dom/Cerberus/src/central/src/central_main.cpp:16:140:[m[K [01;31m[Kerror: [m[Ktemplate argument 1 is invalid
[1.415s]  :Img>("image_data", 10, std::bind(&ImageSubscriber::topic_callback, this, _1)[01;31m[K)[m[K;
[1.415s]                                                                               [01;31m[K^[m[K
[1.415s] In file included from [01m[K/opt/ros/dashing/include/rclcpp/executors/single_threaded_executor.hpp:28:0[m[K,
[1.415s]                  from [01m[K/opt/ros/dashing/include/rclcpp/executors.hpp:22[m[K,
[1.415s]                  from [01m[K/opt/ros/dashing/include/rclcpp/rclcpp.hpp:144[m[K,
[1.415s]                  from [01m[K/home/dom/Cerberus/src/central/src/central_main.cpp:3[m[K:
[1.415s] [01m[K/opt/ros/dashing/include/rclcpp/node.hpp:279:3:[m[K [01;36m[Knote: [m[Kcandidate: template<class MessageT, class CallbackT, class Alloc, class SubscriptionT> std::shared_ptr<SubscriptionT> rclcpp::Node::create_subscription(const string&, CallbackT&&, const rmw_qos_profile_t&, rclcpp::callback_group::CallbackGroup::SharedPtr, bool, typename rclcpp::message_memory_strategy::MessageMemoryStrategy<typename rclcpp::subscription_traits::has_message_type<CallbackT>::type, AllocatorT>::SharedPtr, std::shared_ptr<PublisherT>)
[1.415s]    [01;36m[Kcreate_subscription[m[K(
[1.415s]    [01;36m[K^~~~~~~~~~~~~~~~~~~[m[K
[1.415s] [01m[K/opt/ros/dashing/include/rclcpp/node.hpp:279:3:[m[K [01;36m[Knote: [m[K  template argument deduction/substitution failed:
[1.415s] [01m[K/home/dom/Cerberus/src/central/src/central_main.cpp:16:140:[m[K [01;31m[Kerror: [m[Ktemplate argument 1 is invalid
[1.415s]  :Img>("image_data", 10, std::bind(&ImageSubscriber::topic_callback, this, _1)[01;31m[K)[m[K;
[1.415s]                                                                               [01;31m[K^[m[K
[1.415s] In file included from [01m[K/opt/ros/dashing/include/rclcpp/executors/single_threaded_executor.hpp:28:0[m[K,
[1.415s]                  from [01m[K/opt/ros/dashing/include/rclcpp/executors.hpp:22[m[K,
[1.415s]                  from [01m[K/opt/ros/dashing/include/rclcpp/rclcpp.hpp:144[m[K,
[1.416s]                  from [01m[K/home/dom/Cerberus/src/central/src/central_main.cpp:3[m[K:
[1.416s] [01m[K/opt/ros/dashing/include/rclcpp/node.hpp:316:3:[m[K [01;36m[Knote: [m[Kcandidate: template<class MessageT, class CallbackT, class Alloc, class SubscriptionT> std::shared_ptr<SubscriptionT> rclcpp::Node::create_subscription(const string&, CallbackT&&, size_t, rclcpp::callback_group::CallbackGroup::SharedPtr, bool, typename rclcpp::message_memory_strategy::MessageMemoryStrategy<typename rclcpp::subscription_traits::has_message_type<CallbackT>::type, AllocatorT>::SharedPtr, std::shared_ptr<PublisherT>)
[1.416s]    [01;36m[Kcreate_subscription[m[K(
[1.416s]    [01;36m[K^~~~~~~~~~~~~~~~~~~[m[K
[1.416s] [01m[K/opt/ros/dashing/include/rclcpp/node.hpp:316:3:[m[K [01;36m[Knote: [m[K  template argument deduction/substitution failed:
[1.416s] [01m[K/home/dom/Cerberus/src/central/src/central_main.cpp:16:140:[m[K [01;31m[Kerror: [m[Ktemplate argument 1 is invalid
[1.416s]  :Img>("image_data", 10, std::bind(&ImageSubscriber::topic_callback, this, _1)[01;31m[K)[m[K;
[1.416s]                                                                               [01;31m[K^[m[K
[1.535s] make[2]: *** [CMakeFiles/central_main.dir/src/central_main.cpp.o] Error 1
[1.535s] CMakeFiles/central_main.dir/build.make:62: recipe for target 'CMakeFiles/central_main.dir/src/central_main.cpp.o' failed
[1.535s] CMakeFiles/Makefile2:67: recipe for target 'CMakeFiles/central_main.dir/all' failed
[1.536s] make[1]: *** [CMakeFiles/central_main.dir/all] Error 2
[1.536s] make: *** [all] Error 2
[1.536s] Makefile:140: recipe for target 'all' failed
