[1.207s] [01m[K/home/dom/Cerberus/src/central/src/central_main.cpp:[m[K In function ‘[01m[Kint main(int, char**)[m[K’:
[1.207s] [01m[K/home/dom/Cerberus/src/central/src/central_main.cpp:39:7:[m[K [01;35m[Kwarning: [m[Kunused variable ‘[01m[Karduino[m[K’ [[01;35m[K-Wunused-variable[m[K]
[1.207s]  FILE *[01;35m[Karduino[m[K;
[1.207s]        [01;35m[K^~~~~~~[m[K
