[0.274s] [35m[1mScanning dependencies of target central_main[0m
[0.308s] [ 50%] [32mBuilding CXX object CMakeFiles/central_main.dir/src/central_main.cpp.o[0m
[1.505s] [100%] [32m[1mLinking CXX executable central_main[0m
[1.566s] [100%] Built target central_main
[1.641s] [100%] Built target central_main
[1.660s] [36mInstall the project...[0m
[1.670s] -- Install configuration: ""
[1.671s] -- Installing: /home/dom/Cerberus/install/central/lib/central/central_main
[1.671s] -- Set runtime path of "/home/dom/Cerberus/install/central/lib/central/central_main" to ""
[1.671s] -- Up-to-date: /home/dom/Cerberus/install/central/share/ament_index/resource_index/package_run_dependencies/central
[1.672s] -- Up-to-date: /home/dom/Cerberus/install/central/share/ament_index/resource_index/parent_prefix_path/central
[1.672s] -- Up-to-date: /home/dom/Cerberus/install/central/share/central/environment/ament_prefix_path.sh
[1.672s] -- Up-to-date: /home/dom/Cerberus/install/central/share/central/environment/path.sh
[1.672s] -- Up-to-date: /home/dom/Cerberus/install/central/share/central/local_setup.bash
[1.672s] -- Up-to-date: /home/dom/Cerberus/install/central/share/central/local_setup.sh
[1.672s] -- Up-to-date: /home/dom/Cerberus/install/central/share/central/local_setup.zsh
[1.672s] -- Up-to-date: /home/dom/Cerberus/install/central/share/ament_index/resource_index/packages/central
[1.673s] -- Up-to-date: /home/dom/Cerberus/install/central/share/central/cmake/centralConfig.cmake
[1.673s] -- Up-to-date: /home/dom/Cerberus/install/central/share/central/cmake/centralConfig-version.cmake
[1.673s] -- Up-to-date: /home/dom/Cerberus/install/central/share/central/package.xml
