[0.267s] Invoking command in '/home/dom/Cerberus/build/messages': CMAKE_PREFIX_PATH=/opt/ros/dashing /usr/bin/cmake --build /home/dom/Cerberus/build/messages -- -j12 -l12
[0.630s] Invoked command in '/home/dom/Cerberus/build/messages' returned '0': CMAKE_PREFIX_PATH=/opt/ros/dashing /usr/bin/cmake --build /home/dom/Cerberus/build/messages -- -j12 -l12
[0.737s] Invoking command in '/home/dom/Cerberus/build/messages': CMAKE_PREFIX_PATH=/opt/ros/dashing /usr/bin/cmake --build /home/dom/Cerberus/build/messages --target install -- -j12 -l12
[1.152s] Invoked command in '/home/dom/Cerberus/build/messages' returned '0': CMAKE_PREFIX_PATH=/opt/ros/dashing /usr/bin/cmake --build /home/dom/Cerberus/build/messages --target install -- -j12 -l12
