[0.020s] Invoking command in '/home/dom/Cerberus/build/camera': CMAKE_PREFIX_PATH=${CMAKE_PREFIX_PATH}:/opt/ros/dashing /usr/bin/cmake /home/dom/Cerberus/src/camera -DCMAKE_INSTALL_PREFIX=/home/dom/Cerberus/install/camera
[5.405s] Invoked command in '/home/dom/Cerberus/build/camera' returned '0': CMAKE_PREFIX_PATH=${CMAKE_PREFIX_PATH}:/opt/ros/dashing /usr/bin/cmake /home/dom/Cerberus/src/camera -DCMAKE_INSTALL_PREFIX=/home/dom/Cerberus/install/camera
[5.407s] Invoking command in '/home/dom/Cerberus/build/camera': CMAKE_PREFIX_PATH=${CMAKE_PREFIX_PATH}:/opt/ros/dashing /usr/bin/cmake --build /home/dom/Cerberus/build/camera -- -j12 -l12
[27.359s] Invoked command in '/home/dom/Cerberus/build/camera' returned '0': CMAKE_PREFIX_PATH=${CMAKE_PREFIX_PATH}:/opt/ros/dashing /usr/bin/cmake --build /home/dom/Cerberus/build/camera -- -j12 -l12
[27.484s] Invoking command in '/home/dom/Cerberus/build/camera': CMAKE_PREFIX_PATH=${CMAKE_PREFIX_PATH}:/opt/ros/dashing /usr/bin/cmake --build /home/dom/Cerberus/build/camera --target install -- -j12 -l12
[28.543s] Invoked command in '/home/dom/Cerberus/build/camera' returned '0': CMAKE_PREFIX_PATH=${CMAKE_PREFIX_PATH}:/opt/ros/dashing /usr/bin/cmake --build /home/dom/Cerberus/build/camera --target install -- -j12 -l12
