[0.293s] Invoking command in '/home/dom/Cerberus/src/camera': PYTHONPATH=/home/dom/Cerberus/install/camera/lib/python3.6/site-packages:${PYTHONPATH} /usr/bin/python3 setup.py egg_info --egg-base /home/dom/Cerberus/build/camera build --build-base /home/dom/Cerberus/build/camera/build install --prefix /home/dom/Cerberus/install/camera --record /home/dom/Cerberus/build/camera/install.log --single-version-externally-managed
[0.683s] running egg_info
[0.685s] writing /home/dom/Cerberus/build/camera/camera.egg-info/PKG-INFO
[0.685s] writing dependency_links to /home/dom/Cerberus/build/camera/camera.egg-info/dependency_links.txt
[0.685s] writing entry points to /home/dom/Cerberus/build/camera/camera.egg-info/entry_points.txt
[0.686s] writing requirements to /home/dom/Cerberus/build/camera/camera.egg-info/requires.txt
[0.686s] writing top-level names to /home/dom/Cerberus/build/camera/camera.egg-info/top_level.txt
[0.723s] reading manifest file '/home/dom/Cerberus/build/camera/camera.egg-info/SOURCES.txt'
[0.724s] writing manifest file '/home/dom/Cerberus/build/camera/camera.egg-info/SOURCES.txt'
[0.725s] running build
[0.725s] running build_py
[0.725s] running install
[0.725s] running install_lib
[0.727s] running install_data
[0.727s] running install_egg_info
[0.729s] removing '/home/dom/Cerberus/install/camera/lib/python3.6/site-packages/camera-0.0.0-py3.6.egg-info' (and everything under it)
[0.730s] Copying /home/dom/Cerberus/build/camera/camera.egg-info to /home/dom/Cerberus/install/camera/lib/python3.6/site-packages/camera-0.0.0-py3.6.egg-info
[0.730s] running install_scripts
[0.750s] Installing camera_msg script to /home/dom/Cerberus/install/camera/lib/camera
[0.751s] Installing detector script to /home/dom/Cerberus/install/camera/lib/camera
[0.753s] Installing util script to /home/dom/Cerberus/install/camera/lib/camera
[0.753s] writing list of installed files to '/home/dom/Cerberus/build/camera/install.log'
[0.777s] Invoked command in '/home/dom/Cerberus/src/camera' returned '0': PYTHONPATH=/home/dom/Cerberus/install/camera/lib/python3.6/site-packages:${PYTHONPATH} /usr/bin/python3 setup.py egg_info --egg-base /home/dom/Cerberus/build/camera build --build-base /home/dom/Cerberus/build/camera/build install --prefix /home/dom/Cerberus/install/camera --record /home/dom/Cerberus/build/camera/install.log --single-version-externally-managed
