[0.353s] [35m[1mScanning dependencies of target central_main[0m
[0.403s] [ 50%] [32mBuilding CXX object CMakeFiles/central_main.dir/src/central_main.cpp.o[0m
[1.509s] [01m[K/home/dom/Cerberus/src/central/src/central_main.cpp:[m[K In function ‘[01m[Kint main(int, char**)[m[K’:
[1.509s] [01m[K/home/dom/Cerberus/src/central/src/central_main.cpp:46:5:[m[K [01;35m[Kwarning: [m[Kunused variable ‘[01m[Kinstr[m[K’ [[01;35m[K-Wunused-variable[m[K]
[1.509s]  int [01;35m[Kinstr[m[K = 4;
[1.509s]      [01;35m[K^~~~~[m[K
[1.955s] [100%] [32m[1mLinking CXX executable central_main[0m
[2.029s] [100%] Built target central_main
[2.347s] [100%] Built target central_main
[2.418s] [36mInstall the project...[0m
[2.452s] -- Install configuration: ""
[2.453s] -- Installing: /home/dom/Cerberus/install/central/lib/central/central_main
[2.455s] -- Set runtime path of "/home/dom/Cerberus/install/central/lib/central/central_main" to ""
[2.455s] -- Up-to-date: /home/dom/Cerberus/install/central/share/ament_index/resource_index/package_run_dependencies/central
[2.456s] -- Up-to-date: /home/dom/Cerberus/install/central/share/ament_index/resource_index/parent_prefix_path/central
[2.457s] -- Up-to-date: /home/dom/Cerberus/install/central/share/central/environment/ament_prefix_path.sh
[2.458s] -- Up-to-date: /home/dom/Cerberus/install/central/share/central/environment/path.sh
[2.458s] -- Up-to-date: /home/dom/Cerberus/install/central/share/central/local_setup.bash
[2.458s] -- Up-to-date: /home/dom/Cerberus/install/central/share/central/local_setup.sh
[2.458s] -- Up-to-date: /home/dom/Cerberus/install/central/share/central/local_setup.zsh
[2.459s] -- Up-to-date: /home/dom/Cerberus/install/central/share/ament_index/resource_index/packages/central
[2.459s] -- Up-to-date: /home/dom/Cerberus/install/central/share/central/cmake/centralConfig.cmake
[2.459s] -- Up-to-date: /home/dom/Cerberus/install/central/share/central/cmake/centralConfig-version.cmake
[2.460s] -- Up-to-date: /home/dom/Cerberus/install/central/share/central/package.xml
