[1.536s] [01m[K/home/dom/Cerberus/src/central/src/central_main.cpp:18:1:[m[K [01;31m[Kerror: [m[K‘[01m[Karduino[m[K’ does not name a type
[1.536s]  [01;31m[Karduino[m[K.open("/dev/ttyACM0",ios::in | ios::out);
[1.536s]  [01;31m[K^~~~~~~[m[K
[1.537s] [01m[K/home/dom/Cerberus/src/central/src/central_main.cpp:21:1:[m[K [01;31m[Kerror: [m[K‘[01m[Karduino[m[K’ does not name a type
[1.537s]  [01;31m[Karduino[m[K<<instr;
[1.537s]  [01;31m[K^~~~~~~[m[K
[1.537s] [01m[K/home/dom/Cerberus/src/central/src/central_main.cpp:22:1:[m[K [01;31m[Kerror: [m[K‘[01m[Karduino[m[K’ does not name a type
[1.537s]  [01;31m[Karduino[m[K.clear();
[1.537s]  [01;31m[K^~~~~~~[m[K
[2.053s] make[2]: *** [CMakeFiles/central_main.dir/src/central_main.cpp.o] Error 1
[2.054s] make[1]: *** [CMakeFiles/central_main.dir/all] Error 2
[2.054s] make: *** [all] Error 2
