[0.592s] [  1%] Built target tutorial_interfaces__dds_connext_idl
[0.596s] [  3%] Built target tutorial_interfaces__dds_opensplice_idl
[0.599s] [  9%] Built target tutorial_interfaces__cpp
[0.600s] [  9%] Built target tutorial_interfaces__rosidl_generator_c
[0.691s] [ 13%] Built target tutorial_interfaces__rosidl_typesupport_introspection_c
[0.691s] [ 18%] Built target tutorial_interfaces__rosidl_typesupport_cpp
[0.692s] [ 23%] Built target tutorial_interfaces__rosidl_typesupport_introspection_cpp
[0.693s] [ 27%] Built target tutorial_interfaces__rosidl_typesupport_c
[0.717s] [ 32%] Built target tutorial_interfaces__rosidl_typesupport_fastrtps_cpp
[0.739s] [ 44%] Built target tutorial_interfaces__rosidl_typesupport_opensplice_cpp
[0.741s] [ 55%] Built target tutorial_interfaces__rosidl_typesupport_connext_cpp
[0.787s] [ 60%] Built target tutorial_interfaces__rosidl_typesupport_fastrtps_c
[0.830s] [ 73%] Built target tutorial_interfaces__rosidl_typesupport_opensplice_c
[0.846s] [ 86%] Built target tutorial_interfaces__rosidl_typesupport_connext_c
[0.891s] [ 86%] Built target tutorial_interfaces
[0.936s] [ 87%] Built target tutorial_interfaces__py
[0.996s] [ 90%] Built target tutorial_interfaces__python
[1.058s] [ 93%] Built target tutorial_interfaces__rosidl_typesupport_c__pyext
[1.059s] [ 96%] Built target tutorial_interfaces__rosidl_typesupport_fastrtps_c__pyext
[1.061s] [100%] Built target tutorial_interfaces__rosidl_typesupport_opensplice_c__pyext
[1.404s] [  1%] Built target tutorial_interfaces__dds_opensplice_idl
[1.408s] [  3%] Built target tutorial_interfaces__dds_connext_idl
[1.412s] [  4%] Built target tutorial_interfaces__cpp
[1.423s] [  9%] Built target tutorial_interfaces__rosidl_generator_c
[1.524s] [ 13%] Built target tutorial_interfaces__rosidl_typesupport_cpp
[1.525s] [ 18%] Built target tutorial_interfaces__rosidl_typesupport_introspection_cpp
[1.539s] [ 23%] Built target tutorial_interfaces__rosidl_typesupport_introspection_c
[1.550s] [ 27%] Built target tutorial_interfaces__rosidl_typesupport_c
[1.557s] [ 32%] Built target tutorial_interfaces__rosidl_typesupport_fastrtps_cpp
[1.595s] [ 44%] Built target tutorial_interfaces__rosidl_typesupport_opensplice_cpp
[1.612s] [ 55%] Built target tutorial_interfaces__rosidl_typesupport_connext_cpp
[1.664s] [ 60%] Built target tutorial_interfaces__rosidl_typesupport_fastrtps_c
[1.706s] [ 73%] Built target tutorial_interfaces__rosidl_typesupport_opensplice_c
[1.717s] [ 86%] Built target tutorial_interfaces__rosidl_typesupport_connext_c
[1.758s] [ 86%] Built target tutorial_interfaces
[1.799s] [ 87%] Built target tutorial_interfaces__py
[1.892s] [ 90%] Built target tutorial_interfaces__python
[1.993s] [ 93%] Built target tutorial_interfaces__rosidl_typesupport_fastrtps_c__pyext
[1.994s] [ 96%] Built target tutorial_interfaces__rosidl_typesupport_opensplice_c__pyext
[2.007s] [100%] Built target tutorial_interfaces__rosidl_typesupport_c__pyext
[2.086s] [36mInstall the project...[0m
[2.121s] -- Install configuration: ""
[2.122s] -- Up-to-date: /home/dom/Cerberus/install/tutorial_interfaces/share/ament_index/resource_index/rosidl_interfaces/tutorial_interfaces
[2.123s] -- Up-to-date: /home/dom/Cerberus/install/tutorial_interfaces/lib/libtutorial_interfaces__rosidl_typesupport_c.so
[2.124s] -- Up-to-date: /home/dom/Cerberus/install/tutorial_interfaces/share/tutorial_interfaces/environment/library_path.sh
[2.125s] -- Up-to-date: /home/dom/Cerberus/install/tutorial_interfaces/lib/libtutorial_interfaces__rosidl_typesupport_cpp.so
[2.125s] -- Up-to-date: /home/dom/Cerberus/install/tutorial_interfaces/include/tutorial_interfaces
[2.126s] -- Up-to-date: /home/dom/Cerberus/install/tutorial_interfaces/include/tutorial_interfaces/msg
[2.126s] -- Up-to-date: /home/dom/Cerberus/install/tutorial_interfaces/include/tutorial_interfaces/msg/dds_connext
[2.127s] -- Up-to-date: /home/dom/Cerberus/install/tutorial_interfaces/include/tutorial_interfaces/msg/rosidl_typesupport_connext_c__visibility_control.h
[2.127s] -- Up-to-date: /home/dom/Cerberus/install/tutorial_interfaces/include/tutorial_interfaces/msg/num__rosidl_typesupport_connext_c.h
[2.128s] -- Up-to-date: /home/dom/Cerberus/install/tutorial_interfaces/lib/libtutorial_interfaces__rosidl_typesupport_connext_c.so
[2.128s] -- Up-to-date: /home/dom/Cerberus/install/tutorial_interfaces/include/tutorial_interfaces
[2.128s] -- Up-to-date: /home/dom/Cerberus/install/tutorial_interfaces/include/tutorial_interfaces/msg
[2.129s] -- Up-to-date: /home/dom/Cerberus/install/tutorial_interfaces/include/tutorial_interfaces/msg/num__functions.h
[2.129s] -- Up-to-date: /home/dom/Cerberus/install/tutorial_interfaces/include/tutorial_interfaces/msg/rosidl_generator_c__visibility_control.h
[2.129s] -- Up-to-date: /home/dom/Cerberus/install/tutorial_interfaces/include/tutorial_interfaces/msg/num__functions.c
[2.129s] -- Up-to-date: /home/dom/Cerberus/install/tutorial_interfaces/include/tutorial_interfaces/msg/num.h
[2.130s] -- Up-to-date: /home/dom/Cerberus/install/tutorial_interfaces/include/tutorial_interfaces/msg/num__type_support.h
[2.130s] -- Up-to-date: /home/dom/Cerberus/install/tutorial_interfaces/include/tutorial_interfaces/msg/num__struct.h
[2.130s] -- Up-to-date: /home/dom/Cerberus/install/tutorial_interfaces/lib/libtutorial_interfaces__rosidl_generator_c.so
[2.130s] -- Up-to-date: /home/dom/Cerberus/install/tutorial_interfaces/share/tutorial_interfaces/msg/dds_connext
[2.131s] -- Up-to-date: /home/dom/Cerberus/install/tutorial_interfaces/share/tutorial_interfaces/msg/dds_connext/Num_.idl
[2.131s] -- Up-to-date: /home/dom/Cerberus/install/tutorial_interfaces/include/tutorial_interfaces
[2.131s] -- Up-to-date: /home/dom/Cerberus/install/tutorial_interfaces/include/tutorial_interfaces/msg
[2.131s] -- Up-to-date: /home/dom/Cerberus/install/tutorial_interfaces/include/tutorial_interfaces/msg/dds_connext
[2.132s] -- Up-to-date: /home/dom/Cerberus/install/tutorial_interfaces/include/tutorial_interfaces/msg/dds_connext/Num_Support.cxx
[2.132s] -- Up-to-date: /home/dom/Cerberus/install/tutorial_interfaces/include/tutorial_interfaces/msg/dds_connext/Num_Support.h
[2.132s] -- Up-to-date: /home/dom/Cerberus/install/tutorial_interfaces/include/tutorial_interfaces/msg/dds_connext/Num_Plugin.cxx
[2.132s] -- Up-to-date: /home/dom/Cerberus/install/tutorial_interfaces/include/tutorial_interfaces/msg/dds_connext/Num_.cxx
[2.133s] -- Up-to-date: /home/dom/Cerberus/install/tutorial_interfaces/include/tutorial_interfaces/msg/dds_connext/Num_Plugin.h
[2.133s] -- Up-to-date: /home/dom/Cerberus/install/tutorial_interfaces/include/tutorial_interfaces/msg/dds_connext/Num_.h
[2.133s] -- Up-to-date: /home/dom/Cerberus/install/tutorial_interfaces/include/tutorial_interfaces/msg/rosidl_typesupport_connext_cpp__visibility_control.h
[2.133s] -- Up-to-date: /home/dom/Cerberus/install/tutorial_interfaces/include/tutorial_interfaces/msg/num__rosidl_typesupport_connext_cpp.hpp
[2.134s] -- Up-to-date: /home/dom/Cerberus/install/tutorial_interfaces/lib/libtutorial_interfaces__rosidl_typesupport_connext_cpp.so
[2.134s] -- Up-to-date: /home/dom/Cerberus/install/tutorial_interfaces/include/tutorial_interfaces
[2.134s] -- Up-to-date: /home/dom/Cerberus/install/tutorial_interfaces/include/tutorial_interfaces/msg
[2.134s] -- Up-to-date: /home/dom/Cerberus/install/tutorial_interfaces/include/tutorial_interfaces/msg/num__traits.hpp
[2.134s] -- Up-to-date: /home/dom/Cerberus/install/tutorial_interfaces/include/tutorial_interfaces/msg/num__struct.hpp
[2.135s] -- Up-to-date: /home/dom/Cerberus/install/tutorial_interfaces/include/tutorial_interfaces/msg/num.hpp
[2.135s] -- Up-to-date: /home/dom/Cerberus/install/tutorial_interfaces/include/tutorial_interfaces
[2.135s] -- Up-to-date: /home/dom/Cerberus/install/tutorial_interfaces/include/tutorial_interfaces/msg
[2.136s] -- Up-to-date: /home/dom/Cerberus/install/tutorial_interfaces/include/tutorial_interfaces/msg/rosidl_typesupport_fastrtps_c__visibility_control.h
[2.136s] -- Up-to-date: /home/dom/Cerberus/install/tutorial_interfaces/include/tutorial_interfaces/msg/num__rosidl_typesupport_fastrtps_c.h
[2.136s] -- Up-to-date: /home/dom/Cerberus/install/tutorial_interfaces/lib/libtutorial_interfaces__rosidl_typesupport_fastrtps_c.so
[2.136s] -- Up-to-date: /home/dom/Cerberus/install/tutorial_interfaces/include/tutorial_interfaces
[2.136s] -- Up-to-date: /home/dom/Cerberus/install/tutorial_interfaces/include/tutorial_interfaces/msg
[2.136s] -- Up-to-date: /home/dom/Cerberus/install/tutorial_interfaces/include/tutorial_interfaces/msg/dds_fastrtps
[2.137s] -- Up-to-date: /home/dom/Cerberus/install/tutorial_interfaces/include/tutorial_interfaces/msg/num__rosidl_typesupport_fastrtps_cpp.hpp
[2.137s] -- Up-to-date: /home/dom/Cerberus/install/tutorial_interfaces/include/tutorial_interfaces/msg/rosidl_typesupport_fastrtps_cpp__visibility_control.h
[2.137s] -- Up-to-date: /home/dom/Cerberus/install/tutorial_interfaces/lib/libtutorial_interfaces__rosidl_typesupport_fastrtps_cpp.so
[2.137s] -- Up-to-date: /home/dom/Cerberus/install/tutorial_interfaces/include/tutorial_interfaces
[2.137s] -- Up-to-date: /home/dom/Cerberus/install/tutorial_interfaces/include/tutorial_interfaces/msg
[2.138s] -- Up-to-date: /home/dom/Cerberus/install/tutorial_interfaces/include/tutorial_interfaces/msg/rosidl_typesupport_introspection_c__visibility_control.h
[2.138s] -- Up-to-date: /home/dom/Cerberus/install/tutorial_interfaces/include/tutorial_interfaces/msg/num__type_support.c
[2.138s] -- Up-to-date: /home/dom/Cerberus/install/tutorial_interfaces/include/tutorial_interfaces/msg/num__rosidl_typesupport_introspection_c.h
[2.138s] -- Up-to-date: /home/dom/Cerberus/install/tutorial_interfaces/lib/libtutorial_interfaces__rosidl_typesupport_introspection_c.so
[2.139s] -- Up-to-date: /home/dom/Cerberus/install/tutorial_interfaces/include/tutorial_interfaces
[2.139s] -- Up-to-date: /home/dom/Cerberus/install/tutorial_interfaces/include/tutorial_interfaces/msg
[2.139s] -- Up-to-date: /home/dom/Cerberus/install/tutorial_interfaces/include/tutorial_interfaces/msg/num__rosidl_typesupport_opensplice_c.h
[2.139s] -- Up-to-date: /home/dom/Cerberus/install/tutorial_interfaces/include/tutorial_interfaces/msg/rosidl_typesupport_opensplice_c__visibility_control.h
[2.139s] -- Up-to-date: /home/dom/Cerberus/install/tutorial_interfaces/include/tutorial_interfaces/msg/dds_opensplice_c
[2.140s] -- Up-to-date: /home/dom/Cerberus/install/tutorial_interfaces/lib/libtutorial_interfaces__rosidl_typesupport_opensplice_c.so
[2.140s] -- Up-to-date: /home/dom/Cerberus/install/tutorial_interfaces/share/tutorial_interfaces/msg/dds_opensplice
[2.140s] -- Up-to-date: /home/dom/Cerberus/install/tutorial_interfaces/share/tutorial_interfaces/msg/dds_opensplice/Num_.idl
[2.141s] -- Up-to-date: /home/dom/Cerberus/install/tutorial_interfaces/include/tutorial_interfaces
[2.141s] -- Up-to-date: /home/dom/Cerberus/install/tutorial_interfaces/include/tutorial_interfaces/msg
[2.141s] -- Up-to-date: /home/dom/Cerberus/install/tutorial_interfaces/include/tutorial_interfaces/msg/dds_opensplice
[2.142s] -- Up-to-date: /home/dom/Cerberus/install/tutorial_interfaces/include/tutorial_interfaces/msg/dds_opensplice/ccpp_Num_.h
[2.142s] -- Up-to-date: /home/dom/Cerberus/install/tutorial_interfaces/include/tutorial_interfaces/msg/dds_opensplice/Num_Dcps_impl.h
[2.142s] -- Up-to-date: /home/dom/Cerberus/install/tutorial_interfaces/include/tutorial_interfaces/msg/dds_opensplice/Num_SplDcps.h
[2.142s] -- Up-to-date: /home/dom/Cerberus/install/tutorial_interfaces/include/tutorial_interfaces/msg/dds_opensplice/Num_Dcps.h
[2.142s] -- Up-to-date: /home/dom/Cerberus/install/tutorial_interfaces/include/tutorial_interfaces/msg/dds_opensplice/Num_.h
[2.143s] -- Up-to-date: /home/dom/Cerberus/install/tutorial_interfaces/include/tutorial_interfaces/msg/num__rosidl_typesupport_opensplice_cpp.hpp
[2.143s] -- Up-to-date: /home/dom/Cerberus/install/tutorial_interfaces/include/tutorial_interfaces/msg/rosidl_typesupport_opensplice_cpp__visibility_control.h
[2.143s] -- Up-to-date: /home/dom/Cerberus/install/tutorial_interfaces/lib/libtutorial_interfaces__rosidl_typesupport_opensplice_cpp.so
[2.143s] -- Up-to-date: /home/dom/Cerberus/install/tutorial_interfaces/include/tutorial_interfaces
[2.143s] -- Up-to-date: /home/dom/Cerberus/install/tutorial_interfaces/include/tutorial_interfaces/msg
[2.143s] -- Up-to-date: /home/dom/Cerberus/install/tutorial_interfaces/include/tutorial_interfaces/msg/num__type_support.cpp
[2.143s] -- Up-to-date: /home/dom/Cerberus/install/tutorial_interfaces/include/tutorial_interfaces/msg/num__rosidl_typesupport_introspection_cpp.hpp
[2.144s] -- Up-to-date: /home/dom/Cerberus/install/tutorial_interfaces/lib/libtutorial_interfaces__rosidl_typesupport_introspection_cpp.so
[2.144s] -- Up-to-date: /home/dom/Cerberus/install/tutorial_interfaces/share/tutorial_interfaces/environment/pythonpath.sh
[2.144s] -- Up-to-date: /home/dom/Cerberus/install/tutorial_interfaces/lib/python3.6/site-packages/tutorial_interfaces/__init__.py
[2.231s] -- Up-to-date: /home/dom/Cerberus/install/tutorial_interfaces/lib/python3.6/site-packages/tutorial_interfaces/msg
[2.231s] -- Up-to-date: /home/dom/Cerberus/install/tutorial_interfaces/lib/python3.6/site-packages/tutorial_interfaces/msg/_num.py
[2.232s] -- Up-to-date: /home/dom/Cerberus/install/tutorial_interfaces/lib/python3.6/site-packages/tutorial_interfaces/msg/_num_s.c
[2.232s] -- Up-to-date: /home/dom/Cerberus/install/tutorial_interfaces/lib/python3.6/site-packages/tutorial_interfaces/msg/__init__.py
[2.232s] -- Up-to-date: /home/dom/Cerberus/install/tutorial_interfaces/lib/python3.6/site-packages/tutorial_interfaces/tutorial_interfaces_s__rosidl_typesupport_c.cpython-36m-x86_64-linux-gnu.so
[2.234s] -- Up-to-date: /home/dom/Cerberus/install/tutorial_interfaces/lib/python3.6/site-packages/tutorial_interfaces/tutorial_interfaces_s__rosidl_typesupport_fastrtps_c.cpython-36m-x86_64-linux-gnu.so
[2.236s] -- Up-to-date: /home/dom/Cerberus/install/tutorial_interfaces/lib/python3.6/site-packages/tutorial_interfaces/tutorial_interfaces_s__rosidl_typesupport_opensplice_c.cpython-36m-x86_64-linux-gnu.so
[2.238s] -- Up-to-date: /home/dom/Cerberus/install/tutorial_interfaces/lib/libtutorial_interfaces__python.so
[2.238s] -- Up-to-date: /home/dom/Cerberus/install/tutorial_interfaces/share/tutorial_interfaces/msg/Num.idl
[2.239s] -- Up-to-date: /home/dom/Cerberus/install/tutorial_interfaces/share/tutorial_interfaces/msg/Num.msg
[2.240s] -- Up-to-date: /home/dom/Cerberus/install/tutorial_interfaces/share/ament_index/resource_index/package_run_dependencies/tutorial_interfaces
[2.240s] -- Up-to-date: /home/dom/Cerberus/install/tutorial_interfaces/share/ament_index/resource_index/parent_prefix_path/tutorial_interfaces
[2.241s] -- Up-to-date: /home/dom/Cerberus/install/tutorial_interfaces/share/tutorial_interfaces/environment/ament_prefix_path.sh
[2.241s] -- Up-to-date: /home/dom/Cerberus/install/tutorial_interfaces/share/tutorial_interfaces/environment/path.sh
[2.241s] -- Up-to-date: /home/dom/Cerberus/install/tutorial_interfaces/share/tutorial_interfaces/local_setup.bash
[2.241s] -- Up-to-date: /home/dom/Cerberus/install/tutorial_interfaces/share/tutorial_interfaces/local_setup.sh
[2.242s] -- Up-to-date: /home/dom/Cerberus/install/tutorial_interfaces/share/tutorial_interfaces/local_setup.zsh
[2.242s] -- Up-to-date: /home/dom/Cerberus/install/tutorial_interfaces/share/ament_index/resource_index/packages/tutorial_interfaces
[2.242s] -- Up-to-date: /home/dom/Cerberus/install/tutorial_interfaces/share/tutorial_interfaces/cmake/rosidl_cmake-extras.cmake
[2.242s] -- Up-to-date: /home/dom/Cerberus/install/tutorial_interfaces/share/tutorial_interfaces/cmake/ament_cmake_export_libraries-extras.cmake
[2.242s] -- Up-to-date: /home/dom/Cerberus/install/tutorial_interfaces/share/tutorial_interfaces/cmake/ament_cmake_export_include_directories-extras.cmake
[2.243s] -- Up-to-date: /home/dom/Cerberus/install/tutorial_interfaces/share/tutorial_interfaces/cmake/rosidl_cmake_export_typesupport_libraries-extras.cmake
[2.243s] -- Up-to-date: /home/dom/Cerberus/install/tutorial_interfaces/share/tutorial_interfaces/cmake/tutorial_interfacesConfig.cmake
[2.243s] -- Up-to-date: /home/dom/Cerberus/install/tutorial_interfaces/share/tutorial_interfaces/cmake/tutorial_interfacesConfig-version.cmake
[2.243s] -- Up-to-date: /home/dom/Cerberus/install/tutorial_interfaces/share/tutorial_interfaces/package.xml
